EDI_INTBC_20180613
TableName	Actflag	Created	Changed	IntbcID	SecID	ISIN	EffectiveDate	OldIntBasis	NewIntBasis	OldIntBDC	NewIntBDC
INTBC	I	2018/06/13	2018/06/13	56265	5571469	US87161C6003	2023/06/21	FXD	FR	FBD	FBD
INTBC	I	2018/06/13	2018/06/13	56265	5571469	US87161C6003	2023/06/21	FXD	FR	FBD	FBD
INTBC	I	2018/06/13	2018/06/13	56266	5571515	US404280BT50	2028/06/19	FXD	FR	MFBD	MFBD
INTBC	I	2018/06/13	2018/06/13	56266	5571515	US404280BT50	2028/06/19	FXD	FR	MFBD	MFBD
INTBC	I	2018/06/13	2018/06/13	56267	5568870	US46647PAS56	2021/06/18	FXD	FR	FBD	MFBD
EDI_ENDOFFILE
