EDI_BBE_20180613
tablename	ActFlag	Created	Changed	BbeId	SecId	Exchgcd	Curencd	BbgexhId	Bbgexhtk
BBE	U	2013/07/01	2018/06/13	502365	4059564			BBG004N6X2X5	BNS 3.75 06/13/33 MTN
BBE	U	2016/11/21	2018/06/13	898736	4964636			BBG00F9ZNLB5	FHLMC 1.75 12/13/19 0000
BBE	U	2017/05/29	2018/06/13	982027	5150287			BBG00GQVVSW6	FHLMC 1.75 06/13/22
BBE	U	2017/08/21	2018/06/13	1027477	5241282			BBG00HG0THJ5	FHLB 1.95 09/13/22
BBE	U	2017/11/27	2018/06/13	1079470	5339519			BBG00JC0LVP5	FHLB 2.5 12/13/22
BBE	U	2018/01/08	2018/06/13	1097399	5380644			BBG00JPFFL59	XIB 0 07/12/18
BBE	I	2012/10/25	2012/10/25	383613	1760688			BBG0009VPGW3	GESEA 2005-1A A
BBE	U	2018/05/14	2018/06/13	1158691	5529522			BBG00KTN6SS5	XIT 3.125 05/15/48
BBE	U	2018/06/04	2018/06/13	1168119	5556032			BBG00L1HT7P0	CS V0 06/04/20 mTn
BBE	U	2018/06/11	2018/06/13	1171075	5559730			BBG00L2NZCK3	CS V0 06/10/19 M7n
BBE	U	2018/06/11	2018/06/13	1171246	5561410			BBG00L2MSQ40	GS V0 06/06/22 dMTN
BBE	U	2018/06/11	2018/06/13	1170993	5562967			BBG00L3355S6	BACR V0 06/19/25 M7n
BBE	U	2018/06/11	2018/06/13	1171078	5564906			BBG00L2YCT27	CS 0 09/11/19 .mTn
BBE	U	2018/06/11	2018/06/13	1170979	5564965			BBG00L44NNT3	BNP 0 12/10/19 0017
BBE	U	2018/06/11	2018/06/13	1170992	5564929			BBG00L335H82	BACR 0 12/31/20 GMT5
BBE	U	2018/06/11	2018/06/13	1171080	5566496			BBG00L2C86Q4	DTAOT 2018-2A D
BBE	I	2018/06/11	2018/06/11	1171131	5564064			BBG00L44LXW9	FHLB F 03/13/19 0
BBE	I	2018/06/11	2018/06/11	1171271	5562744			BBG00L2DB0Q1	JPM V0 06/11/20 GMTN
BBE	I	2018/06/11	2018/06/11	1171033	5561173			BBG0014J72Z1	CMTLKD V0 08/06/19 01
BBE	I	2018/04/16	2018/04/16	1145382	5499724			BBG00KHJCSP3	DAMACR 6.625 04/18/23
BBE	I	2018/03/12	2018/03/12	1127236	5453785			BBG00K80G801	GEOCAP 6.125 03/09/24 REGS
BBE	U	2012/10/25	2013/07/02	363433	170738			BBG00004H181	ORAFP 8.5 03/01/31
EDI_ENDOFFILE
