EDI_LSTAT_20180613
TableName	Actflag	Created	Changed	LstatID	SecID	ISIN	ExchgCD	NotificationDate	EffectiveDate	LStatStatus	EventType	Reason
LSTAT	U	2016/05/17	2018/06/13	5211024	757805	US870738AF81	DEBSE	2016/04/21	2016/04/21	D	LSTAT	
LSTAT	U	2015/12/22	2018/06/13	5125467	757805	US870738AF81	USNYSE	2016/04/21	2016/04/21	D	LSTAT	
LSTAT	I	2018/06/13	2018/06/13	5652013	757805	US870738AF81	USOTC	2016/04/25	2016/04/25	D	CONV	Final Redemption-Conversion of the security
LSTAT	U	2018/06/13	2018/06/13	5427312	757805	US870738AF81	USOTC	2016/04/21	2016/04/21	R	LSTAT	
LSTAT	U	2017/06/22	2018/06/13	5427313	757805	US870738AF81	USTRCE	2016/04/21	2016/04/21	D	REDEM	Final Redemption of the Security.
LSTAT	U	2016/05/17	2018/06/13	5211024	757805	US870738AF81	DEBSE	2016/04/21	2016/04/21	D	LSTAT	
LSTAT	U	2015/12/22	2018/06/13	5125467	757805	US870738AF81	USNYSE	2016/04/21	2016/04/21	D	LSTAT	
LSTAT	I	2018/06/13	2018/06/13	5652013	757805	US870738AF81	USOTC	2016/04/25	2016/04/25	D	CONV	Final Redemption-Conversion of the security
LSTAT	U	2018/06/13	2018/06/13	5427312	757805	US870738AF81	USOTC	2016/04/21	2016/04/21	R	LSTAT	
LSTAT	U	2017/06/22	2018/06/13	5427313	757805	US870738AF81	USTRCE	2016/04/21	2016/04/21	D	REDEM	Final Redemption of the Security.
LSTAT	I	2018/06/13	2018/06/13	5651583	985901	US74432RAH66	USOTC	2018/05/24	2018/05/24	D	REDEM	Final Redemption of the security
LSTAT	I	2018/06/13	2018/06/13	5651584	985901	US74432RAH66	USTRCE	2018/05/24	2018/05/24	D	REDEM	Final Redemption of the security
LSTAT	I	2018/06/13	2018/06/13	5651583	985901	US74432RAH66	USOTC	2018/05/24	2018/05/24	D	REDEM	Final Redemption of the security
LSTAT	I	2018/06/13	2018/06/13	5651584	985901	US74432RAH66	USTRCE	2018/05/24	2018/05/24	D	REDEM	Final Redemption of the security
LSTAT	U	2018/06/11	2018/06/13	5650153	1198489	US9026417454	USPAC	2018/06/26	2018/06/26	D	REDEM	(As on 1206/2018) USETFCOM<BR>Coming Wavelet Of ETN Closures<BR>Although it cannot be compared to April, which saw 50 iPath ETNs close or delist, June will be having its own little storm of ETN shutdowns. UBS is closing five ETRACS and three VelocityShares ETNs.<BR>The eight products will see their last day of trading on June 25. The notes, their tickers and their assets under management are as follows:<BR>` ETRACS 1x Monthly Short Alerian MLP Infrastructure TR ETN (MLPS), USD1.9 million<BR>` ETRACS UBS Bloomberg CMCI Livestock Total Return ETN (UBC), USD2.4 million<BR>` ETRACS UBS Bloomberg CMCI Industrial Metals Total Return ETN (UBM), USD1.9 million<BR>` ETRACS UBS Bloomberg CMCI Energy Total Return ETN (UBN), USD2.1 million<BR>` ETRACS Monthly Reset 2x Leveraged S&P 500 Total Return ETN (SPLX), USD5.8 million<BR>` VelocityShares VIX Tail Risk ETN (BSWN), USD2.2 million<BR>` VelocityShares VIX Variable Long/Short ETN (LSVX), USD3 million<BR>` VelocityShares VIX Short Volatility Hedged ETN (XIVH), USD4.8 million<BR>Clearly, none of the shuttering ETNs have gathered much in the way of assets. UBS currently is the issuer backing 45 different ETNs, and the closures will bring the total number down to 37.<BR>However, the eight UBS closures are not the only ETN closures in June. On June 4, Barclays shut its Fisher Investments bespoke ETN, the Barclays ETN+FI Enhanced Global High Yield ETN (FIGY). Shortly before it closed, FIGY had nearly USD85 million in assets under management, but because of its bespoke nature, Fisher, as the product`s main investor and backer, could have triggered the shutdown due to a change in the company strategy and simply pulled its client assets from the ETN.<BR>Total completed ETF closures for the year currently stand at 83. If you subtract the outlier shutdown of 50 iPath ETNs in April, the amount of closures for 2018 so far exactly matches the 33 closures that had taken place by this time in 2017. Given last year was a record-breaking one in terms of the amount of closures, it looks like we have another banner year for ETF shutdowns ahead of us.<BR><BR>(As on 08/06/2018) USNWCAB <BR>UBS Announces Redemption of Eight ETNs <BR>UBS Investment Bank today announced that it will redeem all of the outstanding securities in each of the series set forth in the following table (collectively, the `Affected Securities`): <BR>NYSE Arca Ticker: UBN<BR>ETN Name and Prospectus / Pricing Supplement: ETRACS UBS Bloomberg CMCI Energy Total Return ETN<BR>CUSIP: 902641745<BR>Call Settlement Date: June 26, 2018<BR>The table above provides a hyperlink to the relevant prospectus, as supplemented by a prospectus supplement or product supplement and pricing supplement, as applicable, for each of the Affected Securities, which are identified by their names. Capitalized terms used but not defined herein shall have the meanings ascribed to such terms in the relevant prospectus and (i) prospectus supplement or (ii) product supplement and pricing supplement, as applicable, for the Affected Securities. With respect to each series of Affected Securities, the Call Settlement Amount (or, in the case of UBM, UBN, and UBC, the Redemption Amount) payable on the Call Settlement Date will be calculated as specified in the relevant prospectus and (i) prospectus supplement or (ii) product supplement and pricing supplement, as applicable, for the Affected Securities. UBS will pay the applicable Call Settlement Amount or Redemption Amount to investors holding Affected Securities on the applicable Call Settlement Date. Each series of Affected Securities will be delisted from the NYSE Arca exchange prior to the open of trading on the Call Settlement Date. Holders of the Affected Securities may choose to continue to hold their securities until the Call Settlement Date or choose to sell or redeem their Affected Securities prior to the applicable Call Settlement Date, in accordance with the terms of the Affected Securities. <BR>
LSTAT	U	2018/06/11	2018/06/13	5650145	1198519	US9026417520	USPAC	2018/06/26	2018/06/26	D	REDEM	(As on 1206/2018) USETFCOM<BR>Coming Wavelet Of ETN Closures<BR>Although it cannot be compared to April, which saw 50 iPath ETNs close or delist, June will be having its own little storm of ETN shutdowns. UBS is closing five ETRACS and three VelocityShares ETNs.<BR>The eight products will see their last day of trading on June 25. The notes, their tickers and their assets under management are as follows:<BR>` ETRACS 1x Monthly Short Alerian MLP Infrastructure TR ETN (MLPS), USD1.9 million<BR>` ETRACS UBS Bloomberg CMCI Livestock Total Return ETN (UBC), USD2.4 million<BR>` ETRACS UBS Bloomberg CMCI Industrial Metals Total Return ETN (UBM), USD1.9 million<BR>` ETRACS UBS Bloomberg CMCI Energy Total Return ETN (UBN), USD2.1 million<BR>` ETRACS Monthly Reset 2x Leveraged S&P 500 Total Return ETN (SPLX), USD5.8 million<BR>` VelocityShares VIX Tail Risk ETN (BSWN), USD2.2 million<BR>` VelocityShares VIX Variable Long/Short ETN (LSVX), USD3 million<BR>` VelocityShares VIX Short Volatility Hedged ETN (XIVH), USD4.8 million<BR>Clearly, none of the shuttering ETNs have gathered much in the way of assets. UBS currently is the issuer backing 45 different ETNs, and the closures will bring the total number down to 37.<BR>However, the eight UBS closures are not the only ETN closures in June. On June 4, Barclays shut its Fisher Investments bespoke ETN, the Barclays ETN+FI Enhanced Global High Yield ETN (FIGY). Shortly before it closed, FIGY had nearly USD85 million in assets under management, but because of its bespoke nature, Fisher, as the product`s main investor and backer, could have triggered the shutdown due to a change in the company strategy and simply pulled its client assets from the ETN.<BR>Total completed ETF closures for the year currently stand at 83. If you subtract the outlier shutdown of 50 iPath ETNs in April, the amount of closures for 2018 so far exactly matches the 33 closures that had taken place by this time in 2017. Given last year was a record-breaking one in terms of the amount of closures, it looks like we have another banner year for ETF shutdowns ahead of us.<BR><BR>(As on 08/06/2018) USNWCAB <BR>UBS Announces Redemption of Eight ETNs <BR>UBS Investment Bank today announced that it will redeem all of the outstanding securities in each of the series set forth in the following table (collectively, the `Affected Securities`): <BR>NYSE Arca Ticker: UBM<BR>ETN Name and Prospectus / Pricing Supplement: ETRACS UBS Bloomberg CMCI Industrial Metals Total Return ETN<BR>CUSIP: 902641752<BR>Call Settlement Date: June 26, 2018<BR>The table above provides a hyperlink to the relevant prospectus, as supplemented by a prospectus supplement or product supplement and pricing supplement, as applicable, for each of the Affected Securities, which are identified by their names. Capitalized terms used but not defined herein shall have the meanings ascribed to such terms in the relevant prospectus and (i) prospectus supplement or (ii) product supplement and pricing supplement, as applicable, for the Affected Securities. With respect to each series of Affected Securities, the Call Settlement Amount (or, in the case of UBM, UBN, and UBC, the Redemption Amount) payable on the Call Settlement Date will be calculated as specified in the relevant prospectus and (i) prospectus supplement or (ii) product supplement and pricing supplement, as applicable, for the Affected Securities. UBS will pay the applicable Call Settlement Amount or Redemption Amount to investors holding Affected Securities on the applicable Call Settlement Date. Each series of Affected Securities will be delisted from the NYSE Arca exchange prior to the open of trading on the Call Settlement Date. Holders of the Affected Securities may choose to continue to hold their securities until the Call Settlement Date or choose to sell or redeem their Affected Securities prior to the applicable Call Settlement Date, in accordance with the terms of the Affected Securities. <BR>
LSTAT	U	2018/06/11	2018/06/13	5650156	1198845	US9026418288	USPAC	2018/06/26	2018/06/26	D	REDEM	(As on 1206/2018) USETFCOM<BR>Coming Wavelet Of ETN Closures<BR>Although it cannot be compared to April, which saw 50 iPath ETNs close or delist, June will be having its own little storm of ETN shutdowns. UBS is closing five ETRACS and three VelocityShares ETNs.<BR>The eight products will see their last day of trading on June 25. The notes, their tickers and their assets under management are as follows:<BR>` ETRACS 1x Monthly Short Alerian MLP Infrastructure TR ETN (MLPS), USD1.9 million<BR>` ETRACS UBS Bloomberg CMCI Livestock Total Return ETN (UBC), USD2.4 million<BR>` ETRACS UBS Bloomberg CMCI Industrial Metals Total Return ETN (UBM), USD1.9 million<BR>` ETRACS UBS Bloomberg CMCI Energy Total Return ETN (UBN), USD2.1 million<BR>` ETRACS Monthly Reset 2x Leveraged S&P 500 Total Return ETN (SPLX), USD5.8 million<BR>` VelocityShares VIX Tail Risk ETN (BSWN), USD2.2 million<BR>` VelocityShares VIX Variable Long/Short ETN (LSVX), USD3 million<BR>` VelocityShares VIX Short Volatility Hedged ETN (XIVH), USD4.8 million<BR>Clearly, none of the shuttering ETNs have gathered much in the way of assets. UBS currently is the issuer backing 45 different ETNs, and the closures will bring the total number down to 37.<BR>However, the eight UBS closures are not the only ETN closures in June. On June 4, Barclays shut its Fisher Investments bespoke ETN, the Barclays ETN+FI Enhanced Global High Yield ETN (FIGY). Shortly before it closed, FIGY had nearly USD85 million in assets under management, but because of its bespoke nature, Fisher, as the product`s main investor and backer, could have triggered the shutdown due to a change in the company strategy and simply pulled its client assets from the ETN.<BR>Total completed ETF closures for the year currently stand at 83. If you subtract the outlier shutdown of 50 iPath ETNs in April, the amount of closures for 2018 so far exactly matches the 33 closures that had taken place by this time in 2017. Given last year was a record-breaking one in terms of the amount of closures, it looks like we have another banner year for ETF shutdowns ahead of us.<BR><BR>(As on 08/06/2018) USNWCAB <BR>UBS Announces Redemption of Eight ETNs <BR>UBS Investment Bank today announced that it will redeem all of the outstanding securities in each of the series set forth in the following table (collectively, the `Affected Securities`): <BR>NYSE Arca Ticker: UBC<BR>ETN Name and Prospectus / Pricing Supplement: ETRACS UBS Bloomberg CMCI Livestock Total Return ETN<BR>CUSIP: 902641828<BR>Call Settlement Date: June 26, 2018<BR>The table above provides a hyperlink to the relevant prospectus, as supplemented by a prospectus supplement or product supplement and pricing supplement, as applicable, for each of the Affected Securities, which are identified by their names. Capitalized terms used but not defined herein shall have the meanings ascribed to such terms in the relevant prospectus and (i) prospectus supplement or (ii) product supplement and pricing supplement, as applicable, for the Affected Securities. With respect to each series of Affected Securities, the Call Settlement Amount (or, in the case of UBM, UBN, and UBC, the Redemption Amount) payable on the Call Settlement Date will be calculated as specified in the relevant prospectus and (i) prospectus supplement or (ii) product supplement and pricing supplement, as applicable, for the Affected Securities. UBS will pay the applicable Call Settlement Amount or Redemption Amount to investors holding Affected Securities on the applicable Call Settlement Date. Each series of Affected Securities will be delisted from the NYSE Arca exchange prior to the open of trading on the Call Settlement Date. Holders of the Affected Securities may choose to continue to hold their securities until the Call Settlement Date or choose to sell or redeem their Affected Securities prior to the applicable Call Settlement Date, in accordance with the terms of the Affected Securities. <BR>
LSTAT	I	2018/06/13	2018/06/13	5652010	1662471	US870738AG64	USOTC	2016/04/25	2016/04/25	D	CONV	Final Redemption-Conversion of the security
LSTAT	I	2018/06/13	2018/06/13	5652011	1662471	US870738AG64	USTRCE	2016/04/25	2016/04/25	D	CONV	Final Redemption-Conversion of the security
LSTAT	I	2018/06/13	2018/06/13	5652010	1662471	US870738AG64	USOTC	2016/04/25	2016/04/25	D	CONV	Final Redemption-Conversion of the security
LSTAT	I	2018/06/13	2018/06/13	5652011	1662471	US870738AG64	USTRCE	2016/04/25	2016/04/25	D	CONV	Final Redemption-Conversion of the security
LSTAT	U	2018/06/11	2018/06/13	5650104	2126418	US9026416126	USPAC	2018/06/26	2018/06/26	D	REDEM	(As on 1206/2018) USETFCOM<BR>Coming Wavelet Of ETN Closures<BR>Although it cannot be compared to April, which saw 50 iPath ETNs close or delist, June will be having its own little storm of ETN shutdowns. UBS is closing five ETRACS and three VelocityShares ETNs.<BR>The eight products will see their last day of trading on June 25. The notes, their tickers and their assets under management are as follows:<BR>` ETRACS 1x Monthly Short Alerian MLP Infrastructure TR ETN (MLPS), USD1.9 million<BR>` ETRACS UBS Bloomberg CMCI Livestock Total Return ETN (UBC), USD2.4 million<BR>` ETRACS UBS Bloomberg CMCI Industrial Metals Total Return ETN (UBM), USD1.9 million<BR>` ETRACS UBS Bloomberg CMCI Energy Total Return ETN (UBN), USD2.1 million<BR>` ETRACS Monthly Reset 2x Leveraged S&P 500 Total Return ETN (SPLX), USD5.8 million<BR>` VelocityShares VIX Tail Risk ETN (BSWN), USD2.2 million<BR>` VelocityShares VIX Variable Long/Short ETN (LSVX), USD3 million<BR>` VelocityShares VIX Short Volatility Hedged ETN (XIVH), USD4.8 million<BR>Clearly, none of the shuttering ETNs have gathered much in the way of assets. UBS currently is the issuer backing 45 different ETNs, and the closures will bring the total number down to 37.<BR>However, the eight UBS closures are not the only ETN closures in June. On June 4, Barclays shut its Fisher Investments bespoke ETN, the Barclays ETN+FI Enhanced Global High Yield ETN (FIGY). Shortly before it closed, FIGY had nearly USD85 million in assets under management, but because of its bespoke nature, Fisher, as the product`s main investor and backer, could have triggered the shutdown due to a change in the company strategy and simply pulled its client assets from the ETN.<BR>Total completed ETF closures for the year currently stand at 83. If you subtract the outlier shutdown of 50 iPath ETNs in April, the amount of closures for 2018 so far exactly matches the 33 closures that had taken place by this time in 2017. Given last year was a record-breaking one in terms of the amount of closures, it looks like we have another banner year for ETF shutdowns ahead of us.<BR><BR>(As on 08/06/2018) USNWCAB <BR>UBS Announces Redemption of Eight ETNs <BR>UBS Investment Bank today announced that it will redeem all of the outstanding securities in each of the series set forth in the following table (collectively, the `Affected Securities`): <BR>NYSE Arca Ticker: MLPS<BR>ETN Name and Prospectus / Pricing Supplement: ETRACS 1xMonthly Short Alerian MLP Infrastructure Total Return Index ETN<BR>CUSIP: 902641612<BR>Call Settlement Date: June 26, 2018<BR>The table above provides a hyperlink to the relevant prospectus, as supplemented by a prospectus supplement or product supplement and pricing supplement, as applicable, for each of the Affected Securities, which are identified by their names. Capitalized terms used but not defined herein shall have the meanings ascribed to such terms in the relevant prospectus and (i) prospectus supplement or (ii) product supplement and pricing supplement, as applicable, for the Affected Securities. With respect to each series of Affected Securities, the Call Settlement Amount (or, in the case of UBM, UBN, and UBC, the Redemption Amount) payable on the Call Settlement Date will be calculated as specified in the relevant prospectus and (i) prospectus supplement or (ii) product supplement and pricing supplement, as applicable, for the Affected Securities. UBS will pay the applicable Call Settlement Amount or Redemption Amount to investors holding Affected Securities on the applicable Call Settlement Date. Each series of Affected Securities will be delisted from the NYSE Arca exchange prior to the open of trading on the Call Settlement Date. Holders of the Affected Securities may choose to continue to hold their securities until the Call Settlement Date or choose to sell or redeem their Affected Securities prior to the applicable Call Settlement Date, in accordance with the terms of the Affected Securities. <BR>
LSTAT	I	2018/06/13	2018/06/13	5651558	2228949	US3136FPXQ57	USTRCE	2018/05/24	2018/05/24	D	REDEM	Final Redemption of the security
LSTAT	I	2018/06/13	2018/06/13	5652014	3753277	US870738AK76	USOTC	2016/04/25	2016/04/25	D	CONV	Final Redemption-Conversion of the security
LSTAT	I	2018/06/13	2018/06/13	5652015	3753277	US870738AK76	USTRCE	2016/04/25	2016/04/25	D	CONV	Final Redemption-Conversion of the security
LSTAT	I	2018/06/13	2018/06/13	5652014	3753277	US870738AK76	USOTC	2016/04/25	2016/04/25	D	CONV	Final Redemption-Conversion of the security
LSTAT	I	2018/06/13	2018/06/13	5652015	3753277	US870738AK76	USTRCE	2016/04/25	2016/04/25	D	CONV	Final Redemption-Conversion of the security
LSTAT	I	2018/06/13	2018/06/13	5651605	4028730	US313382Y233	USTRCE	2018/05/24	2018/05/24	D	REDEM	Final Redemption of the security
LSTAT	I	2018/06/13	2018/06/13	5651608	4035943	US25152RVB67	USOTC	2018/05/24	2018/05/24	D	REDEM	Final Redemption of the security
LSTAT	I	2018/06/13	2018/06/13	5651609	4035943	US25152RVB67	USTRCE	2018/05/24	2018/05/24	D	REDEM	Final Redemption of the security
LSTAT	I	2018/06/13	2018/06/13	5651611	4038535	US50048MBK53	LULSE	2018/05/24	2018/05/24	D	REDEM	Final Redemption of the security
LSTAT	I	2018/06/13	2018/06/13	5651612	4038535	US50048MBK53	USOTC	2018/05/24	2018/05/24	D	REDEM	Final Redemption of the security
LSTAT	I	2018/06/13	2018/06/13	5651613	4038535	US50048MBK53	USTRCE	2018/05/24	2018/05/24	D	REDEM	Final Redemption of the security
LSTAT	I	2018/06/13	2018/06/13	5651611	4038535	US50048MBK53	LULSE	2018/05/24	2018/05/24	D	REDEM	Final Redemption of the security
LSTAT	I	2018/06/13	2018/06/13	5651612	4038535	US50048MBK53	USOTC	2018/05/24	2018/05/24	D	REDEM	Final Redemption of the security
LSTAT	I	2018/06/13	2018/06/13	5651613	4038535	US50048MBK53	USTRCE	2018/05/24	2018/05/24	D	REDEM	Final Redemption of the security
LSTAT	I	2018/06/13	2018/06/13	5651622	4040868	US85235XAD75	USOTC	2018/05/24	2018/05/24	D	REDEM	Final Redemption of the security
LSTAT	I	2018/06/13	2018/06/13	5651623	4040868	US85235XAD75	USTRCE	2018/05/24	2018/05/24	D	REDEM	Final Redemption of the security
LSTAT	I	2018/06/13	2018/06/13	5651624	4041136	US85235YAD58	IEISE	2018/05/24	2018/05/24	D	REDEM	Final Redemption of the security
LSTAT	I	2018/06/13	2018/06/13	5651625	4041136	US85235YAD58	USOTC	2018/05/24	2018/05/24	D	REDEM	Final Redemption of the security
LSTAT	I	2018/06/13	2018/06/13	5651626	4041136	US85235YAD58	USTRCE	2018/05/24	2018/05/24	D	REDEM	Final Redemption of the security
LSTAT	I	2018/06/13	2018/06/13	5651624	4041136	US85235YAD58	IEISE	2018/05/24	2018/05/24	D	REDEM	Final Redemption of the security
LSTAT	I	2018/06/13	2018/06/13	5651625	4041136	US85235YAD58	USOTC	2018/05/24	2018/05/24	D	REDEM	Final Redemption of the security
LSTAT	I	2018/06/13	2018/06/13	5651626	4041136	US85235YAD58	USTRCE	2018/05/24	2018/05/24	D	REDEM	Final Redemption of the security
LSTAT	I	2018/06/13	2018/06/13	5651642	4191511	US25152EAK82	USOTC	2018/05/24	2018/05/24	D	REDEM	Final Redemption of the security
LSTAT	I	2018/06/13	2018/06/13	5651643	4191511	US25152EAK82	USTRCE	2018/05/24	2018/05/24	D	REDEM	Final Redemption of the security
LSTAT	U	2018/06/11	2018/06/13	5650163	4236551	US90270L7929	USPAC	2018/06/26	2018/06/26	D	REDEM	(As on 1206/2018) USETFCOM<BR>Coming Wavelet Of ETN Closures<BR>Although it cannot be compared to April, which saw 50 iPath ETNs close or delist, June will be having its own little storm of ETN shutdowns. UBS is closing five ETRACS and three VelocityShares ETNs.<BR>The eight products will see their last day of trading on June 25. The notes, their tickers and their assets under management are as follows:<BR>` ETRACS 1x Monthly Short Alerian MLP Infrastructure TR ETN (MLPS), USD1.9 million<BR>` ETRACS UBS Bloomberg CMCI Livestock Total Return ETN (UBC), USD2.4 million<BR>` ETRACS UBS Bloomberg CMCI Industrial Metals Total Return ETN (UBM), USD1.9 million<BR>` ETRACS UBS Bloomberg CMCI Energy Total Return ETN (UBN), USD2.1 million<BR>` ETRACS Monthly Reset 2x Leveraged S&P 500 Total Return ETN (SPLX), USD5.8 million<BR>` VelocityShares VIX Tail Risk ETN (BSWN), USD2.2 million<BR>` VelocityShares VIX Variable Long/Short ETN (LSVX), USD3 million<BR>` VelocityShares VIX Short Volatility Hedged ETN (XIVH), USD4.8 million<BR>Clearly, none of the shuttering ETNs have gathered much in the way of assets. UBS currently is the issuer backing 45 different ETNs, and the closures will bring the total number down to 37.<BR>However, the eight UBS closures are not the only ETN closures in June. On June 4, Barclays shut its Fisher Investments bespoke ETN, the Barclays ETN+FI Enhanced Global High Yield ETN (FIGY). Shortly before it closed, FIGY had nearly USD85 million in assets under management, but because of its bespoke nature, Fisher, as the product`s main investor and backer, could have triggered the shutdown due to a change in the company strategy and simply pulled its client assets from the ETN.<BR>Total completed ETF closures for the year currently stand at 83. If you subtract the outlier shutdown of 50 iPath ETNs in April, the amount of closures for 2018 so far exactly matches the 33 closures that had taken place by this time in 2017. Given last year was a record-breaking one in terms of the amount of closures, it looks like we have another banner year for ETF shutdowns ahead of us.<BR><BR>(As on 08/06/2018) USNWCAB <BR>UBS Announces Redemption of Eight ETNs <BR>UBS Investment Bank today announced that it will redeem all of the outstanding securities in each of the series set forth in the following table (collectively, the `Affected Securities`): <BR>NYSE Arca Ticker: SPLX<BR>ETN Name and Prospectus / Pricing Supplement: ETRACS Monthly Reset 2xLeveraged S&P 500  Total Return ETN<BR>CUSIP: 90270L792<BR>Call Settlement Date: June 26, 2018<BR>The table above provides a hyperlink to the relevant prospectus, as supplemented by a prospectus supplement or product supplement and pricing supplement, as applicable, for each of the Affected Securities, which are identified by their names. Capitalized terms used but not defined herein shall have the meanings ascribed to such terms in the relevant prospectus and (i) prospectus supplement or (ii) product supplement and pricing supplement, as applicable, for the Affected Securities. With respect to each series of Affected Securities, the Call Settlement Amount (or, in the case of UBM, UBN, and UBC, the Redemption Amount) payable on the Call Settlement Date will be calculated as specified in the relevant prospectus and (i) prospectus supplement or (ii) product supplement and pricing supplement, as applicable, for the Affected Securities. UBS will pay the applicable Call Settlement Amount or Redemption Amount to investors holding Affected Securities on the applicable Call Settlement Date. Each series of Affected Securities will be delisted from the NYSE Arca exchange prior to the open of trading on the Call Settlement Date. Holders of the Affected Securities may choose to continue to hold their securities until the Call Settlement Date or choose to sell or redeem their Affected Securities prior to the applicable Call Settlement Date, in accordance with the terms of the Affected Securities. <BR>
LSTAT	I	2018/06/13	2018/06/13	5651644	4252086	US48125LPB26	USOTC	2018/05/24	2018/05/24	D	REDEM	Final Redemption of the security
LSTAT	I	2018/06/13	2018/06/13	5651868	4256240	US42237MAA62	USOTC	2018/05/24	2018/05/24	D	REDEM	Final Redemption of the security
LSTAT	I	2018/06/13	2018/06/13	5651869	4256240	US42237MAA62	USTRCE	2018/05/24	2018/05/24	D	REDEM	Final Redemption of the security
LSTAT	I	2018/06/13	2018/06/13	5651870	4256844	USU42275AA27	USOTC	2018/05/24	2018/05/24	D	REDEM	Final Redemption of the security
LSTAT	I	2018/06/13	2018/06/13	5651871	4256844	USU42275AA27	USTRCE	2018/05/24	2018/05/24	D	REDEM	Final Redemption of the security
LSTAT	I	2018/06/13	2018/06/13	5651903	4333721	US22547QSH01	USTRCE	2018/03/01	2018/03/01	D	REDEM	Final Redemption of the security
LSTAT	I	2018/06/13	2018/06/13	5652014	3753277	US870738AK76	USOTC	2016/04/25	2016/04/25	D	CONV	Final Redemption-Conversion of the security
LSTAT	I	2018/06/13	2018/06/13	5652015	3753277	US870738AK76	USTRCE	2016/04/25	2016/04/25	D	CONV	Final Redemption-Conversion of the security
LSTAT	I	2018/06/13	2018/06/13	5651913	4354147	US22547QT711	USTRCE	2018/01/31	2018/01/31	D	REDEM	Final Redemption of the security
LSTAT	I	2018/06/13	2018/06/13	5651642	4191511	US25152EAK82	USOTC	2018/05/24	2018/05/24	D	REDEM	Final Redemption of the security
LSTAT	I	2018/06/13	2018/06/13	5651643	4191511	US25152EAK82	USTRCE	2018/05/24	2018/05/24	D	REDEM	Final Redemption of the security
LSTAT	I	2018/06/13	2018/06/13	5651868	4256240	US42237MAA62	USOTC	2018/05/24	2018/05/24	D	REDEM	Final Redemption of the security
LSTAT	I	2018/06/13	2018/06/13	5651869	4256240	US42237MAA62	USTRCE	2018/05/24	2018/05/24	D	REDEM	Final Redemption of the security
LSTAT	I	2018/06/13	2018/06/13	5651642	4191511	US25152EAK82	USOTC	2018/05/24	2018/05/24	D	REDEM	Final Redemption of the security
LSTAT	I	2018/06/13	2018/06/13	5651643	4191511	US25152EAK82	USTRCE	2018/05/24	2018/05/24	D	REDEM	Final Redemption of the security
LSTAT	I	2018/06/13	2018/06/13	5651870	4256844	USU42275AA27	USOTC	2018/05/24	2018/05/24	D	REDEM	Final Redemption of the security
LSTAT	I	2018/06/13	2018/06/13	5651871	4256844	USU42275AA27	USTRCE	2018/05/24	2018/05/24	D	REDEM	Final Redemption of the security
LSTAT	I	2018/06/13	2018/06/13	5651655	4505812	US542799AC51	KYSX	2018/05/24	2018/05/24	D	REDEM	Final Redemption of the security
LSTAT	I	2018/06/13	2018/06/13	5651656	4505812	US542799AC51	USTRCE	2018/05/24	2018/05/24	D	REDEM	Final Redemption of the security
LSTAT	U	2016/05/17	2018/06/13	5211024	757805	US870738AF81	DEBSE	2016/04/21	2016/04/21	D	LSTAT	
LSTAT	U	2015/12/22	2018/06/13	5125467	757805	US870738AF81	USNYSE	2016/04/21	2016/04/21	D	LSTAT	
LSTAT	I	2018/06/13	2018/06/13	5652013	757805	US870738AF81	USOTC	2016/04/25	2016/04/25	D	CONV	Final Redemption-Conversion of the security
LSTAT	U	2018/06/13	2018/06/13	5427312	757805	US870738AF81	USOTC	2016/04/21	2016/04/21	R	LSTAT	
LSTAT	U	2017/06/22	2018/06/13	5427313	757805	US870738AF81	USTRCE	2016/04/21	2016/04/21	D	REDEM	Final Redemption of the Security.
LSTAT	I	2018/06/13	2018/06/13	5652010	1662471	US870738AG64	USOTC	2016/04/25	2016/04/25	D	CONV	Final Redemption-Conversion of the security
LSTAT	I	2018/06/13	2018/06/13	5652011	1662471	US870738AG64	USTRCE	2016/04/25	2016/04/25	D	CONV	Final Redemption-Conversion of the security
LSTAT	I	2018/06/13	2018/06/13	5652014	3753277	US870738AK76	USOTC	2016/04/25	2016/04/25	D	CONV	Final Redemption-Conversion of the security
LSTAT	I	2018/06/13	2018/06/13	5652015	3753277	US870738AK76	USTRCE	2016/04/25	2016/04/25	D	CONV	Final Redemption-Conversion of the security
LSTAT	I	2018/06/13	2018/06/13	5651608	4035943	US25152RVB67	USOTC	2018/05/24	2018/05/24	D	REDEM	Final Redemption of the security
LSTAT	I	2018/06/13	2018/06/13	5651609	4035943	US25152RVB67	USTRCE	2018/05/24	2018/05/24	D	REDEM	Final Redemption of the security
LSTAT	I	2018/06/13	2018/06/13	5651624	4041136	US85235YAD58	IEISE	2018/05/24	2018/05/24	D	REDEM	Final Redemption of the security
LSTAT	I	2018/06/13	2018/06/13	5651625	4041136	US85235YAD58	USOTC	2018/05/24	2018/05/24	D	REDEM	Final Redemption of the security
LSTAT	I	2018/06/13	2018/06/13	5651626	4041136	US85235YAD58	USTRCE	2018/05/24	2018/05/24	D	REDEM	Final Redemption of the security
LSTAT	I	2018/06/13	2018/06/13	5651611	4038535	US50048MBK53	LULSE	2018/05/24	2018/05/24	D	REDEM	Final Redemption of the security
LSTAT	I	2018/06/13	2018/06/13	5651612	4038535	US50048MBK53	USOTC	2018/05/24	2018/05/24	D	REDEM	Final Redemption of the security
LSTAT	I	2018/06/13	2018/06/13	5651613	4038535	US50048MBK53	USTRCE	2018/05/24	2018/05/24	D	REDEM	Final Redemption of the security
LSTAT	I	2018/06/13	2018/06/13	5651622	4040868	US85235XAD75	USOTC	2018/05/24	2018/05/24	D	REDEM	Final Redemption of the security
LSTAT	I	2018/06/13	2018/06/13	5651623	4040868	US85235XAD75	USTRCE	2018/05/24	2018/05/24	D	REDEM	Final Redemption of the security
LSTAT	I	2018/06/13	2018/06/13	5651583	985901	US74432RAH66	USOTC	2018/05/24	2018/05/24	D	REDEM	Final Redemption of the security
LSTAT	I	2018/06/13	2018/06/13	5651584	985901	US74432RAH66	USTRCE	2018/05/24	2018/05/24	D	REDEM	Final Redemption of the security
LSTAT	I	2018/06/13	2018/06/13	5651658	4631887	US3134G74Z15	USTRCE	2018/05/24	2018/05/24	D	REDEM	Final Redemption of the security
LSTAT	I	2018/06/13	2018/06/13	5651659	4644087	US3133EFQD24	USTRCE	2018/05/24	2018/05/24	D	REDEM	Final Redemption of the security
LSTAT	I	2018/06/13	2018/06/13	5651992	4730926	US22546VYS95	USTRCE	2018/03/26	2018/03/26	D	REDEM	Final Redemption of the security
LSTAT	I	2018/06/13	2018/06/13	5651775	4769375	US3134G9JL29	USTRCE	2018/05/24	2018/05/24	D	REDEM	Final Redemption of the security
LSTAT	I	2018/06/13	2018/06/13	5651662	4777895	US2027A0HU60	USTRCE	2018/05/24	2018/05/24	D	REDEM	Final Redemption of the security
LSTAT	I	2018/06/13	2018/06/13	5651666	4780072	US3130A86F56	USTRCE	2018/05/24	2018/05/24	D	REDEM	Final Redemption of the security
LSTAT	U	2018/06/11	2018/06/13	5650158	4834451	US90274D1688	USPAC	2018/06/26	2018/06/26	D	REDEM	(As on 1206/2018) USETFCOM<BR>Coming Wavelet Of ETN Closures<BR>Although it cannot be compared to April, which saw 50 iPath ETNs close or delist, June will be having its own little storm of ETN shutdowns. UBS is closing five ETRACS and three VelocityShares ETNs.<BR>The eight products will see their last day of trading on June 25. The notes, their tickers and their assets under management are as follows:<BR>` ETRACS 1x Monthly Short Alerian MLP Infrastructure TR ETN (MLPS), USD1.9 million<BR>` ETRACS UBS Bloomberg CMCI Livestock Total Return ETN (UBC), USD2.4 million<BR>` ETRACS UBS Bloomberg CMCI Industrial Metals Total Return ETN (UBM), USD1.9 million<BR>` ETRACS UBS Bloomberg CMCI Energy Total Return ETN (UBN), USD2.1 million<BR>` ETRACS Monthly Reset 2x Leveraged S&P 500 Total Return ETN (SPLX), USD5.8 million<BR>` VelocityShares VIX Tail Risk ETN (BSWN), USD2.2 million<BR>` VelocityShares VIX Variable Long/Short ETN (LSVX), USD3 million<BR>` VelocityShares VIX Short Volatility Hedged ETN (XIVH), USD4.8 million<BR>Clearly, none of the shuttering ETNs have gathered much in the way of assets. UBS currently is the issuer backing 45 different ETNs, and the closures will bring the total number down to 37.<BR>However, the eight UBS closures are not the only ETN closures in June. On June 4, Barclays shut its Fisher Investments bespoke ETN, the Barclays ETN+FI Enhanced Global High Yield ETN (FIGY). Shortly before it closed, FIGY had nearly USD85 million in assets under management, but because of its bespoke nature, Fisher, as the product`s main investor and backer, could have triggered the shutdown due to a change in the company strategy and simply pulled its client assets from the ETN.<BR>Total completed ETF closures for the year currently stand at 83. If you subtract the outlier shutdown of 50 iPath ETNs in April, the amount of closures for 2018 so far exactly matches the 33 closures that had taken place by this time in 2017. Given last year was a record-breaking one in terms of the amount of closures, it looks like we have another banner year for ETF shutdowns ahead of us.<BR><BR>(As on 08/06/2018) USNWCAB <BR>UBS Announces Redemption of Eight ETNs <BR>UBS Investment Bank today announced that it will redeem all of the outstanding securities in each of the series set forth in the following table (collectively, the `Affected Securities`): <BR>NYSE Arca Ticker: BSWN<BR>ETN Name and Prospectus / Pricing Supplement: VelocitySharesTM VIX Tail Risk ETN<BR>CUSIP: 90274D168<BR>Call Settlement Date: June 26, 2018<BR>The table above provides a hyperlink to the relevant prospectus, as supplemented by a prospectus supplement or product supplement and pricing supplement, as applicable, for each of the Affected Securities, which are identified by their names. Capitalized terms used but not defined herein shall have the meanings ascribed to such terms in the relevant prospectus and (i) prospectus supplement or (ii) product supplement and pricing supplement, as applicable, for the Affected Securities. With respect to each series of Affected Securities, the Call Settlement Amount (or, in the case of UBM, UBN, and UBC, the Redemption Amount) payable on the Call Settlement Date will be calculated as specified in the relevant prospectus and (i) prospectus supplement or (ii) product supplement and pricing supplement, as applicable, for the Affected Securities. UBS will pay the applicable Call Settlement Amount or Redemption Amount to investors holding Affected Securities on the applicable Call Settlement Date. Each series of Affected Securities will be delisted from the NYSE Arca exchange prior to the open of trading on the Call Settlement Date. Holders of the Affected Securities may choose to continue to hold their securities until the Call Settlement Date or choose to sell or redeem their Affected Securities prior to the applicable Call Settlement Date, in accordance with the terms of the Affected Securities. <BR>
LSTAT	U	2018/06/11	2018/06/13	5650157	4834453	US90274D1761	USPAC	2018/06/26	2018/06/26	D	REDEM	(As on 1206/2018) USETFCOM<BR>Coming Wavelet Of ETN Closures<BR>Although it cannot be compared to April, which saw 50 iPath ETNs close or delist, June will be having its own little storm of ETN shutdowns. UBS is closing five ETRACS and three VelocityShares ETNs.<BR>The eight products will see their last day of trading on June 25. The notes, their tickers and their assets under management are as follows:<BR>` ETRACS 1x Monthly Short Alerian MLP Infrastructure TR ETN (MLPS), USD1.9 million<BR>` ETRACS UBS Bloomberg CMCI Livestock Total Return ETN (UBC), USD2.4 million<BR>` ETRACS UBS Bloomberg CMCI Industrial Metals Total Return ETN (UBM), USD1.9 million<BR>` ETRACS UBS Bloomberg CMCI Energy Total Return ETN (UBN), USD2.1 million<BR>` ETRACS Monthly Reset 2x Leveraged S&P 500 Total Return ETN (SPLX), USD5.8 million<BR>` VelocityShares VIX Tail Risk ETN (BSWN), USD2.2 million<BR>` VelocityShares VIX Variable Long/Short ETN (LSVX), USD3 million<BR>` VelocityShares VIX Short Volatility Hedged ETN (XIVH), USD4.8 million<BR>Clearly, none of the shuttering ETNs have gathered much in the way of assets. UBS currently is the issuer backing 45 different ETNs, and the closures will bring the total number down to 37.<BR>However, the eight UBS closures are not the only ETN closures in June. On June 4, Barclays shut its Fisher Investments bespoke ETN, the Barclays ETN+FI Enhanced Global High Yield ETN (FIGY). Shortly before it closed, FIGY had nearly USD85 million in assets under management, but because of its bespoke nature, Fisher, as the product`s main investor and backer, could have triggered the shutdown due to a change in the company strategy and simply pulled its client assets from the ETN.<BR>Total completed ETF closures for the year currently stand at 83. If you subtract the outlier shutdown of 50 iPath ETNs in April, the amount of closures for 2018 so far exactly matches the 33 closures that had taken place by this time in 2017. Given last year was a record-breaking one in terms of the amount of closures, it looks like we have another banner year for ETF shutdowns ahead of us.<BR><BR>(As on 08/06/2018) USNWCAB <BR>UBS Announces Redemption of Eight ETNs <BR>UBS Investment Bank today announced that it will redeem all of the outstanding securities in each of the series set forth in the following table (collectively, the `Affected Securities`): <BR>NYSE Arca Ticker: LSVX<BR>ETN Name and Prospectus / Pricing Supplement: VelocitySharesTM VIX Variable Long/Short ETN<BR>CUSIP: 90274D176<BR>Call Settlement Date: June 26, 2018<BR>The table above provides a hyperlink to the relevant prospectus, as supplemented by a prospectus supplement or product supplement and pricing supplement, as applicable, for each of the Affected Securities, which are identified by their names. Capitalized terms used but not defined herein shall have the meanings ascribed to such terms in the relevant prospectus and (i) prospectus supplement or (ii) product supplement and pricing supplement, as applicable, for the Affected Securities. With respect to each series of Affected Securities, the Call Settlement Amount (or, in the case of UBM, UBN, and UBC, the Redemption Amount) payable on the Call Settlement Date will be calculated as specified in the relevant prospectus and (i) prospectus supplement or (ii) product supplement and pricing supplement, as applicable, for the Affected Securities. UBS will pay the applicable Call Settlement Amount or Redemption Amount to investors holding Affected Securities on the applicable Call Settlement Date. Each series of Affected Securities will be delisted from the NYSE Arca exchange prior to the open of trading on the Call Settlement Date. Holders of the Affected Securities may choose to continue to hold their securities until the Call Settlement Date or choose to sell or redeem their Affected Securities prior to the applicable Call Settlement Date, in accordance with the terms of the Affected Securities. <BR>
LSTAT	U	2018/06/11	2018/06/13	5650161	4834454	US90274D1506	USPAC	2018/06/26	2018/06/26	D	REDEM	(As on 1206/2018) USETFCOM<BR>Coming Wavelet Of ETN Closures<BR>Although it cannot be compared to April, which saw 50 iPath ETNs close or delist, June will be having its own little storm of ETN shutdowns. UBS is closing five ETRACS and three VelocityShares ETNs.<BR>The eight products will see their last day of trading on June 25. The notes, their tickers and their assets under management are as follows:<BR>` ETRACS 1x Monthly Short Alerian MLP Infrastructure TR ETN (MLPS), USD1.9 million<BR>` ETRACS UBS Bloomberg CMCI Livestock Total Return ETN (UBC), USD2.4 million<BR>` ETRACS UBS Bloomberg CMCI Industrial Metals Total Return ETN (UBM), USD1.9 million<BR>` ETRACS UBS Bloomberg CMCI Energy Total Return ETN (UBN), USD2.1 million<BR>` ETRACS Monthly Reset 2x Leveraged S&P 500 Total Return ETN (SPLX), USD5.8 million<BR>` VelocityShares VIX Tail Risk ETN (BSWN), USD2.2 million<BR>` VelocityShares VIX Variable Long/Short ETN (LSVX), USD3 million<BR>` VelocityShares VIX Short Volatility Hedged ETN (XIVH), USD4.8 million<BR>Clearly, none of the shuttering ETNs have gathered much in the way of assets. UBS currently is the issuer backing 45 different ETNs, and the closures will bring the total number down to 37.<BR>However, the eight UBS closures are not the only ETN closures in June. On June 4, Barclays shut its Fisher Investments bespoke ETN, the Barclays ETN+FI Enhanced Global High Yield ETN (FIGY). Shortly before it closed, FIGY had nearly USD85 million in assets under management, but because of its bespoke nature, Fisher, as the product`s main investor and backer, could have triggered the shutdown due to a change in the company strategy and simply pulled its client assets from the ETN.<BR>Total completed ETF closures for the year currently stand at 83. If you subtract the outlier shutdown of 50 iPath ETNs in April, the amount of closures for 2018 so far exactly matches the 33 closures that had taken place by this time in 2017. Given last year was a record-breaking one in terms of the amount of closures, it looks like we have another banner year for ETF shutdowns ahead of us.<BR><BR>(As on 08/06/2018) USNWCAB <BR>UBS Announces Redemption of Eight ETNs <BR>UBS Investment Bank today announced that it will redeem all of the outstanding securities in each of the series set forth in the following table (collectively, the `Affected Securities`): <BR>NYSE Arca Ticker: XIVH<BR>ETN Name and Prospectus / Pricing Supplement: VelocitySharesTM Short Volatility Hedged ETN<BR>CUSIP: 90274D150<BR>Call Settlement Date: June 26, 2018<BR>The table above provides a hyperlink to the relevant prospectus, as supplemented by a prospectus supplement or product supplement and pricing supplement, as applicable, for each of the Affected Securities, which are identified by their names. Capitalized terms used but not defined herein shall have the meanings ascribed to such terms in the relevant prospectus and (i) prospectus supplement or (ii) product supplement and pricing supplement, as applicable, for the Affected Securities. With respect to each series of Affected Securities, the Call Settlement Amount (or, in the case of UBM, UBN, and UBC, the Redemption Amount) payable on the Call Settlement Date will be calculated as specified in the relevant prospectus and (i) prospectus supplement or (ii) product supplement and pricing supplement, as applicable, for the Affected Securities. UBS will pay the applicable Call Settlement Amount or Redemption Amount to investors holding Affected Securities on the applicable Call Settlement Date. Each series of Affected Securities will be delisted from the NYSE Arca exchange prior to the open of trading on the Call Settlement Date. Holders of the Affected Securities may choose to continue to hold their securities until the Call Settlement Date or choose to sell or redeem their Affected Securities prior to the applicable Call Settlement Date, in accordance with the terms of the Affected Securities. <BR>
LSTAT	I	2018/06/13	2018/06/13	5651677	4838217	US22548QCK94	USTRCE	2018/05/24	2018/05/24	D	REDEM	Final Redemption of the security
LSTAT	I	2018/06/13	2018/06/13	5651678	4840400	US3130A8UU58	USTRCE	2018/05/24	2018/05/24	D	REDEM	Final Redemption of the security
LSTAT	I	2018/06/13	2018/06/13	5651679	4843439	US3130A8VK67	USTRCE	2018/05/24	2018/05/24	D	REDEM	Final Redemption of the security
LSTAT	I	2018/06/13	2018/06/13	5652123	4950461	US960386AJ99	USTRCE	2017/08/28	2017/08/28	D	CONV	Final Redemption-Conversion of the security
LSTAT	I	2018/06/13	2018/06/13	5652124	4952198	USU96036AB14	DEFSX	2017/08/28	2017/08/28	D	CONV	Final Redemption-Conversion of the security
LSTAT	I	2018/06/13	2018/06/13	5651680	4961168	US46646E7K24	USTRCE	2018/05/24	2018/05/24	D	REDEM	Final Redemption of the security
LSTAT	I	2018/06/13	2018/06/13	5651681	4964555	US83368JFB17	USTRCE	2018/05/24	2018/05/24	D	REDEM	Final Redemption of the security
LSTAT	I	2018/06/13	2018/06/13	5651682	4967505	US40054KPX80	USTRCE	2018/05/24	2018/05/24	D	REDEM	Final Redemption of the security
LSTAT	I	2018/06/13	2018/06/13	5652027	4979120	US22548QPQ28	USNYSE	2018/01/04	2018/01/04	D	REDEM	Final Redemption of the security
LSTAT	I	2018/06/13	2018/06/13	5652028	4979120	US22548QPQ28	USTRCE	2018/01/04	2018/01/04	D	REDEM	Final Redemption of the security
LSTAT	I	2018/06/13	2018/06/13	5652102	4986502	US485170AX24	USTRCE	2016/07/27	2016/07/27	D	CONV	Final Redemption-Conversion of the security
LSTAT	I	2018/06/13	2018/06/13	5651693	5022550	US22548QRY34	USTRCE	2018/05/24	2018/05/24	D	REDEM	Final Redemption of the security
LSTAT	U	2018/05/18	2018/06/13	5631516	5028169	US22549JEA43	USTRCE	2018/01/29	2018/01/29	D	REDEM	Final Reverse-Convertible of the security
LSTAT	U	2018/03/13	2018/06/13	5586034	5048788	US22549JEP12	USTRCE	2018/01/15	2018/01/15	D	REDEM	Final Redemption of the security
LSTAT	I	2018/06/13	2018/06/13	5652047	5048788	US22549JEP12	USTRCE	2018/01/18	2018/01/18	D	REDEM	Final Redemption of the security
LSTAT	I	2018/06/13	2018/06/13	5652025	5048788	US22549JEP12	USTRCE	2018/01/16	2018/01/16	R	CORR	
LSTAT	I	2018/06/13	2018/06/13	5651694	5050029	US06741VKU51	USTRCE	2018/05/24	2018/05/24	D	REDEM	Final Redemption of the security
LSTAT	I	2018/06/13	2018/06/13	5651695	5054946	US40054KWX08	USTRCE	2018/05/24	2018/05/24	D	REDEM	Final Redemption of the security
LSTAT	I	2018/06/13	2018/06/13	5652017	5083617	US22548QWW13	USTRCE	2018/03/23	2018/03/23	D	REDEM	Final Redemption of the security
LSTAT	I	2018/06/13	2018/06/13	5651688	5135349	US83369EWJ53	USTRCE	2018/05/24	2018/05/24	D	REDEM	Final Redemption of the security
LSTAT	I	2018/06/13	2018/06/13	5651685	5134166	US83369EWQ96	USTRCE	2018/05/24	2018/05/24	D	REDEM	Final Redemption of the security
LSTAT	I	2018/06/13	2018/06/13	5651686	5134390	US46647MBT99	USTRCE	2018/05/24	2018/05/24	D	REDEM	Final Redemption of the security
LSTAT	I	2018/06/13	2018/06/13	5651687	5134492	US22550B4C41	USTRCE	2018/05/24	2018/05/24	D	REDEM	Final Redemption of the security
LSTAT	I	2018/06/13	2018/06/13	5651689	5135474	US83369EWK27	USTRCE	2018/05/24	2018/05/24	D	REDEM	Final Redemption of the security
LSTAT	I	2018/06/13	2018/06/13	5652027	4979120	US22548QPQ28	USNYSE	2018/01/04	2018/01/04	D	REDEM	Final Redemption of the security
LSTAT	I	2018/06/13	2018/06/13	5652028	4979120	US22548QPQ28	USTRCE	2018/01/04	2018/01/04	D	REDEM	Final Redemption of the security
LSTAT	I	2018/06/13	2018/06/13	5651698	5141057	US05579TXK77	USTRCE	2018/05/24	2018/05/24	D	REDEM	Final Redemption of the security
LSTAT	I	2018/06/13	2018/06/13	5651699	5141061	US05579TXL50	USTRCE	2018/05/24	2018/05/24	D	REDEM	Final Redemption of the security
LSTAT	I	2018/06/13	2018/06/13	5651700	5141069	US05579TXM34	USTRCE	2018/05/24	2018/05/24	D	REDEM	Final Redemption of the security
LSTAT	I	2018/06/13	2018/06/13	5651782	5166135	XS1629865897	DEDSE	2018/05/24	2018/05/24	D	REDEM	Final Redemption-Conversion of the security
LSTAT	I	2018/06/13	2018/06/13	5651783	5166135	XS1629865897	USNYSE	2018/05/24	2018/05/24	D	REDEM	Final Redemption-Conversion of the security
LSTAT	I	2018/06/13	2018/06/13	5651784	5166136	XS1629866192	DEDSE	2018/05/24	2018/05/24	D	REDEM	Final Redemption-Conversion of the security
LSTAT	I	2018/06/13	2018/06/13	5651785	5166136	XS1629866192	USNYSE	2018/05/24	2018/05/24	D	REDEM	Final Redemption-Conversion of the security
LSTAT	I	2018/06/13	2018/06/13	5651786	5166138	XS1629866275	DEBSE	2018/05/24	2018/05/24	D	REDEM	Final Redemption-Conversion of the security
LSTAT	I	2018/06/13	2018/06/13	5651787	5166138	XS1629866275	DEDSE	2018/05/24	2018/05/24	D	REDEM	Final Redemption-Conversion of the security
LSTAT	I	2018/06/13	2018/06/13	5651788	5166138	XS1629866275	USNYSE	2018/05/24	2018/05/24	D	REDEM	Final Redemption-Conversion of the security
LSTAT	I	2018/06/13	2018/06/13	5651789	5166143	XS1629866606	DEBSE	2018/05/24	2018/05/24	D	REDEM	Final Redemption-Conversion of the security
LSTAT	I	2018/06/13	2018/06/13	5651790	5166143	XS1629866606	DEDSE	2018/05/24	2018/05/24	D	REDEM	Final Redemption-Conversion of the security
LSTAT	I	2018/06/13	2018/06/13	5651791	5166143	XS1629866606	USNYSE	2018/05/24	2018/05/24	D	REDEM	Final Redemption-Conversion of the security
LSTAT	I	2018/06/13	2018/06/13	5651792	5173179	XS1634248865	ITMSE	2018/05/24	2018/05/24	D	REDEM	Final Redemption-Conversion of the security
LSTAT	I	2018/06/13	2018/06/13	5651793	5173179	XS1634248865	USNYSE	2018/05/24	2018/05/24	D	REDEM	Final Redemption-Conversion of the security
LSTAT	I	2018/06/13	2018/06/13	5652030	5198578	US22550BCP67	USTRCE	2018/01/12	2018/01/12	D	REDEM	Final Redemption of the security
LSTAT	I	2018/06/13	2018/06/13	5652040	5198613	US22550BCQ41	USTRCE	2018/01/16	2018/01/16	D	REDEM	Final Redemption of the security
LSTAT	I	2018/06/13	2018/06/13	5652036	5207329	US22550BD679	USTRCE	2018/01/19	2018/01/19	D	REDEM	Final Redemption of the security
LSTAT	I	2018/06/13	2018/06/13	5651794	5220905	US00206REP38	USNYSE	2018/05/24	2018/05/24	D	REDEM	Final Redemption-Conversion of the security
LSTAT	I	2018/06/13	2018/06/13	5651795	5220905	US00206REP38	USTRCE	2018/05/24	2018/05/24	D	REDEM	Final Redemption-Conversion of the security
LSTAT	I	2018/06/13	2018/06/13	5651796	5220980	US00206REQ11	DEBSE	2018/05/24	2018/05/24	D	REDEM	Final Redemption-Conversion of the security
LSTAT	I	2018/06/13	2018/06/13	5651797	5220980	US00206REQ11	USNYSE	2018/05/24	2018/05/24	D	REDEM	Final Redemption-Conversion of the security
LSTAT	I	2018/06/13	2018/06/13	5651798	5220980	US00206REQ11	USTRCE	2018/05/24	2018/05/24	D	REDEM	Final Redemption-Conversion of the security
LSTAT	I	2018/06/13	2018/06/13	5651799	5221038	US00206REM07	USNYSE	2018/05/24	2018/05/24	D	REDEM	Final Redemption of the security
LSTAT	I	2018/06/13	2018/06/13	5651800	5221038	US00206REM07	USTRCE	2018/05/24	2018/05/24	D	REDEM	Final Redemption of the security
LSTAT	I	2018/06/13	2018/06/13	5651803	5221061	US00206REN89	USNYSE	2018/05/24	2018/05/24	D	REDEM	Final Redemption-Conversion of the security
LSTAT	I	2018/06/13	2018/06/13	5651804	5221061	US00206REN89	USTRCE	2018/05/24	2018/05/24	D	REDEM	Final Redemption-Conversion of the security
LSTAT	I	2018/06/13	2018/06/13	5651801	5221048	US00206REL24	USNYSE	2018/05/24	2018/05/24	D	REDEM	Final Redemption of the security
LSTAT	I	2018/06/13	2018/06/13	5651802	5221048	US00206REL24	USTRCE	2018/05/24	2018/05/24	D	REDEM	Final Redemption of the security
LSTAT	I	2018/06/13	2018/06/13	5651805	5221074	US00206REJ77	USTRCE	2018/05/24	2018/05/24	D	REDEM	Final Redemption-Conversion of the security
LSTAT	I	2018/06/13	2018/06/13	5651801	5221048	US00206REL24	USNYSE	2018/05/24	2018/05/24	D	REDEM	Final Redemption of the security
LSTAT	I	2018/06/13	2018/06/13	5651802	5221048	US00206REL24	USTRCE	2018/05/24	2018/05/24	D	REDEM	Final Redemption of the security
LSTAT	I	2018/06/13	2018/06/13	5651799	5221038	US00206REM07	USNYSE	2018/05/24	2018/05/24	D	REDEM	Final Redemption of the security
LSTAT	I	2018/06/13	2018/06/13	5651800	5221038	US00206REM07	USTRCE	2018/05/24	2018/05/24	D	REDEM	Final Redemption of the security
LSTAT	I	2018/06/13	2018/06/13	5651803	5221061	US00206REN89	USNYSE	2018/05/24	2018/05/24	D	REDEM	Final Redemption-Conversion of the security
LSTAT	I	2018/06/13	2018/06/13	5651804	5221061	US00206REN89	USTRCE	2018/05/24	2018/05/24	D	REDEM	Final Redemption-Conversion of the security
LSTAT	I	2018/06/13	2018/06/13	5651794	5220905	US00206REP38	USNYSE	2018/05/24	2018/05/24	D	REDEM	Final Redemption-Conversion of the security
LSTAT	I	2018/06/13	2018/06/13	5651795	5220905	US00206REP38	USTRCE	2018/05/24	2018/05/24	D	REDEM	Final Redemption-Conversion of the security
LSTAT	I	2018/06/13	2018/06/13	5651796	5220980	US00206REQ11	DEBSE	2018/05/24	2018/05/24	D	REDEM	Final Redemption-Conversion of the security
LSTAT	I	2018/06/13	2018/06/13	5651797	5220980	US00206REQ11	USNYSE	2018/05/24	2018/05/24	D	REDEM	Final Redemption-Conversion of the security
LSTAT	I	2018/06/13	2018/06/13	5651798	5220980	US00206REQ11	USTRCE	2018/05/24	2018/05/24	D	REDEM	Final Redemption-Conversion of the security
LSTAT	I	2018/06/13	2018/06/13	5651805	5221074	US00206REJ77	USTRCE	2018/05/24	2018/05/24	D	REDEM	Final Redemption-Conversion of the security
LSTAT	I	2018/06/13	2018/06/13	5651801	5221048	US00206REL24	USNYSE	2018/05/24	2018/05/24	D	REDEM	Final Redemption of the security
LSTAT	I	2018/06/13	2018/06/13	5651802	5221048	US00206REL24	USTRCE	2018/05/24	2018/05/24	D	REDEM	Final Redemption of the security
LSTAT	I	2018/06/13	2018/06/13	5651799	5221038	US00206REM07	USNYSE	2018/05/24	2018/05/24	D	REDEM	Final Redemption of the security
LSTAT	I	2018/06/13	2018/06/13	5651800	5221038	US00206REM07	USTRCE	2018/05/24	2018/05/24	D	REDEM	Final Redemption of the security
LSTAT	I	2018/06/13	2018/06/13	5651803	5221061	US00206REN89	USNYSE	2018/05/24	2018/05/24	D	REDEM	Final Redemption-Conversion of the security
LSTAT	I	2018/06/13	2018/06/13	5651804	5221061	US00206REN89	USTRCE	2018/05/24	2018/05/24	D	REDEM	Final Redemption-Conversion of the security
LSTAT	I	2018/06/13	2018/06/13	5651794	5220905	US00206REP38	USNYSE	2018/05/24	2018/05/24	D	REDEM	Final Redemption-Conversion of the security
LSTAT	I	2018/06/13	2018/06/13	5651795	5220905	US00206REP38	USTRCE	2018/05/24	2018/05/24	D	REDEM	Final Redemption-Conversion of the security
LSTAT	I	2018/06/13	2018/06/13	5651796	5220980	US00206REQ11	DEBSE	2018/05/24	2018/05/24	D	REDEM	Final Redemption-Conversion of the security
LSTAT	I	2018/06/13	2018/06/13	5651797	5220980	US00206REQ11	USNYSE	2018/05/24	2018/05/24	D	REDEM	Final Redemption-Conversion of the security
LSTAT	I	2018/06/13	2018/06/13	5651798	5220980	US00206REQ11	USTRCE	2018/05/24	2018/05/24	D	REDEM	Final Redemption-Conversion of the security
LSTAT	I	2018/06/13	2018/06/13	5652018	5230678	US22550BF401	USTRCE	2018/02/12	2018/02/12	D	REDEM	Final Redemption of the security
LSTAT	I	2018/06/13	2018/06/13	5652142	5283046	US00115AAG40	USTRCE	2018/05/09	2018/05/09	D	CONV	Final Redemption-Conversion of the security
LSTAT	I	2018/06/13	2018/06/13	5652142	5283046	US00115AAG40	USTRCE	2018/05/09	2018/05/09	D	CONV	Final Redemption-Conversion of the security
LSTAT	I	2018/06/13	2018/06/13	5652143	5286345	USU0081EAC22	USTRCE	2018/05/09	2018/05/09	D	CONV	Final Redemption-Conversion of the security
LSTAT	I	2018/06/13	2018/06/13	5652102	4986502	US485170AX24	USTRCE	2016/07/27	2016/07/27	D	CONV	Final Redemption-Conversion of the security
LSTAT	I	2018/06/13	2018/06/13	5652157	5560917	US3361588037	USOTC	2018/06/13	2018/06/13	D	PRCHG	(As on 13/06/2018) USFINRA<BR>Date/Time Event Type Eff/Ex Date/Time Symbol Issue Name Market<BR>06/13/2018 01:46:03 Market Center Change Listed on NYSE 06/13/2018 01:46:03 FFPPP First Rep Bk San Francisco Calif Dep Shs Repstg 1/40th Int Perp Pfd Ser I Other OTC<BR>Comments<BR>Prdct chng OTCE-OTCE>CTS-NYSE<BR>Details<BR> Current Value<BR>Daily List Date/Time 06/13/2018 01:46:03<BR>Event Type Market Center Change Listed on NYSE<BR>Effective/Ex Date/Time 06/13/2018 01:46:03<BR>Symbol FFPPP<BR>Issue Name First Rep Bk San Francisco Calif Dep Shs Repstg 1/40th Int Perp Pfd Ser I<BR>Class I<BR>Market Category Other OTC<BR>Offering Type No Restrictions<BR>Daily List Comment Prdct chng OTCE-OTCE>CTS-NYSE<BR>
LSTAT	I	2018/06/13	2018/06/13	5652157	5560917	US3361588037	USOTC	2018/06/13	2018/06/13	D	PRCHG	(As on 13/06/2018) USFINRA<BR>Date/Time Event Type Eff/Ex Date/Time Symbol Issue Name Market<BR>06/13/2018 01:46:03 Market Center Change Listed on NYSE 06/13/2018 01:46:03 FFPPP First Rep Bk San Francisco Calif Dep Shs Repstg 1/40th Int Perp Pfd Ser I Other OTC<BR>Comments<BR>Prdct chng OTCE-OTCE>CTS-NYSE<BR>Details<BR> Current Value<BR>Daily List Date/Time 06/13/2018 01:46:03<BR>Event Type Market Center Change Listed on NYSE<BR>Effective/Ex Date/Time 06/13/2018 01:46:03<BR>Symbol FFPPP<BR>Issue Name First Rep Bk San Francisco Calif Dep Shs Repstg 1/40th Int Perp Pfd Ser I<BR>Class I<BR>Market Category Other OTC<BR>Offering Type No Restrictions<BR>Daily List Comment Prdct chng OTCE-OTCE>CTS-NYSE<BR>
EDI_ENDOFFILE
