EDI_NAICH_20180613
TableName	Actflag	Created	Changed	IssID	EffectiveDate	OldNAICS	NewNAICS	NAICSChID
NAICH	I	2016/02/20	2016/02/22	114519	2016/02/20		525990	28
NAICH	I	2016/03/09	2016/03/09	92285	2016/03/08		522110	194
NAICH	I	2016/05/16	2016/05/16	139441	2016/05/16		925110	768
NAICH	I	2018/03/19	2018/03/19	68223	2018/03/19		524114	3518
NAICH	I	2018/05/29	2018/05/29	150200	2018/05/28	517110	517410	4229
NAICH	I	2018/06/12	2018/06/12	150200	2018/06/12	517410	485310	4412
NAICH	I	2018/06/12	2018/06/12	170492	2018/06/12	541711	621511	4503
EDI_ENDOFFILE
