EDI_RCONV_20180613
TableName	Actflag	Created	Changed	RconvID	SecID	ISIN	EffectiveDate	OldInterestAccrualConvention	NewInterestAccrualConvention	OldConvMethod	NewConvMethod	Eventtype	Notes
RCONV	D	2010/06/03	2018/06/13	47380	781288	US72908QAA22	2007/05/15	A365	AA			CORR	
RCONV	I	2015/02/12	2015/02/12	109308	170738	US35177PAL13	2002/02/12	AA	30360			CORR	
RCONV	I	2018/06/13	2018/06/13	141824	5571469	US87161C6003	2023/06/21	30360	A360			RCONV	
RCONV	I	2018/06/13	2018/06/13	141824	5571469	US87161C6003	2023/06/21	30360	A360			RCONV	
RCONV	I	2018/06/13	2018/06/13	141825	5571515	US404280BT50	2028/06/19	30360	A360			RCONV	
RCONV	I	2018/06/13	2018/06/13	141825	5571515	US404280BT50	2028/06/19	30360	A360			RCONV	
RCONV	I	2018/06/13	2018/06/13	141826	5568870	US46647PAS56	2021/06/18	30360	A360			RCONV	
RCONV	I	2018/06/13	2018/06/13	141849	781288	US72908QAA22	2007/05/25	A365	30360			CORR	
EDI_ENDOFFILE
