EDI_CTCHG_20180613
TableName	Actflag	Created	Changed	CtChgID	SecID	ISIN	EffectiveDate	OldResultantRatio	NewResultantRatio	OldSecurityRatio	NewSecurityRatio	OldCurrency	NewCurrency	OldCurPair	NewCurPair	OldConversionPrice	NewConversionPrice	ResSectyCD	OldResSecID	NewResSecID	EventType	RelEventID	OldFromDate	NewFromDate	OldTodate	NewToDate	ConvtID	OldFXRate	NewFXRate	OldPriceAsPercent	NewPriceAsPercent	Notes
EDI_ENDOFFILE
