EDI_CPOPT_20180613
TableName	Actflag	Created	Changed	CpoptID	SecID	ISIN	CallPut	FromDate	ToDate	NoticeFrom	NoticeTo	Currency	Price	MandatoryOptional	MinNoticeDays	MaxNoticeDays	cptype	PriceAsPercent	InWholePart	FormulaBasedPrice
CPOPT	U	2010/04/21	2018/06/13	5352485	623845	USG93404AA23	C	2010/05/10				USD	150000000	O	10		KO	100	W	N
CPOPT	U	2010/04/21	2018/06/13	5355322	623845	USG93404AA23	C	2010/06/10				USD	150000000	O	10		KO	100	W	N
CPOPT	U	2010/04/21	2018/06/13	5355323	623845	USG93404AA23	C	2010/07/10				USD	150000000	O	10		KO	100	W	N
CPOPT	U	2010/04/21	2018/06/13	5355324	623845	USG93404AA23	C	2010/08/10				USD	150000000	O	10		KO	100	W	N
CPOPT	U	2010/04/21	2018/06/13	5355325	623845	USG93404AA23	C	2010/09/10				USD	150000000	O	10		KO	100	W	N
CPOPT	U	2010/04/21	2018/06/13	5355326	623845	USG93404AA23	C	2010/10/10				USD	150000000	O	10		KO	100	W	N
CPOPT	U	2010/04/21	2018/06/13	5355327	623845	USG93404AA23	C	2010/11/10				USD	150000000	O	10		KO	100	W	N
CPOPT	U	2010/04/21	2018/06/13	5355328	623845	USG93404AA23	C	2010/12/10				USD	150000000	O	10		KO	100	W	N
CPOPT	U	2010/04/21	2018/06/13	5355329	623845	USG93404AA23	C	2011/01/10				USD	150000000	O	10		KO	100	W	N
CPOPT	U	2010/04/21	2018/06/13	5355330	623845	USG93404AA23	C	2011/02/10				USD	150000000	O	10		KO	100	W	N
CPOPT	U	2010/04/21	2018/06/13	5355331	623845	USG93404AA23	C	2011/03/10				USD	150000000	O	10		KO	100	W	N
CPOPT	U	2010/04/21	2018/06/13	5355332	623845	USG93404AA23	C	2011/04/10				USD	150000000	O	10		KO	100	W	N
CPOPT	U	2010/04/21	2018/06/13	5355764	623845	USG93404AA23	C	2011/05/10				USD	150000000	O	10		KO	100	W	N
CPOPT	U	2010/04/21	2018/06/13	5355765	623845	USG93404AA23	C	2011/06/10				USD	150000000	O	10		KO	100	W	N
CPOPT	U	2010/04/21	2018/06/13	5355766	623845	USG93404AA23	C	2011/07/10				USD	150000000	O	10		KO	100	W	N
CPOPT	U	2010/04/21	2018/06/13	5355767	623845	USG93404AA23	C	2011/08/10				USD	150000000	O	10		KO	100	W	N
CPOPT	U	2010/04/21	2018/06/13	5355768	623845	USG93404AA23	C	2011/09/10				USD	150000000	O	10		KO	100	W	N
CPOPT	U	2010/04/21	2018/06/13	5355769	623845	USG93404AA23	C	2011/10/10				USD	150000000	O	10		KO	100	W	N
CPOPT	U	2010/04/21	2018/06/13	5355770	623845	USG93404AA23	C	2011/11/10				USD	150000000	O	10		KO	100	W	N
CPOPT	U	2010/04/21	2018/06/13	5355771	623845	USG93404AA23	C	2011/12/10				USD	150000000	O	10		KO	100	W	N
CPOPT	U	2010/04/21	2018/06/13	5355772	623845	USG93404AA23	C	2012/01/10				USD	150000000	O	10		KO	100	W	N
CPOPT	U	2010/04/21	2018/06/13	5355773	623845	USG93404AA23	C	2012/02/10				USD	150000000	O	10		KO	100	W	N
CPOPT	U	2010/04/21	2018/06/13	5355774	623845	USG93404AA23	C	2012/03/10				USD	150000000	O	10		KO	100	W	N
CPOPT	U	2010/04/21	2018/06/13	5355775	623845	USG93404AA23	C	2012/04/10				USD	150000000	O	10		KO	100	W	N
CPOPT	U	2010/04/21	2018/06/13	5355776	623845	USG93404AA23	C	2012/05/10				USD	150000000	O	10		KO	100	W	N
CPOPT	U	2010/04/21	2018/06/13	5355777	623845	USG93404AA23	C	2012/06/10				USD	150000000	O	10		KO	100	W	N
CPOPT	U	2010/04/21	2018/06/13	5355778	623845	USG93404AA23	C	2012/07/10				USD	150000000	O	10		KO	100	W	N
CPOPT	U	2010/04/21	2018/06/13	5355779	623845	USG93404AA23	C	2012/08/10				USD	150000000	O	10		KO	100	W	N
CPOPT	U	2010/04/21	2018/06/13	5355780	623845	USG93404AA23	C	2012/09/10				USD	150000000	O	10		KO	100	W	N
CPOPT	U	2010/04/21	2018/06/13	5355781	623845	USG93404AA23	C	2012/10/10				USD	150000000	O	10		KO	100	W	N
CPOPT	U	2010/04/21	2018/06/13	5355782	623845	USG93404AA23	C	2012/11/10				USD	150000000	O	10		KO	100	W	N
CPOPT	U	2010/04/21	2018/06/13	5355783	623845	USG93404AA23	C	2012/12/10				USD	150000000	O	10		KO	100	W	N
CPOPT	U	2010/04/21	2018/06/13	5355784	623845	USG93404AA23	C	2013/01/10				USD	150000000	O	10		KO	100	W	N
CPOPT	U	2010/04/21	2018/06/13	5355785	623845	USG93404AA23	C	2013/02/10				USD	150000000	O	10		KO	100	W	N
CPOPT	U	2010/04/21	2018/06/13	5355786	623845	USG93404AA23	C	2013/03/10				USD	150000000	O	10		KO	100	W	N
CPOPT	U	2010/04/21	2018/06/13	5355787	623845	USG93404AA23	C	2013/04/10				USD	150000000	O	10		KO	100	W	N
CPOPT	U	2010/04/21	2018/06/13	5355788	623845	USG93404AA23	C	2013/05/10				USD	150000000	O	10		KO	100	W	N
CPOPT	U	2010/04/21	2018/06/13	5355789	623845	USG93404AA23	C	2013/06/10				USD	150000000	O	10		KO	100	W	N
CPOPT	U	2010/04/21	2018/06/13	5355790	623845	USG93404AA23	C	2013/07/10				USD	150000000	O	10		KO	100	W	N
CPOPT	U	2010/04/21	2018/06/13	5355791	623845	USG93404AA23	C	2013/08/10				USD	150000000	O	10		KO	100	W	N
CPOPT	U	2010/04/21	2018/06/13	5355792	623845	USG93404AA23	C	2013/09/10				USD	150000000	O	10		KO	100	W	N
CPOPT	U	2010/04/21	2018/06/13	5355793	623845	USG93404AA23	C	2013/10/10				USD	150000000	O	10		KO	100	W	N
CPOPT	U	2010/04/21	2018/06/13	5355794	623845	USG93404AA23	C	2013/11/10				USD	150000000	O	10		KO	100	W	N
CPOPT	U	2010/04/21	2018/06/13	5355795	623845	USG93404AA23	C	2013/12/10				USD	150000000	O	10		KO	100	W	N
CPOPT	U	2010/04/21	2018/06/13	5355796	623845	USG93404AA23	C	2014/01/10				USD	150000000	O	10		KO	100	W	N
CPOPT	U	2010/04/21	2018/06/13	5355797	623845	USG93404AA23	C	2014/02/10				USD	150000000	O	10		KO	100	W	N
CPOPT	U	2010/04/21	2018/06/13	5355798	623845	USG93404AA23	C	2014/03/10				USD	150000000	O	10		KO	100	W	N
CPOPT	U	2010/04/21	2018/06/13	5355799	623845	USG93404AA23	C	2014/04/10				USD	150000000	O	10		KO	100	W	N
CPOPT	U	2010/04/21	2018/06/13	5355800	623845	USG93404AA23	C	2014/05/10				USD	150000000	O	10		KO	100	W	N
CPOPT	U	2010/04/21	2018/06/13	5355801	623845	USG93404AA23	C	2014/06/10				USD	150000000	O	10		KO	100	W	N
CPOPT	U	2010/04/21	2018/06/13	5355802	623845	USG93404AA23	C	2014/07/10				USD	150000000	O	10		KO	100	W	N
CPOPT	U	2010/04/21	2018/06/13	5355803	623845	USG93404AA23	C	2014/08/10				USD	150000000	O	10		KO	100	W	N
CPOPT	U	2010/04/21	2018/06/13	5355804	623845	USG93404AA23	C	2014/09/10				USD	150000000	O	10		KO	100	W	N
CPOPT	U	2010/04/21	2018/06/13	5355805	623845	USG93404AA23	C	2014/10/10				USD	150000000	O	10		KO	100	W	N
CPOPT	U	2010/04/21	2018/06/13	5355806	623845	USG93404AA23	C	2014/11/10				USD	150000000	O	10		KO	100	W	N
CPOPT	U	2010/04/21	2018/06/13	5355807	623845	USG93404AA23	C	2014/12/10				USD	150000000	O	10		KO	100	W	N
CPOPT	U	2010/04/21	2018/06/13	5355808	623845	USG93404AA23	C	2015/01/10				USD	150000000	O	10		KO	100	W	N
CPOPT	U	2010/04/21	2018/06/13	5355809	623845	USG93404AA23	C	2015/02/10				USD	150000000	O	10		KO	100	W	N
CPOPT	U	2010/04/21	2018/06/13	5355810	623845	USG93404AA23	C	2015/03/10				USD	150000000	O	10		KO	100	W	N
CPOPT	U	2010/04/21	2018/06/13	5355811	623845	USG93404AA23	C	2015/04/10				USD	150000000	O	10		KO	100	W	N
CPOPT	U	2010/04/21	2018/06/13	5355812	623845	USG93404AA23	C	2015/05/10				USD	150000000	O	10		KO	100	W	N
CPOPT	U	2010/04/21	2018/06/13	5355813	623845	USG93404AA23	C	2015/06/10				USD	150000000	O	10		KO	100	W	N
CPOPT	U	2010/04/21	2018/06/13	5355814	623845	USG93404AA23	C	2015/07/10				USD	150000000	O	10		KO	100	W	N
CPOPT	U	2010/04/21	2018/06/13	5355815	623845	USG93404AA23	C	2015/08/10				USD	150000000	O	10		KO	100	W	N
CPOPT	U	2010/04/21	2018/06/13	5355816	623845	USG93404AA23	C	2015/09/10				USD	150000000	O	10		KO	100	W	N
CPOPT	U	2010/04/21	2018/06/13	5355817	623845	USG93404AA23	C	2015/10/10				USD	150000000	O	10		KO	100	W	N
CPOPT	U	2010/04/21	2018/06/13	5355818	623845	USG93404AA23	C	2015/11/10				USD	150000000	O	10		KO	100	W	N
CPOPT	U	2010/04/21	2018/06/13	5355819	623845	USG93404AA23	C	2015/12/10				USD	150000000	O	10		KO	100	W	N
CPOPT	U	2010/04/21	2018/06/13	5355820	623845	USG93404AA23	C	2016/01/10				USD	150000000	O	10		KO	100	W	N
CPOPT	U	2010/04/21	2018/06/13	5355821	623845	USG93404AA23	C	2016/02/10				USD	150000000	O	10		KO	100	W	N
CPOPT	U	2010/04/21	2018/06/13	5355822	623845	USG93404AA23	C	2016/03/10				USD	150000000	O	10		KO	100	W	N
CPOPT	U	2010/04/21	2018/06/13	5355823	623845	USG93404AA23	C	2016/04/10				USD	150000000	O	10		KO	100	W	N
CPOPT	U	2010/04/21	2018/06/13	5355824	623845	USG93404AA23	C	2016/05/10				USD	150000000	O	10		KO	100	W	N
CPOPT	U	2010/04/21	2018/06/13	5355825	623845	USG93404AA23	C	2016/06/10				USD	150000000	O	10		KO	100	W	N
CPOPT	U	2010/04/21	2018/06/13	5355826	623845	USG93404AA23	C	2016/07/10				USD	150000000	O	10		KO	100	W	N
CPOPT	U	2010/04/21	2018/06/13	5355827	623845	USG93404AA23	C	2016/08/10				USD	150000000	O	10		KO	100	W	N
CPOPT	U	2010/04/21	2018/06/13	5355828	623845	USG93404AA23	C	2016/09/10				USD	150000000	O	10		KO	100	W	N
CPOPT	U	2010/04/21	2018/06/13	5355829	623845	USG93404AA23	C	2016/10/10				USD	150000000	O	10		KO	100	W	N
CPOPT	U	2010/04/21	2018/06/13	5355830	623845	USG93404AA23	C	2016/11/10				USD	150000000	O	10		KO	100	W	N
CPOPT	U	2010/04/21	2018/06/13	5355831	623845	USG93404AA23	C	2016/12/10				USD	150000000	O	10		KO	100	W	N
CPOPT	U	2010/04/21	2018/06/13	5355832	623845	USG93404AA23	C	2017/01/10				USD	150000000	O	10		KO	100	W	N
CPOPT	U	2010/04/21	2018/06/13	5355833	623845	USG93404AA23	C	2017/02/10				USD	150000000	O	10		KO	100	W	N
CPOPT	U	2010/04/21	2018/06/13	5355834	623845	USG93404AA23	C	2017/03/10				USD	150000000	O	10		KO	100	W	N
CPOPT	U	2010/04/21	2018/06/13	5355835	623845	USG93404AA23	C	2017/04/10				USD	150000000	O	10		KO	100	W	N
CPOPT	U	2010/04/21	2018/06/13	5355836	623845	USG93404AA23	C	2017/05/10				USD	150000000	O	10		KO	100	W	N
CPOPT	U	2010/04/21	2018/06/13	5355837	623845	USG93404AA23	C	2017/06/10				USD	150000000	O	10		KO	100	W	N
CPOPT	U	2010/04/21	2018/06/13	5355838	623845	USG93404AA23	C	2017/07/10				USD	150000000	O	10		KO	100	W	N
CPOPT	U	2010/04/21	2018/06/13	5355839	623845	USG93404AA23	C	2017/08/10				USD	150000000	O	10		KO	100	W	N
CPOPT	U	2010/04/21	2018/06/13	5355840	623845	USG93404AA23	C	2017/09/10				USD	150000000	O	10		KO	100	W	N
CPOPT	U	2010/04/21	2018/06/13	5355841	623845	USG93404AA23	C	2017/10/10				USD	150000000	O	10		KO	100	W	N
CPOPT	U	2010/04/21	2018/06/13	5355842	623845	USG93404AA23	C	2017/11/10				USD	150000000	O	10		KO	100	W	N
CPOPT	U	2010/04/21	2018/06/13	5355843	623845	USG93404AA23	C	2017/12/10				USD	150000000	O	10		KO	100	W	N
CPOPT	U	2010/04/21	2018/06/13	5355844	623845	USG93404AA23	C	2018/01/10				USD	150000000	O	10		KO	100	W	N
CPOPT	U	2010/04/21	2018/06/13	5355845	623845	USG93404AA23	C	2018/02/10				USD	150000000	O	10		KO	100	W	N
CPOPT	U	2010/04/21	2018/06/13	5355846	623845	USG93404AA23	C	2018/03/10				USD	150000000	O	10		KO	100	W	N
CPOPT	U	2010/04/21	2018/06/13	5355847	623845	USG93404AA23	C	2018/04/10				USD	150000000	O	10		KO	100	W	N
CPOPT	U	2010/04/21	2018/06/13	5355848	623845	USG93404AA23	C	2018/05/10				USD	150000000	O	10		KO	100	W	N
CPOPT	U	2010/04/21	2018/06/13	5355849	623845	USG93404AA23	C	2018/06/10				USD	150000000	O	10		KO	100	W	N
CPOPT	U	2010/04/21	2018/06/13	5355850	623845	USG93404AA23	C	2018/07/10				USD	150000000	O	10		KO	100	W	N
CPOPT	U	2010/04/21	2018/06/13	5355851	623845	USG93404AA23	C	2018/08/10				USD	150000000	O	10		KO	100	W	N
CPOPT	U	2010/04/21	2018/06/13	5355852	623845	USG93404AA23	C	2018/09/10				USD	150000000	O	10		KO	100	W	N
CPOPT	U	2010/04/21	2018/06/13	5355853	623845	USG93404AA23	C	2018/10/10				USD	150000000	O	10		KO	100	W	N
CPOPT	U	2010/04/21	2018/06/13	5355854	623845	USG93404AA23	C	2018/11/10				USD	150000000	O	10		KO	100	W	N
CPOPT	U	2010/04/21	2018/06/13	5355855	623845	USG93404AA23	C	2018/12/10				USD	150000000	O	10		KO	100	W	N
CPOPT	U	2010/04/21	2018/06/13	5355856	623845	USG93404AA23	C	2019/01/10				USD	150000000	O	10		KO	100	W	N
CPOPT	U	2010/04/21	2018/06/13	5355857	623845	USG93404AA23	C	2019/02/10				USD	150000000	O	10		KO	100	W	N
CPOPT	U	2010/04/21	2018/06/13	5355858	623845	USG93404AA23	C	2019/03/10				USD	150000000	O	10		KO	100	W	N
CPOPT	U	2010/04/21	2018/06/13	5355859	623845	USG93404AA23	C	2019/04/10				USD	150000000	O	10		KO	100	W	N
CPOPT	U	2010/04/21	2018/06/13	5355860	623845	USG93404AA23	C	2019/05/10				USD	150000000	O	10		KO	100	W	N
CPOPT	U	2010/04/21	2018/06/13	5355861	623845	USG93404AA23	C	2019/06/10				USD	150000000	O	10		KO	100	W	N
CPOPT	U	2010/04/21	2018/06/13	5355862	623845	USG93404AA23	C	2019/07/10				USD	150000000	O	10		KO	100	W	N
CPOPT	U	2010/04/21	2018/06/13	5355863	623845	USG93404AA23	C	2019/08/10				USD	150000000	O	10		KO	100	W	N
CPOPT	U	2010/04/21	2018/06/13	5355864	623845	USG93404AA23	C	2019/09/10				USD	150000000	O	10		KO	100	W	N
CPOPT	U	2010/04/21	2018/06/13	5355865	623845	USG93404AA23	C	2019/10/10				USD	150000000	O	10		KO	100	W	N
CPOPT	U	2010/04/21	2018/06/13	5355866	623845	USG93404AA23	C	2019/11/10				USD	150000000	O	10		KO	100	W	N
CPOPT	U	2010/04/21	2018/06/13	5355867	623845	USG93404AA23	C	2019/12/10				USD	150000000	O	10		KO	100	W	N
CPOPT	U	2010/04/21	2018/06/13	5355868	623845	USG93404AA23	C	2020/01/10				USD	150000000	O	10		KO	100	W	N
CPOPT	U	2010/04/21	2018/06/13	5355869	623845	USG93404AA23	C	2020/02/10				USD	150000000	O	10		KO	100	W	N
CPOPT	U	2010/04/21	2018/06/13	5355870	623845	USG93404AA23	C	2020/03/10				USD	150000000	O	10		KO	100	W	N
CPOPT	U	2010/04/21	2018/06/13	5355871	623845	USG93404AA23	C	2020/04/10				USD	150000000	O	10		KO	100	W	N
CPOPT	U	2010/04/21	2018/06/13	5355872	623845	USG93404AA23	C	2020/05/10				USD	150000000	O	10		KO	100	W	N
CPOPT	U	2010/04/21	2018/06/13	5355873	623845	USG93404AA23	C	2020/06/10				USD	150000000	O	10		KO	100	W	N
CPOPT	U	2010/04/21	2018/06/13	5355874	623845	USG93404AA23	C	2020/07/10				USD	150000000	O	10		KO	100	W	N
CPOPT	U	2010/04/21	2018/06/13	5355875	623845	USG93404AA23	C	2020/08/10				USD	150000000	O	10		KO	100	W	N
CPOPT	U	2010/04/21	2018/06/13	5355876	623845	USG93404AA23	C	2020/09/10				USD	150000000	O	10		KO	100	W	N
CPOPT	U	2010/04/21	2018/06/13	5355877	623845	USG93404AA23	C	2020/10/10				USD	150000000	O	10		KO	100	W	N
CPOPT	U	2010/04/21	2018/06/13	5355878	623845	USG93404AA23	C	2020/11/10				USD	150000000	O	10		KO	100	W	N
CPOPT	U	2010/04/21	2018/06/13	5355879	623845	USG93404AA23	C	2020/12/10				USD	150000000	O	10		KO	100	W	N
CPOPT	U	2010/04/21	2018/06/13	5355880	623845	USG93404AA23	C	2021/01/10				USD	150000000	O	10		KO	100	W	N
CPOPT	U	2010/04/21	2018/06/13	5355881	623845	USG93404AA23	C	2021/02/10				USD	150000000	O	10		KO	100	W	N
CPOPT	U	2010/04/21	2018/06/13	5355882	623845	USG93404AA23	C	2021/03/10				USD	150000000	O	10		KO	100	W	N
CPOPT	U	2010/04/21	2018/06/13	5355883	623845	USG93404AA23	C	2021/04/10				USD	150000000	O	10		KO	100	W	N
CPOPT	U	2010/04/21	2018/06/13	5355884	623845	USG93404AA23	C	2021/05/10				USD	150000000	O	10		KO	100	W	N
CPOPT	U	2010/04/21	2018/06/13	5355885	623845	USG93404AA23	C	2021/06/10				USD	150000000	O	10		KO	100	W	N
CPOPT	U	2010/04/21	2018/06/13	5355886	623845	USG93404AA23	C	2021/07/10				USD	150000000	O	10		KO	100	W	N
CPOPT	U	2010/04/21	2018/06/13	5355887	623845	USG93404AA23	C	2021/08/10				USD	150000000	O	10		KO	100	W	N
CPOPT	U	2010/04/21	2018/06/13	5355888	623845	USG93404AA23	C	2021/09/10				USD	150000000	O	10		KO	100	W	N
CPOPT	U	2010/04/21	2018/06/13	5355889	623845	USG93404AA23	C	2021/10/10				USD	150000000	O	10		KO	100	W	N
CPOPT	U	2010/04/21	2018/06/13	5355890	623845	USG93404AA23	C	2021/11/10				USD	150000000	O	10		KO	100	W	N
CPOPT	U	2010/04/21	2018/06/13	5355891	623845	USG93404AA23	C	2021/12/10				USD	150000000	O	10		KO	100	W	N
CPOPT	U	2010/04/21	2018/06/13	5355892	623845	USG93404AA23	C	2022/01/10				USD	150000000	O	10		KO	100	W	N
CPOPT	U	2010/04/21	2018/06/13	5355893	623845	USG93404AA23	C	2022/02/10				USD	150000000	O	10		KO	100	W	N
CPOPT	U	2010/04/21	2018/06/13	5355894	623845	USG93404AA23	C	2022/03/10				USD	150000000	O	10		KO	100	W	N
CPOPT	U	2010/04/21	2018/06/13	5355895	623845	USG93404AA23	C	2022/04/10				USD	150000000	O	10		KO	100	W	N
CPOPT	U	2010/04/21	2018/06/13	5355896	623845	USG93404AA23	C	2022/05/10				USD	150000000	O	10		KO	100	W	N
CPOPT	U	2010/04/21	2018/06/13	5355897	623845	USG93404AA23	C	2022/06/10				USD	150000000	O	10		KO	100	W	N
CPOPT	U	2010/04/21	2018/06/13	5355898	623845	USG93404AA23	C	2022/07/10				USD	150000000	O	10		KO	100	W	N
CPOPT	U	2010/04/21	2018/06/13	5355899	623845	USG93404AA23	C	2022/08/10				USD	150000000	O	10		KO	100	W	N
CPOPT	U	2010/04/21	2018/06/13	5355900	623845	USG93404AA23	C	2022/09/10				USD	150000000	O	10		KO	100	W	N
CPOPT	U	2010/04/21	2018/06/13	5355901	623845	USG93404AA23	C	2022/10/10				USD	150000000	O	10		KO	100	W	N
CPOPT	U	2010/04/21	2018/06/13	5355902	623845	USG93404AA23	C	2022/11/10				USD	150000000	O	10		KO	100	W	N
CPOPT	U	2010/04/21	2018/06/13	5355903	623845	USG93404AA23	C	2022/12/10				USD	150000000	O	10		KO	100	W	N
CPOPT	U	2010/04/21	2018/06/13	5355904	623845	USG93404AA23	C	2023/01/10				USD	150000000	O	10		KO	100	W	N
CPOPT	U	2010/04/21	2018/06/13	5355905	623845	USG93404AA23	C	2023/02/10				USD	150000000	O	10		KO	100	W	N
CPOPT	U	2010/04/21	2018/06/13	5355906	623845	USG93404AA23	C	2023/03/10				USD	150000000	O	10		KO	100	W	N
CPOPT	U	2010/04/21	2018/06/13	5355907	623845	USG93404AA23	C	2023/04/10				USD	150000000	O	10		KO	100	W	N
CPOPT	U	2010/04/21	2018/06/13	5355908	623845	USG93404AA23	C	2023/05/10				USD	150000000	O	10		KO	100	W	N
CPOPT	U	2010/04/21	2018/06/13	5355909	623845	USG93404AA23	C	2023/06/10				USD	150000000	O	10		KO	100	W	N
CPOPT	U	2010/04/21	2018/06/13	5355910	623845	USG93404AA23	C	2023/07/10				USD	150000000	O	10		KO	100	W	N
CPOPT	U	2010/04/21	2018/06/13	5355911	623845	USG93404AA23	C	2023/08/10				USD	150000000	O	10		KO	100	W	N
CPOPT	U	2010/04/21	2018/06/13	5355912	623845	USG93404AA23	C	2023/09/10				USD	150000000	O	10		KO	100	W	N
CPOPT	U	2010/04/21	2018/06/13	5355913	623845	USG93404AA23	C	2023/10/10				USD	150000000	O	10		KO	100	W	N
CPOPT	U	2010/04/21	2018/06/13	5355914	623845	USG93404AA23	C	2023/11/10				USD	150000000	O	10		KO	100	W	N
CPOPT	U	2010/04/21	2018/06/13	5355915	623845	USG93404AA23	C	2023/12/10				USD	150000000	O	10		KO	100	W	N
CPOPT	U	2010/04/21	2018/06/13	5355916	623845	USG93404AA23	C	2024/01/10				USD	150000000	O	10		KO	100	W	N
CPOPT	U	2010/04/21	2018/06/13	5355917	623845	USG93404AA23	C	2024/02/10				USD	150000000	O	10		KO	100	W	N
CPOPT	U	2010/04/21	2018/06/13	5355918	623845	USG93404AA23	C	2024/03/10				USD	150000000	O	10		KO	100	W	N
CPOPT	U	2010/04/21	2018/06/13	5355919	623845	USG93404AA23	C	2024/04/10				USD	150000000	O	10		KO	100	W	N
CPOPT	U	2010/04/21	2018/06/13	5355920	623845	USG93404AA23	C	2024/05/10				USD	150000000	O	10		KO	100	W	N
CPOPT	U	2010/04/21	2018/06/13	5355921	623845	USG93404AA23	C	2024/06/10				USD	150000000	O	10		KO	100	W	N
CPOPT	U	2010/04/21	2018/06/13	5355922	623845	USG93404AA23	C	2024/07/10				USD	150000000	O	10		KO	100	W	N
CPOPT	U	2010/04/21	2018/06/13	5355923	623845	USG93404AA23	C	2024/08/10				USD	150000000	O	10		KO	100	W	N
CPOPT	U	2010/04/21	2018/06/13	5355924	623845	USG93404AA23	C	2024/09/10				USD	150000000	O	10		KO	100	W	N
CPOPT	U	2010/04/21	2018/06/13	5355925	623845	USG93404AA23	C	2024/10/10				USD	150000000	O	10		KO	100	W	N
CPOPT	U	2010/04/21	2018/06/13	5355926	623845	USG93404AA23	C	2024/11/10				USD	150000000	O	10		KO	100	W	N
CPOPT	U	2010/04/21	2018/06/13	5355927	623845	USG93404AA23	C	2024/12/10				USD	150000000	O	10		KO	100	W	N
CPOPT	U	2010/04/21	2018/06/13	5355928	623845	USG93404AA23	C	2025/01/10				USD	150000000	O	10		KO	100	W	N
CPOPT	U	2010/04/21	2018/06/13	5355929	623845	USG93404AA23	C	2025/02/10				USD	150000000	O	10		KO	100	W	N
CPOPT	U	2010/04/21	2018/06/13	5355930	623845	USG93404AA23	C	2025/03/10				USD	150000000	O	10		KO	100	W	N
CPOPT	U	2010/04/21	2018/06/13	5355931	623845	USG93404AA23	C	2025/04/10				USD	150000000	O	10		KO	100	W	N
CPOPT	U	2010/04/21	2018/06/13	5355932	623845	USG93404AA23	C	2025/05/10				USD	150000000	O	10		KO	100	W	N
CPOPT	U	2010/04/21	2018/06/13	5355933	623845	USG93404AA23	C	2025/06/10				USD	150000000	O	10		KO	100	W	N
CPOPT	U	2010/04/21	2018/06/13	5355934	623845	USG93404AA23	C	2025/07/10				USD	150000000	O	10		KO	100	W	N
CPOPT	U	2010/04/21	2018/06/13	5355935	623845	USG93404AA23	C	2025/08/10				USD	150000000	O	10		KO	100	W	N
CPOPT	U	2010/04/21	2018/06/13	5355936	623845	USG93404AA23	C	2025/09/10				USD	150000000	O	10		KO	100	W	N
CPOPT	U	2010/04/21	2018/06/13	5355937	623845	USG93404AA23	C	2025/10/10				USD	150000000	O	10		KO	100	W	N
CPOPT	U	2010/04/21	2018/06/13	5355938	623845	USG93404AA23	C	2025/11/10				USD	150000000	O	10		KO	100	W	N
CPOPT	U	2010/04/21	2018/06/13	5355939	623845	USG93404AA23	C	2025/12/10				USD	150000000	O	10		KO	100	W	N
CPOPT	U	2010/04/21	2018/06/13	5355940	623845	USG93404AA23	C	2026/01/10				USD	150000000	O	10		KO	100	W	N
CPOPT	U	2010/04/21	2018/06/13	5355941	623845	USG93404AA23	C	2026/02/10				USD	150000000	O	10		KO	100	W	N
CPOPT	U	2010/04/21	2018/06/13	5355942	623845	USG93404AA23	C	2026/03/10				USD	150000000	O	10		KO	100	W	N
CPOPT	U	2010/04/21	2018/06/13	5355943	623845	USG93404AA23	C	2026/04/10				USD	150000000	O	10		KO	100	W	N
CPOPT	U	2010/04/21	2018/06/13	5355944	623845	USG93404AA23	C	2026/05/10				USD	150000000	O	10		KO	100	W	N
CPOPT	U	2010/04/21	2018/06/13	5355945	623845	USG93404AA23	C	2026/06/10				USD	150000000	O	10		KO	100	W	N
CPOPT	U	2010/04/21	2018/06/13	5355946	623845	USG93404AA23	C	2026/07/10				USD	150000000	O	10		KO	100	W	N
CPOPT	U	2010/04/21	2018/06/13	5355947	623845	USG93404AA23	C	2026/08/10				USD	150000000	O	10		KO	100	W	N
CPOPT	U	2010/04/21	2018/06/13	5355948	623845	USG93404AA23	C	2026/09/10				USD	150000000	O	10		KO	100	W	N
CPOPT	U	2010/04/21	2018/06/13	5355949	623845	USG93404AA23	C	2026/10/10				USD	150000000	O	10		KO	100	W	N
CPOPT	U	2010/04/21	2018/06/13	5355950	623845	USG93404AA23	C	2026/11/10				USD	150000000	O	10		KO	100	W	N
CPOPT	U	2010/04/21	2018/06/13	5355951	623845	USG93404AA23	C	2026/12/10				USD	150000000	O	10		KO	100	W	N
CPOPT	U	2010/04/21	2018/06/13	5355952	623845	USG93404AA23	C	2027/01/10				USD	150000000	O	10		KO	100	W	N
CPOPT	U	2010/04/21	2018/06/13	5355953	623845	USG93404AA23	C	2027/02/10				USD	150000000	O	10		KO	100	W	N
CPOPT	U	2010/04/21	2018/06/13	5355954	623845	USG93404AA23	C	2027/03/10				USD	150000000	O	10		KO	100	W	N
CPOPT	U	2010/04/21	2018/06/13	5355955	623845	USG93404AA23	C	2027/04/10				USD	150000000	O	10		KO	100	W	N
CPOPT	U	2010/04/21	2018/06/13	5355956	623845	USG93404AA23	C	2027/05/10				USD	150000000	O	10		KO	100	W	N
CPOPT	U	2010/04/21	2018/06/13	5355957	623845	USG93404AA23	C	2027/06/10				USD	150000000	O	10		KO	100	W	N
CPOPT	U	2010/04/21	2018/06/13	5355958	623845	USG93404AA23	C	2027/07/10				USD	150000000	O	10		KO	100	W	N
CPOPT	U	2010/04/21	2018/06/13	5355959	623845	USG93404AA23	C	2027/08/10				USD	150000000	O	10		KO	100	W	N
CPOPT	U	2010/04/21	2018/06/13	5355960	623845	USG93404AA23	C	2027/09/10				USD	150000000	O	10		KO	100	W	N
CPOPT	U	2010/04/21	2018/06/13	5355961	623845	USG93404AA23	C	2027/10/10				USD	150000000	O	10		KO	100	W	N
CPOPT	U	2010/04/21	2018/06/13	5355962	623845	USG93404AA23	C	2027/11/10				USD	150000000	O	10		KO	100	W	N
CPOPT	U	2010/04/21	2018/06/13	5355963	623845	USG93404AA23	C	2027/12/10				USD	150000000	O	10		KO	100	W	N
CPOPT	U	2010/04/21	2018/06/13	5355964	623845	USG93404AA23	C	2028/01/10				USD	150000000	O	10		KO	100	W	N
CPOPT	U	2010/04/21	2018/06/13	5355965	623845	USG93404AA23	C	2028/02/10				USD	150000000	O	10		KO	100	W	N
CPOPT	U	2010/04/21	2018/06/13	5355966	623845	USG93404AA23	C	2028/03/10				USD	150000000	O	10		KO	100	W	N
CPOPT	U	2010/04/21	2018/06/13	5355967	623845	USG93404AA23	C	2028/04/10				USD	150000000	O	10		KO	100	W	N
CPOPT	U	2010/04/21	2018/06/13	5355968	623845	USG93404AA23	C	2028/05/10				USD	150000000	O	10		KO	100	W	N
CPOPT	U	2010/04/21	2018/06/13	5355969	623845	USG93404AA23	C	2028/06/10				USD	150000000	O	10		KO	100	W	N
CPOPT	U	2010/04/21	2018/06/13	5355970	623845	USG93404AA23	C	2028/07/10				USD	150000000	O	10		KO	100	W	N
CPOPT	U	2010/04/21	2018/06/13	5355971	623845	USG93404AA23	C	2028/08/10				USD	150000000	O	10		KO	100	W	N
CPOPT	U	2010/04/21	2018/06/13	5355972	623845	USG93404AA23	C	2028/09/10				USD	150000000	O	10		KO	100	W	N
CPOPT	U	2010/04/21	2018/06/13	5355973	623845	USG93404AA23	C	2028/10/10				USD	150000000	O	10		KO	100	W	N
CPOPT	U	2010/04/21	2018/06/13	5355974	623845	USG93404AA23	C	2028/11/10				USD	150000000	O	10		KO	100	W	N
CPOPT	U	2010/04/21	2018/06/13	5355975	623845	USG93404AA23	C	2028/12/10				USD	150000000	O	10		KO	100	W	N
CPOPT	U	2010/04/21	2018/06/13	5355976	623845	USG93404AA23	C	2029/01/10				USD	150000000	O	10		KO	100	W	N
CPOPT	U	2010/04/21	2018/06/13	5355977	623845	USG93404AA23	C	2029/02/10				USD	150000000	O	10		KO	100	W	N
CPOPT	U	2010/04/21	2018/06/13	5355978	623845	USG93404AA23	C	2029/03/10				USD	150000000	O	10		KO	100	W	N
CPOPT	U	2010/04/21	2018/06/13	5355979	623845	USG93404AA23	C	2029/04/10				USD	150000000	O	10		KO	100	W	N
CPOPT	U	2010/04/21	2018/06/13	5355980	623845	USG93404AA23	C	2029/05/10				USD	150000000	O	10		KO	100	W	N
CPOPT	U	2010/04/21	2018/06/13	5355981	623845	USG93404AA23	C	2029/06/10				USD	150000000	O	10		KO	100	W	N
CPOPT	U	2010/04/21	2018/06/13	5355982	623845	USG93404AA23	C	2029/07/10				USD	150000000	O	10		KO	100	W	N
CPOPT	U	2010/04/21	2018/06/13	5355983	623845	USG93404AA23	C	2029/08/10				USD	150000000	O	10		KO	100	W	N
CPOPT	U	2010/04/21	2018/06/13	5355984	623845	USG93404AA23	C	2029/09/10				USD	150000000	O	10		KO	100	W	N
CPOPT	U	2010/04/21	2018/06/13	5355985	623845	USG93404AA23	C	2029/10/10				USD	150000000	O	10		KO	100	W	N
CPOPT	U	2010/04/21	2018/06/13	5355986	623845	USG93404AA23	C	2029/11/10				USD	150000000	O	10		KO	100	W	N
CPOPT	U	2010/04/21	2018/06/13	5355987	623845	USG93404AA23	C	2029/12/10				USD	150000000	O	10		KO	100	W	N
CPOPT	U	2010/04/21	2018/06/13	5355988	623845	USG93404AA23	C	2030/01/10				USD	150000000	O	10		KO	100	W	N
CPOPT	U	2010/04/21	2018/06/13	5355989	623845	USG93404AA23	C	2030/02/10				USD	150000000	O	10		KO	100	W	N
CPOPT	U	2010/04/21	2018/06/13	5355990	623845	USG93404AA23	C	2030/03/10				USD	150000000	O	10		KO	100	W	N
CPOPT	U	2010/04/21	2018/06/13	5355991	623845	USG93404AA23	C	2030/04/10				USD	150000000	O	10		KO	100	W	N
CPOPT	U	2010/04/21	2018/06/13	5355992	623845	USG93404AA23	C	2030/05/10				USD	150000000	O	10		KO	100	W	N
CPOPT	U	2010/04/21	2018/06/13	5355993	623845	USG93404AA23	C	2030/06/10				USD	150000000	O	10		KO	100	W	N
CPOPT	U	2010/04/21	2018/06/13	5355994	623845	USG93404AA23	C	2030/07/10				USD	150000000	O	10		KO	100	W	N
CPOPT	U	2010/04/21	2018/06/13	5355995	623845	USG93404AA23	C	2030/08/10				USD	150000000	O	10		KO	100	W	N
CPOPT	U	2010/04/21	2018/06/13	5355996	623845	USG93404AA23	C	2030/09/10				USD	150000000	O	10		KO	100	W	N
CPOPT	U	2010/04/21	2018/06/13	5355997	623845	USG93404AA23	C	2030/10/10				USD	150000000	O	10		KO	100	W	N
CPOPT	U	2010/04/21	2018/06/13	5355998	623845	USG93404AA23	C	2030/11/10				USD	150000000	O	10		KO	100	W	N
CPOPT	U	2010/04/21	2018/06/13	5355999	623845	USG93404AA23	C	2030/12/10				USD	150000000	O	10		KO	100	W	N
CPOPT	U	2010/04/21	2018/06/13	5356000	623845	USG93404AA23	C	2031/01/10				USD	150000000	O	10		KO	100	W	N
CPOPT	U	2010/04/21	2018/06/13	5356001	623845	USG93404AA23	C	2031/02/10				USD	150000000	O	10		KO	100	W	N
CPOPT	U	2010/04/21	2018/06/13	5356002	623845	USG93404AA23	C	2031/03/10				USD	150000000	O	10		KO	100	W	N
CPOPT	U	2010/04/21	2018/06/13	5356003	623845	USG93404AA23	C	2031/04/10				USD	150000000	O	10		KO	100	W	N
CPOPT	U	2010/04/21	2018/06/13	5356004	623845	USG93404AA23	C	2031/05/10				USD	150000000	O	10		KO	100	W	N
CPOPT	U	2010/04/21	2018/06/13	5356005	623845	USG93404AA23	C	2031/06/10				USD	150000000	O	10		KO	100	W	N
CPOPT	U	2010/04/21	2018/06/13	5356006	623845	USG93404AA23	C	2031/07/10				USD	150000000	O	10		KO	100	W	N
CPOPT	U	2010/04/21	2018/06/13	5356007	623845	USG93404AA23	C	2031/08/10				USD	150000000	O	10		KO	100	W	N
CPOPT	U	2010/04/21	2018/06/13	5356008	623845	USG93404AA23	C	2031/09/10				USD	150000000	O	10		KO	100	W	N
CPOPT	U	2010/04/21	2018/06/13	5356009	623845	USG93404AA23	C	2031/10/10				USD	150000000	O	10		KO	100	W	N
CPOPT	U	2010/04/21	2018/06/13	5356010	623845	USG93404AA23	C	2031/11/10				USD	150000000	O	10		KO	100	W	N
CPOPT	U	2010/04/21	2018/06/13	5356011	623845	USG93404AA23	C	2031/12/10				USD	150000000	O	10		KO	100	W	N
CPOPT	U	2010/04/21	2018/06/13	5356012	623845	USG93404AA23	C	2032/01/10				USD	150000000	O	10		KO	100	W	N
CPOPT	U	2010/04/21	2018/06/13	5356013	623845	USG93404AA23	C	2032/02/10				USD	150000000	O	10		KO	100	W	N
CPOPT	U	2010/04/21	2018/06/13	5356014	623845	USG93404AA23	C	2032/03/10				USD	150000000	O	10		KO	100	W	N
CPOPT	U	2010/04/21	2018/06/13	5356015	623845	USG93404AA23	C	2032/04/10				USD	150000000	O	10		KO	100	W	N
CPOPT	U	2010/04/21	2018/06/13	5356016	623845	USG93404AA23	C	2032/05/10				USD	150000000	O	10		KO	100	W	N
CPOPT	U	2010/04/21	2018/06/13	5356017	623845	USG93404AA23	C	2032/06/10				USD	150000000	O	10		KO	100	W	N
CPOPT	U	2010/04/21	2018/06/13	5356018	623845	USG93404AA23	C	2032/07/10				USD	150000000	O	10		KO	100	W	N
CPOPT	U	2010/04/21	2018/06/13	5356019	623845	USG93404AA23	C	2032/08/10				USD	150000000	O	10		KO	100	W	N
CPOPT	U	2010/04/21	2018/06/13	5356020	623845	USG93404AA23	C	2032/09/10				USD	150000000	O	10		KO	100	W	N
CPOPT	U	2010/04/21	2018/06/13	5356021	623845	USG93404AA23	C	2032/10/10				USD	150000000	O	10		KO	100	W	N
CPOPT	U	2010/04/21	2018/06/13	5356022	623845	USG93404AA23	C	2032/11/10				USD	150000000	O	10		KO	100	W	N
CPOPT	U	2010/04/21	2018/06/13	5356023	623845	USG93404AA23	C	2032/12/10				USD	150000000	O	10		KO	100	W	N
CPOPT	U	2010/04/21	2018/06/13	5356024	623845	USG93404AA23	C	2033/01/10				USD	150000000	O	10		KO	100	W	N
CPOPT	U	2010/04/21	2018/06/13	5356025	623845	USG93404AA23	C	2033/02/10				USD	150000000	O	10		KO	100	W	N
CPOPT	U	2010/04/21	2018/06/13	5356026	623845	USG93404AA23	C	2033/03/10				USD	150000000	O	10		KO	100	W	N
CPOPT	U	2010/04/21	2018/06/13	5356027	623845	USG93404AA23	C	2033/04/10				USD	150000000	O	10		KO	100	W	N
CPOPT	U	2010/04/21	2018/06/13	5356028	623845	USG93404AA23	C	2033/05/10				USD	150000000	O	10		KO	100	W	N
CPOPT	U	2010/04/21	2018/06/13	5356029	623845	USG93404AA23	C	2033/06/10				USD	150000000	O	10		KO	100	W	N
CPOPT	U	2010/04/21	2018/06/13	5356030	623845	USG93404AA23	C	2033/07/10				USD	150000000	O	10		KO	100	W	N
CPOPT	U	2010/04/21	2018/06/13	5356031	623845	USG93404AA23	C	2033/08/10				USD	150000000	O	10		KO	100	W	N
CPOPT	U	2010/04/21	2018/06/13	5356032	623845	USG93404AA23	C	2033/09/10				USD	150000000	O	10		KO	100	W	N
CPOPT	U	2010/04/21	2018/06/13	5356033	623845	USG93404AA23	C	2033/10/10				USD	150000000	O	10		KO	100	W	N
CPOPT	U	2010/04/21	2018/06/13	5356034	623845	USG93404AA23	C	2033/11/10				USD	150000000	O	10		KO	100	W	N
CPOPT	U	2010/04/21	2018/06/13	5356035	623845	USG93404AA23	C	2033/12/10				USD	150000000	O	10		KO	100	W	N
CPOPT	U	2010/04/21	2018/06/13	5356036	623845	USG93404AA23	C	2034/01/10				USD	150000000	O	10		KO	100	W	N
CPOPT	U	2010/04/21	2018/06/13	5356037	623845	USG93404AA23	C	2034/02/10				USD	150000000	O	10		KO	100	W	N
CPOPT	U	2010/04/21	2018/06/13	5356038	623845	USG93404AA23	C	2034/03/10				USD	150000000	O	10		KO	100	W	N
CPOPT	U	2010/04/21	2018/06/13	5356039	623845	USG93404AA23	C	2034/04/10				USD	150000000	O	10		KO	100	W	N
CPOPT	U	2010/04/21	2018/06/13	5356040	623845	USG93404AA23	C	2034/05/10				USD	150000000	O	10		KO	100	W	N
CPOPT	U	2010/04/21	2018/06/13	5356041	623845	USG93404AA23	C	2034/06/10				USD	150000000	O	10		KO	100	W	N
CPOPT	U	2010/04/21	2018/06/13	5356042	623845	USG93404AA23	C	2034/07/10				USD	150000000	O	10		KO	100	W	N
CPOPT	U	2010/04/21	2018/06/13	5356043	623845	USG93404AA23	C	2034/08/10				USD	150000000	O	10		KO	100	W	N
CPOPT	U	2010/04/21	2018/06/13	5356044	623845	USG93404AA23	C	2034/09/10				USD	150000000	O	10		KO	100	W	N
CPOPT	U	2010/04/21	2018/06/13	5356045	623845	USG93404AA23	C	2034/10/10				USD	150000000	O	10		KO	100	W	N
CPOPT	U	2010/04/21	2018/06/13	5356046	623845	USG93404AA23	C	2034/11/10				USD	150000000	O	10		KO	100	W	N
CPOPT	U	2010/04/21	2018/06/13	5356047	623845	USG93404AA23	C	2034/12/10				USD	150000000	O	10		KO	100	W	N
CPOPT	U	2010/04/21	2018/06/13	5356048	623845	USG93404AA23	C	2035/01/10				USD	150000000	O	10		KO	100	W	N
CPOPT	U	2010/04/21	2018/06/13	5356049	623845	USG93404AA23	C	2035/02/10				USD	150000000	O	10		KO	100	W	N
CPOPT	U	2010/04/21	2018/06/13	5356050	623845	USG93404AA23	C	2035/03/10				USD	150000000	O	10		KO	100	W	N
CPOPT	U	2010/04/21	2018/06/13	5356051	623845	USG93404AA23	C	2035/04/10				USD	150000000	O	10		KO	100	W	N
CPOPT	U	2010/04/21	2018/06/13	5356052	623845	USG93404AA23	C	2035/05/10				USD	150000000	O	10		KO	100	W	N
CPOPT	U	2010/04/21	2018/06/13	5356053	623845	USG93404AA23	C	2035/06/10				USD	150000000	O	10		KO	100	W	N
CPOPT	U	2010/04/21	2018/06/13	5356054	623845	USG93404AA23	C	2035/07/10				USD	150000000	O	10		KO	100	W	N
CPOPT	U	2010/04/21	2018/06/13	5356055	623845	USG93404AA23	C	2035/08/10				USD	150000000	O	10		KO	100	W	N
CPOPT	U	2010/04/21	2018/06/13	5356056	623845	USG93404AA23	C	2035/09/10				USD	150000000	O	10		KO	100	W	N
CPOPT	U	2010/04/21	2018/06/13	5356057	623845	USG93404AA23	C	2035/10/10				USD	150000000	O	10		KO	100	W	N
CPOPT	U	2010/04/21	2018/06/13	5356058	623845	USG93404AA23	C	2035/11/10				USD	150000000	O	10		KO	100	W	N
CPOPT	U	2010/04/21	2018/06/13	5356059	623845	USG93404AA23	C	2035/12/10				USD	150000000	O	10		KO	100	W	N
CPOPT	U	2010/04/21	2018/06/13	5356060	623845	USG93404AA23	C	2036/01/10				USD	150000000	O	10		KO	100	W	N
CPOPT	U	2010/04/21	2018/06/13	5356061	623845	USG93404AA23	C	2036/02/10				USD	150000000	O	10		KO	100	W	N
CPOPT	U	2010/04/21	2018/06/13	5356062	623845	USG93404AA23	C	2036/03/10				USD	150000000	O	10		KO	100	W	N
CPOPT	U	2010/04/21	2018/06/13	5356063	623845	USG93404AA23	C	2036/04/10				USD	150000000	O	10		KO	100	W	N
CPOPT	U	2010/04/21	2018/06/13	5356064	623845	USG93404AA23	C	2036/05/10				USD	150000000	O	10		KO	100	W	N
CPOPT	U	2010/04/21	2018/06/13	5356065	623845	USG93404AA23	C	2036/06/10				USD	150000000	O	10		KO	100	W	N
CPOPT	U	2010/04/21	2018/06/13	5356066	623845	USG93404AA23	C	2036/07/10				USD	150000000	O	10		KO	100	W	N
CPOPT	U	2010/04/21	2018/06/13	5356067	623845	USG93404AA23	C	2036/08/10				USD	150000000	O	10		KO	100	W	N
CPOPT	U	2010/04/21	2018/06/13	5356068	623845	USG93404AA23	C	2036/09/10				USD	150000000	O	10		KO	100	W	N
CPOPT	U	2010/04/21	2018/06/13	5356069	623845	USG93404AA23	C	2036/10/10				USD	150000000	O	10		KO	100	W	N
CPOPT	U	2010/04/21	2018/06/13	5356070	623845	USG93404AA23	C	2036/11/10				USD	150000000	O	10		KO	100	W	N
CPOPT	U	2010/04/21	2018/06/13	5356071	623845	USG93404AA23	C	2036/12/10				USD	150000000	O	10		KO	100	W	N
CPOPT	U	2010/04/21	2018/06/13	5356072	623845	USG93404AA23	C	2037/01/10				USD	150000000	O	10		KO	100	W	N
CPOPT	U	2010/04/21	2018/06/13	5356073	623845	USG93404AA23	C	2037/02/10				USD	150000000	O	10		KO	100	W	N
CPOPT	U	2010/04/21	2018/06/13	5356074	623845	USG93404AA23	C	2037/03/10				USD	150000000	O	10		KO	100	W	N
CPOPT	U	2010/04/21	2018/06/13	5356075	623845	USG93404AA23	C	2037/04/10				USD	150000000	O	10		KO	100	W	N
CPOPT	U	2010/04/21	2018/06/13	5356076	623845	USG93404AA23	C	2037/05/10				USD	150000000	O	10		KO	100	W	N
CPOPT	U	2010/04/21	2018/06/13	5356077	623845	USG93404AA23	C	2037/06/10				USD	150000000	O	10		KO	100	W	N
CPOPT	U	2010/04/21	2018/06/13	5356078	623845	USG93404AA23	C	2037/07/10				USD	150000000	O	10		KO	100	W	N
CPOPT	U	2010/04/21	2018/06/13	5356079	623845	USG93404AA23	C	2037/08/10				USD	150000000	O	10		KO	100	W	N
CPOPT	U	2010/04/21	2018/06/13	5356080	623845	USG93404AA23	C	2037/09/10				USD	150000000	O	10		KO	100	W	N
CPOPT	U	2010/04/21	2018/06/13	5356081	623845	USG93404AA23	C	2037/10/10				USD	150000000	O	10		KO	100	W	N
CPOPT	U	2010/04/21	2018/06/13	5356082	623845	USG93404AA23	C	2037/11/10				USD	150000000	O	10		KO	100	W	N
CPOPT	U	2010/04/21	2018/06/13	5356083	623845	USG93404AA23	C	2037/12/10				USD	150000000	O	10		KO	100	W	N
CPOPT	U	2010/04/21	2018/06/13	5356084	623845	USG93404AA23	C	2038/01/10				USD	150000000	O	10		KO	100	W	N
CPOPT	U	2010/04/21	2018/06/13	5356085	623845	USG93404AA23	C	2038/02/10				USD	150000000	O	10		KO	100	W	N
CPOPT	U	2010/04/21	2018/06/13	5356086	623845	USG93404AA23	C	2038/03/10				USD	150000000	O	10		KO	100	W	N
CPOPT	U	2010/04/21	2018/06/13	5356087	623845	USG93404AA23	C	2038/04/10				USD	150000000	O	10		KO	100	W	N
CPOPT	U	2010/04/21	2018/06/13	5356088	623845	USG93404AA23	C	2038/05/10				USD	150000000	O	10		KO	100	W	N
CPOPT	U	2010/04/21	2018/06/13	5356089	623845	USG93404AA23	C	2038/06/10				USD	150000000	O	10		KO	100	W	N
CPOPT	U	2010/04/21	2018/06/13	5356090	623845	USG93404AA23	C	2038/07/10				USD	150000000	O	10		KO	100	W	N
CPOPT	U	2010/04/21	2018/06/13	5356091	623845	USG93404AA23	C	2038/08/10				USD	150000000	O	10		KO	100	W	N
CPOPT	U	2010/04/21	2018/06/13	5356092	623845	USG93404AA23	C	2038/09/10				USD	150000000	O	10		KO	100	W	N
CPOPT	U	2010/04/21	2018/06/13	5356093	623845	USG93404AA23	C	2038/10/10				USD	150000000	O	10		KO	100	W	N
CPOPT	U	2010/04/21	2018/06/13	5356094	623845	USG93404AA23	C	2038/11/10				USD	150000000	O	10		KO	100	W	N
CPOPT	U	2010/04/21	2018/06/13	5356095	623845	USG93404AA23	C	2038/12/10				USD	150000000	O	10		KO	100	W	N
CPOPT	U	2010/04/21	2018/06/13	5356096	623845	USG93404AA23	C	2039/01/10				USD	150000000	O	10		KO	100	W	N
CPOPT	U	2010/04/21	2018/06/13	5356097	623845	USG93404AA23	C	2039/02/10				USD	150000000	O	10		KO	100	W	N
CPOPT	U	2010/04/21	2018/06/13	5356098	623845	USG93404AA23	C	2039/03/10				USD	150000000	O	10		KO	100	W	N
CPOPT	U	2010/04/21	2018/06/13	5356099	623845	USG93404AA23	C	2039/04/10				USD	150000000	O	10		KO	100	W	N
CPOPT	U	2010/04/21	2018/06/13	5356100	623845	USG93404AA23	C	2039/05/10				USD	150000000	O	10		KO	100	W	N
CPOPT	U	2010/04/21	2018/06/13	5356101	623845	USG93404AA23	C	2039/06/10				USD	150000000	O	10		KO	100	W	N
CPOPT	U	2010/04/21	2018/06/13	5356102	623845	USG93404AA23	C	2039/07/10				USD	150000000	O	10		KO	100	W	N
CPOPT	U	2010/04/21	2018/06/13	5356103	623845	USG93404AA23	C	2039/08/10				USD	150000000	O	10		KO	100	W	N
CPOPT	U	2010/04/21	2018/06/13	5356104	623845	USG93404AA23	C	2039/09/10				USD	150000000	O	10		KO	100	W	N
CPOPT	U	2010/04/21	2018/06/13	5356105	623845	USG93404AA23	C	2039/10/10				USD	150000000	O	10		KO	100	W	N
CPOPT	U	2010/04/21	2018/06/13	5356106	623845	USG93404AA23	C	2039/11/10				USD	150000000	O	10		KO	100	W	N
CPOPT	U	2010/04/21	2018/06/13	5356107	623845	USG93404AA23	C	2039/12/10				USD	150000000	O	10		KO	100	W	N
CPOPT	U	2010/04/21	2018/06/13	5356108	623845	USG93404AA23	C	2040/01/10				USD	150000000	O	10		KO	100	W	N
CPOPT	U	2010/04/21	2018/06/13	5356109	623845	USG93404AA23	C	2040/02/10				USD	150000000	O	10		KO	100	W	N
CPOPT	U	2010/04/21	2018/06/13	5356110	623845	USG93404AA23	C	2040/03/10				USD	150000000	O	10		KO	100	W	N
CPOPT	U	2010/04/21	2018/06/13	5356111	623845	USG93404AA23	C	2040/04/10				USD	150000000	O	10		KO	100	W	N
CPOPT	U	2010/04/21	2018/06/13	5356112	623845	USG93404AA23	C	2040/05/10				USD	150000000	O	10		KO	100	W	N
CPOPT	U	2010/04/21	2018/06/13	5356113	623845	USG93404AA23	C	2040/06/10				USD	150000000	O	10		KO	100	W	N
CPOPT	U	2010/04/21	2018/06/13	5356114	623845	USG93404AA23	C	2040/07/10				USD	150000000	O	10		KO	100	W	N
CPOPT	U	2010/04/21	2018/06/13	5356115	623845	USG93404AA23	C	2040/08/10				USD	150000000	O	10		KO	100	W	N
CPOPT	U	2010/04/21	2018/06/13	5356116	623845	USG93404AA23	C	2040/09/10				USD	150000000	O	10		KO	100	W	N
CPOPT	U	2010/04/21	2018/06/13	5356117	623845	USG93404AA23	C	2040/10/10				USD	150000000	O	10		KO	100	W	N
CPOPT	U	2010/04/21	2018/06/13	5356118	623845	USG93404AA23	C	2040/11/10				USD	150000000	O	10		KO	100	W	N
CPOPT	U	2010/04/21	2018/06/13	5356119	623845	USG93404AA23	C	2040/12/10				USD	150000000	O	10		KO	100	W	N
CPOPT	U	2010/04/21	2018/06/13	5356120	623845	USG93404AA23	C	2041/01/10				USD	150000000	O	10		KO	100	W	N
CPOPT	U	2010/04/21	2018/06/13	5356121	623845	USG93404AA23	C	2041/02/10				USD	150000000	O	10		KO	100	W	N
CPOPT	U	2010/04/21	2018/06/13	5356122	623845	USG93404AA23	C	2041/03/10				USD	150000000	O	10		KO	100	W	N
CPOPT	U	2010/04/21	2018/06/13	5356123	623845	USG93404AA23	C	2041/04/10				USD	150000000	O	10		KO	100	W	N
CPOPT	U	2010/04/21	2018/06/13	5356124	623845	USG93404AA23	C	2041/05/10				USD	150000000	O	10		KO	100	W	N
CPOPT	U	2010/04/21	2018/06/13	5356125	623845	USG93404AA23	C	2041/06/10				USD	150000000	O	10		KO	100	W	N
CPOPT	U	2010/04/21	2018/06/13	5356126	623845	USG93404AA23	C	2041/07/10				USD	150000000	O	10		KO	100	W	N
CPOPT	U	2010/04/21	2018/06/13	5356127	623845	USG93404AA23	C	2041/08/10				USD	150000000	O	10		KO	100	W	N
CPOPT	U	2010/04/21	2018/06/13	5356128	623845	USG93404AA23	C	2041/09/10				USD	150000000	O	10		KO	100	W	N
CPOPT	U	2010/04/21	2018/06/13	5356129	623845	USG93404AA23	C	2041/10/10				USD	150000000	O	10		KO	100	W	N
CPOPT	U	2010/04/21	2018/06/13	5356130	623845	USG93404AA23	C	2041/11/10				USD	150000000	O	10		KO	100	W	N
CPOPT	U	2010/04/21	2018/06/13	5356131	623845	USG93404AA23	C	2041/12/10				USD	150000000	O	10		KO	100	W	N
CPOPT	U	2010/04/21	2018/06/13	5356132	623845	USG93404AA23	C	2042/01/10				USD	150000000	O	10		KO	100	W	N
CPOPT	U	2010/04/21	2018/06/13	5356133	623845	USG93404AA23	C	2042/02/10				USD	150000000	O	10		KO	100	W	N
CPOPT	U	2010/04/21	2018/06/13	5356134	623845	USG93404AA23	C	2042/03/10				USD	150000000	O	10		KO	100	W	N
CPOPT	U	2010/04/21	2018/06/13	5356135	623845	USG93404AA23	C	2042/04/10				USD	150000000	O	10		KO	100	W	N
CPOPT	U	2010/04/21	2018/06/13	5356136	623845	USG93404AA23	C	2042/05/10				USD	150000000	O	10		KO	100	W	N
CPOPT	U	2010/04/21	2018/06/13	5356137	623845	USG93404AA23	C	2042/06/10				USD	150000000	O	10		KO	100	W	N
CPOPT	U	2010/04/21	2018/06/13	5356138	623845	USG93404AA23	C	2042/07/10				USD	150000000	O	10		KO	100	W	N
CPOPT	U	2010/04/21	2018/06/13	5356139	623845	USG93404AA23	C	2042/08/10				USD	150000000	O	10		KO	100	W	N
CPOPT	U	2010/04/21	2018/06/13	5356140	623845	USG93404AA23	C	2042/09/10				USD	150000000	O	10		KO	100	W	N
CPOPT	U	2010/04/21	2018/06/13	5356141	623845	USG93404AA23	C	2042/10/10				USD	150000000	O	10		KO	100	W	N
CPOPT	U	2010/04/21	2018/06/13	5356142	623845	USG93404AA23	C	2042/11/10				USD	150000000	O	10		KO	100	W	N
CPOPT	U	2010/04/21	2018/06/13	5356143	623845	USG93404AA23	C	2042/12/10				USD	150000000	O	10		KO	100	W	N
CPOPT	U	2010/04/21	2018/06/13	5356144	623845	USG93404AA23	C	2043/01/10				USD	150000000	O	10		KO	100	W	N
CPOPT	U	2010/04/21	2018/06/13	5356145	623845	USG93404AA23	C	2043/02/10				USD	150000000	O	10		KO	100	W	N
CPOPT	U	2010/04/21	2018/06/13	5356146	623845	USG93404AA23	C	2043/03/10				USD	150000000	O	10		KO	100	W	N
CPOPT	U	2010/04/21	2018/06/13	5356147	623845	USG93404AA23	C	2043/04/10				USD	150000000	O	10		KO	100	W	N
CPOPT	U	2010/04/21	2018/06/13	5356148	623845	USG93404AA23	C	2043/05/10				USD	150000000	O	10		KO	100	W	N
CPOPT	U	2010/04/21	2018/06/13	5356149	623845	USG93404AA23	C	2043/06/10				USD	150000000	O	10		KO	100	W	N
CPOPT	U	2010/04/21	2018/06/13	5356150	623845	USG93404AA23	C	2043/07/10				USD	150000000	O	10		KO	100	W	N
CPOPT	U	2010/04/21	2018/06/13	5356151	623845	USG93404AA23	C	2043/08/10				USD	150000000	O	10		KO	100	W	N
CPOPT	U	2010/04/21	2018/06/13	5356152	623845	USG93404AA23	C	2043/09/10				USD	150000000	O	10		KO	100	W	N
CPOPT	U	2010/04/21	2018/06/13	5356153	623845	USG93404AA23	C	2043/10/10				USD	150000000	O	10		KO	100	W	N
CPOPT	U	2010/04/21	2018/06/13	5356154	623845	USG93404AA23	C	2043/11/10				USD	150000000	O	10		KO	100	W	N
CPOPT	U	2010/04/21	2018/06/13	5356155	623845	USG93404AA23	C	2043/12/10				USD	150000000	O	10		KO	100	W	N
CPOPT	U	2010/04/21	2018/06/13	5356156	623845	USG93404AA23	C	2044/01/10				USD	150000000	O	10		KO	100	W	N
CPOPT	U	2010/04/21	2018/06/13	5356157	623845	USG93404AA23	C	2044/02/10				USD	150000000	O	10		KO	100	W	N
CPOPT	U	2010/04/21	2018/06/13	5356158	623845	USG93404AA23	C	2044/03/10				USD	150000000	O	10		KO	100	W	N
CPOPT	U	2010/04/21	2018/06/13	5356159	623845	USG93404AA23	C	2044/04/10				USD	150000000	O	10		KO	100	W	N
CPOPT	U	2010/04/21	2018/06/13	5356160	623845	USG93404AA23	C	2044/05/10				USD	150000000	O	10		KO	100	W	N
CPOPT	U	2010/04/21	2018/06/13	5356161	623845	USG93404AA23	C	2044/06/10				USD	150000000	O	10		KO	100	W	N
CPOPT	U	2010/04/21	2018/06/13	5356162	623845	USG93404AA23	C	2044/07/10				USD	150000000	O	10		KO	100	W	N
CPOPT	U	2010/04/21	2018/06/13	5356163	623845	USG93404AA23	C	2044/08/10				USD	150000000	O	10		KO	100	W	N
CPOPT	U	2010/04/21	2018/06/13	5356164	623845	USG93404AA23	C	2044/09/10				USD	150000000	O	10		KO	100	W	N
CPOPT	U	2010/04/21	2018/06/13	5356165	623845	USG93404AA23	C	2044/10/10				USD	150000000	O	10		KO	100	W	N
CPOPT	U	2010/04/21	2018/06/13	5356166	623845	USG93404AA23	C	2044/11/10				USD	150000000	O	10		KO	100	W	N
CPOPT	U	2010/04/21	2018/06/13	5356167	623845	USG93404AA23	C	2044/12/10				USD	150000000	O	10		KO	100	W	N
CPOPT	U	2010/04/21	2018/06/13	5356168	623845	USG93404AA23	C	2045/01/10				USD	150000000	O	10		KO	100	W	N
CPOPT	U	2010/04/21	2018/06/13	5356169	623845	USG93404AA23	C	2045/02/10				USD	150000000	O	10		KO	100	W	N
CPOPT	U	2010/04/21	2018/06/13	5356170	623845	USG93404AA23	C	2045/03/10				USD	150000000	O	10		KO	100	W	N
CPOPT	U	2010/04/21	2018/06/13	5356171	623845	USG93404AA23	C	2045/04/10				USD	150000000	O	10		KO	100	W	N
CPOPT	U	2010/04/21	2018/06/13	5356172	623845	USG93404AA23	C	2045/05/10				USD	150000000	O	10		KO	100	W	N
CPOPT	U	2010/04/21	2018/06/13	5356173	623845	USG93404AA23	C	2045/06/10				USD	150000000	O	10		KO	100	W	N
CPOPT	U	2010/04/21	2018/06/13	5356174	623845	USG93404AA23	C	2045/07/10				USD	150000000	O	10		KO	100	W	N
CPOPT	U	2010/04/21	2018/06/13	5356175	623845	USG93404AA23	C	2045/08/10				USD	150000000	O	10		KO	100	W	N
CPOPT	U	2010/04/21	2018/06/13	5356176	623845	USG93404AA23	C	2045/09/10				USD	150000000	O	10		KO	100	W	N
CPOPT	U	2010/04/21	2018/06/13	5356177	623845	USG93404AA23	C	2045/10/10				USD	150000000	O	10		KO	100	W	N
CPOPT	U	2010/04/21	2018/06/13	5356178	623845	USG93404AA23	C	2045/11/10				USD	150000000	O	10		KO	100	W	N
CPOPT	U	2010/04/21	2018/06/13	5356179	623845	USG93404AA23	C	2045/12/10				USD	150000000	O	10		KO	100	W	N
CPOPT	U	2010/04/21	2018/06/13	5356180	623845	USG93404AA23	C	2046/01/10				USD	150000000	O	10		KO	100	W	N
CPOPT	U	2010/04/21	2018/06/13	5356181	623845	USG93404AA23	C	2046/02/10				USD	150000000	O	10		KO	100	W	N
CPOPT	U	2010/04/21	2018/06/13	5356182	623845	USG93404AA23	C	2046/03/10				USD	150000000	O	10		KO	100	W	N
CPOPT	U	2010/04/21	2018/06/13	5356183	623845	USG93404AA23	C	2046/04/10				USD	150000000	O	10		KO	100	W	N
CPOPT	U	2010/04/21	2018/06/13	5356184	623845	USG93404AA23	C	2046/05/10				USD	150000000	O	10		KO	100	W	N
CPOPT	U	2010/04/21	2018/06/13	5356185	623845	USG93404AA23	C	2046/06/10				USD	150000000	O	10		KO	100	W	N
CPOPT	U	2010/04/21	2018/06/13	5356186	623845	USG93404AA23	C	2046/07/10				USD	150000000	O	10		KO	100	W	N
CPOPT	U	2010/04/21	2018/06/13	5356187	623845	USG93404AA23	C	2046/08/10				USD	150000000	O	10		KO	100	W	N
CPOPT	U	2010/04/21	2018/06/13	5356188	623845	USG93404AA23	C	2046/09/10				USD	150000000	O	10		KO	100	W	N
CPOPT	U	2010/04/21	2018/06/13	5356189	623845	USG93404AA23	C	2046/10/10				USD	150000000	O	10		KO	100	W	N
CPOPT	U	2010/04/21	2018/06/13	5356190	623845	USG93404AA23	C	2046/11/10				USD	150000000	O	10		KO	100	W	N
CPOPT	U	2010/04/21	2018/06/13	5356191	623845	USG93404AA23	C	2046/12/10				USD	150000000	O	10		KO	100	W	N
CPOPT	U	2010/04/21	2018/06/13	5356192	623845	USG93404AA23	C	2047/01/10				USD	150000000	O	10		KO	100	W	N
CPOPT	U	2010/04/21	2018/06/13	5356193	623845	USG93404AA23	C	2047/02/10				USD	150000000	O	10		KO	100	W	N
CPOPT	U	2010/04/21	2018/06/13	5356194	623845	USG93404AA23	C	2047/03/10				USD	150000000	O	10		KO	100	W	N
CPOPT	U	2007/11/12	2018/06/13	775455	717398	US65334HAG74	C	2007/05/05	2037/05/14			USD		O	30	60	MWC			
CPOPT	U	2007/11/12	2018/06/13	775455	717398	US65334HAG74	C	2007/05/05	2037/05/14			USD		O	30	60	MWC			
CPOPT	U	2007/11/24	2018/06/13	819505	725444	US437410AA14	C	2001/12/08	2019/09/30			USD		O			MWC			
CPOPT	U	2007/11/24	2018/06/13	819505	725444	US437410AA14	C	2001/12/08	2019/09/30			USD		O			MWC			
CPOPT	U	2008/07/30	2018/06/13	1555331	1074118	US98389BAH33	C	2006/06/10	2036/06/30			USD		O	30		MWC		B	Y
CPOPT	U	2008/07/30	2018/06/13	1555331	1074118	US98389BAH33	C	2006/06/10	2036/06/30			USD		O	30		MWC		B	Y
CPOPT	U	2008/08/02	2018/06/13	1599657	1094061	US98385XAQ97	C	2008/04/19	2038/06/14			USD		O	30	60	MWC		B	Y
CPOPT	U	2008/08/02	2018/06/13	1599657	1094061	US98385XAQ97	C	2008/04/19	2038/06/14			USD		O	30	60	MWC		B	Y
CPOPT	U	2015/02/25	2018/06/13	9355606	1114021	US694476AA03	C	2003/09/09	2033/09/14			USD		O			MWC			
CPOPT	U	2015/03/25	2018/06/13	9392986	1288879	US88031VAA70	C	2007/06/05	2023/12/29			USD		O			MWC			
CPOPT	U	2009/08/05	2018/06/13	2625587	1289620	US98385XAT37	C	2008/08/08	2018/12/14			USD		O	30	60	MWC		B	Y
CPOPT	U	2009/08/05	2018/06/13	2625587	1289620	US98385XAT37	C	2008/08/08	2018/12/14			USD		O	30	60	MWC		B	Y
CPOPT	U	2015/02/23	2018/06/13	9353640	1470252	US694475AA20	C	2009/06/20	2039/06/14			USD		O			MWC		P	Y
CPOPT	U	2015/02/23	2018/06/13	9353640	1470252	US694475AA20	C	2009/06/20	2039/06/14			USD		O			MWC		P	Y
CPOPT	U	2009/10/29	2018/06/13	3432968	1636641	US95709TAF75	C	2005/07/01	2020/07/14			USD		O			MWC		B	Y
CPOPT	U	2012/03/28	2018/06/13	7257027	2232940	US959802AL36	C	2010/10/06	2020/03/31			USD		O	30	60	MWC		B	Y
CPOPT	U	2012/03/28	2018/06/13	7257027	2232940	US959802AL36	C	2010/10/06	2020/03/31			USD		O	30	60	MWC		B	Y
CPOPT	U	2011/02/15	2018/06/13	6566070	2448632	USU5324RAD71	C	2011/01/20	2041/01/18			USD		O			MWC			
CPOPT	U	2011/07/26	2018/06/13	6888865	2874865	USU14178DU50	C	2011/05/17	2021/05/13			USD		O			MWC			
CPOPT	U	2012/05/11	2018/06/13	7437626	3355334	USU15149AD65	C	2011/12/22	2034/01/09			USD		O			MWC			
CPOPT	U	2013/04/23	2018/06/13	8279840	4016711	USN2823BBD21	C	2013/04/18	2023/04/16			USD		O			MWC			
CPOPT	U	2015/01/14	2018/06/13	9308280	4104464	US43475DAA54	C	2013/09/13	2043/09/11			USD		O			MWC			Y
CPOPT	U	2014/02/21	2018/06/13	8803032	4115212	USG0457FAD99	C	2013/09/28	2023/09/26			USD		O	30	60	MWC		B	Y
CPOPT	U	2014/03/08	2018/06/13	8821151	4215105	US983919AG66	C	2014/03/13	2019/03/14			USD		O	30	60	MWC		B	Y
CPOPT	U	2014/03/08	2018/06/13	8821152	4215112	US983919AH40	C	2014/03/13	2021/03/14			USD		O	30	60	MWC		B	Y
CPOPT	U	2014/06/14	2018/06/13	8999641	4288346	US714264AE84	C	2011/10/26	2022/01/14			USD		O			MWC			
CPOPT	U	2014/07/23	2018/06/13	9039680	4313685	USU52932AX57	C	2014/07/25	2044/07/31			USD		O			MWC			
CPOPT	U	2009/10/29	2018/06/13	3432968	1636641	US95709TAF75	C	2005/07/01	2020/07/14			USD		O			MWC		B	Y
CPOPT	U	2015/01/14	2018/06/13	9308280	4104464	US43475DAA54	C	2013/09/13	2043/09/11			USD		O			MWC			Y
CPOPT	U	2015/02/25	2018/06/13	9355300	4452171	US233851BR47	C	2015/03/03	2020/03/01			USD		O			MWC			
CPOPT	U	2015/02/23	2018/06/13	9353640	1470252	US694475AA20	C	2009/06/20	2039/06/14			USD		O			MWC		P	Y
CPOPT	U	2015/02/25	2018/06/13	9355606	1114021	US694476AA03	C	2003/09/09	2033/09/14			USD		O			MWC			
CPOPT	U	2013/04/23	2018/06/13	8279840	4016711	USN2823BBD21	C	2013/04/18	2023/04/16			USD		O			MWC			
CPOPT	U	2015/03/25	2018/06/13	9392986	1288879	US88031VAA70	C	2007/06/05	2023/12/29			USD		O			MWC			
CPOPT	U	2011/02/15	2018/06/13	6566070	2448632	USU5324RAD71	C	2011/01/20	2041/01/18			USD		O			MWC			
CPOPT	U	2007/11/24	2018/06/13	819505	725444	US437410AA14	C	2001/12/08	2019/09/30			USD		O			MWC			
CPOPT	U	2015/10/22	2018/06/13	9624133	4497770	USU98737AB20	C	2015/04/30	2022/04/28			USD		O			MWC			
CPOPT	U	2015/10/22	2018/06/13	9624133	4497770	USU98737AB20	C	2015/04/30	2022/04/28			USD		O			MWC			
CPOPT	U	2014/02/21	2018/06/13	8803032	4115212	USG0457FAD99	C	2013/09/28	2023/09/26			USD		O	30	60	MWC		B	Y
CPOPT	U	2007/11/12	2018/06/13	775455	717398	US65334HAG74	C	2007/05/05	2037/05/14			USD		O	30	60	MWC			
CPOPT	U	2015/07/17	2018/06/13	9506690	4551315	XS1255387976	C	2015/07/07	2018/12/27			USD		O	30	60	MWC		W	Y
CPOPT	U	2009/10/29	2018/06/13	3432968	1636641	US95709TAF75	C	2005/07/01	2020/07/14			USD		O			MWC		B	Y
CPOPT	U	2008/08/02	2018/06/13	1599657	1094061	US98385XAQ97	C	2008/04/19	2038/06/14			USD		O	30	60	MWC		B	Y
CPOPT	U	2009/08/05	2018/06/13	2625587	1289620	US98385XAT37	C	2008/08/08	2018/12/14			USD		O	30	60	MWC		B	Y
CPOPT	U	2008/07/30	2018/06/13	1555331	1074118	US98389BAH33	C	2006/06/10	2036/06/30			USD		O	30		MWC		B	Y
CPOPT	U	2014/03/08	2018/06/13	8821151	4215105	US983919AG66	C	2014/03/13	2019/03/14			USD		O	30	60	MWC		B	Y
CPOPT	U	2014/03/08	2018/06/13	8821152	4215112	US983919AH40	C	2014/03/13	2021/03/14			USD		O	30	60	MWC		B	Y
CPOPT	U	2012/03/28	2018/06/13	7257027	2232940	US959802AL36	C	2010/10/06	2020/03/31			USD		O	30	60	MWC		B	Y
CPOPT	U	2015/10/22	2018/06/13	9624133	4497770	USU98737AB20	C	2015/04/30	2022/04/28			USD		O			MWC			
CPOPT	U	2015/11/13	2018/06/13	9639879	4643414	USY8564WAC74	C	2015/07/16	2020/01/14			USD		O			MWC			
CPOPT	U	2016/09/12	2018/06/13	9871597	4895593	USU09513GU77	C	2016/09/16	2019/09/12			USD		O			MWC			
CPOPT	U	2016/10/28	2018/06/13	9897371	4946458	US233851CM41	C	2016/11/01	2019/10/29			USD		O			MWC			
CPOPT	U	2016/10/28	2018/06/13	9897549	4946465	US233851CK84	C	2016/11/01	2021/10/29			USD		O			MWC			
CPOPT	I	2018/06/13	2018/06/13	10257466	4979120	US22548QPQ28	C	2017/07/03				USD	1000	O			BM	100	W	N
CPOPT	I	2018/06/13	2018/06/13	10257467	4979120	US22548QPQ28	C	2018/01/03				USD	1000	O			BM	100	W	N
CPOPT	I	2018/06/13	2018/06/13	10257468	4979120	US22548QPQ28	C	2018/07/03				USD	1000	O			BM	100	W	N
CPOPT	I	2018/06/13	2018/06/13	10257469	4979120	US22548QPQ28	C	2019/01/03				USD	1000	O			BM	100	W	N
CPOPT	I	2018/06/13	2018/06/13	10257470	4979120	US22548QPQ28	C	2019/07/03				USD	1000	O			BM	100	W	N
CPOPT	I	2018/06/13	2018/06/13	10257484	5048788	US22549JEP12	C	2017/03/17				USD	1000	O			KO	100	W	N
CPOPT	I	2018/06/13	2018/06/13	10257485	5048788	US22549JEP12	C	2017/04/17				USD	1000	O			KO	100	W	N
CPOPT	I	2018/06/13	2018/06/13	10257486	5048788	US22549JEP12	C	2017/05/17				USD	1000	O			KO	100	W	N
CPOPT	I	2018/06/13	2018/06/13	10257487	5048788	US22549JEP12	C	2017/06/19				USD	1000	O			KO	100	W	N
CPOPT	I	2018/06/13	2018/06/13	10257488	5048788	US22549JEP12	C	2017/07/17				USD	1000	O			KO	100	W	N
CPOPT	I	2018/06/13	2018/06/13	10257489	5048788	US22549JEP12	C	2017/08/17				USD	1000	O			KO	100	W	N
CPOPT	I	2018/06/13	2018/06/13	10257490	5048788	US22549JEP12	C	2017/09/18				USD	1000	O			KO	100	W	N
CPOPT	I	2018/06/13	2018/06/13	10257491	5048788	US22549JEP12	C	2017/10/17				USD	1000	O			KO	100	W	N
CPOPT	I	2018/06/13	2018/06/13	10257492	5048788	US22549JEP12	C	2017/11/17				USD	1000	O			KO	100	W	N
CPOPT	I	2018/06/13	2018/06/13	10257493	5048788	US22549JEP12	C	2017/12/18				USD	1000	O			KO	100	W	N
CPOPT	I	2018/06/13	2018/06/13	10257494	5048788	US22549JEP12	C	2018/01/17				USD	1000	O			KO	100	W	N
CPOPT	I	2018/06/13	2018/06/13	10257455	5083617	US22548QWW13	C	2018/03/22				USD	1000	O			KO	100	W	N
CPOPT	U	2017/04/17	2018/06/13	10002565	5104944	USG0446NAL85	C	2017/04/11	2027/04/09			USD		O	30	60	MWC		B	Y
CPOPT	U	2017/04/17	2018/06/13	10002568	5104972	USG0446NAK03	C	2017/04/11	2022/04/09			USD		O	30	60	MWC		B	Y
CPOPT	U	2017/04/17	2018/06/13	10002565	5104944	USG0446NAL85	C	2017/04/11	2027/04/09			USD		O	30	60	MWC		B	Y
CPOPT	U	2017/04/17	2018/06/13	10002568	5104972	USG0446NAK03	C	2017/04/11	2022/04/09			USD		O	30	60	MWC		B	Y
CPOPT	I	2018/06/13	2018/06/13	10257466	4979120	US22548QPQ28	C	2017/07/03				USD	1000	O			BM	100	W	N
CPOPT	I	2018/06/13	2018/06/13	10257467	4979120	US22548QPQ28	C	2018/01/03				USD	1000	O			BM	100	W	N
CPOPT	I	2018/06/13	2018/06/13	10257468	4979120	US22548QPQ28	C	2018/07/03				USD	1000	O			BM	100	W	N
CPOPT	I	2018/06/13	2018/06/13	10257469	4979120	US22548QPQ28	C	2019/01/03				USD	1000	O			BM	100	W	N
CPOPT	I	2018/06/13	2018/06/13	10257470	4979120	US22548QPQ28	C	2019/07/03				USD	1000	O			BM	100	W	N
CPOPT	I	2018/06/13	2018/06/13	10257471	5198578	US22550BCP67	C	2018/01/11				USD	1000	O			BM	100	W	N
CPOPT	I	2018/06/13	2018/06/13	10257472	5198578	US22550BCP67	C	2018/07/11				USD	1000	O			BM	100	W	N
CPOPT	I	2018/06/13	2018/06/13	10257473	5198578	US22550BCP67	C	2019/01/11				USD	1000	O			BM	100	W	N
CPOPT	I	2018/06/13	2018/06/13	10257474	5198578	US22550BCP67	C	2019/07/11				USD	1000	O			BM	100	W	N
CPOPT	I	2018/06/13	2018/06/13	10257475	5198578	US22550BCP67	C	2020/01/13				USD	1000	O			BM	100	W	N
CPOPT	I	2018/06/13	2018/06/13	10257476	5198578	US22550BCP67	C	2020/07/13				USD	1000	O			BM	100	W	N
CPOPT	I	2018/06/13	2018/06/13	10257481	5198613	US22550BCQ41	C	2018/01/12				USD	1000	O			KO	100	W	N
CPOPT	I	2018/06/13	2018/06/13	10257482	5198613	US22550BCQ41	C	2018/04/12				USD	1000	O			KO	100	W	N
CPOPT	I	2018/06/13	2018/06/13	10257483	5198613	US22550BCQ41	C	2018/07/12				USD	1000	O			KO	100	W	N
CPOPT	I	2018/06/13	2018/06/13	10257478	5207329	US22550BD679	C	2018/01/18				USD	1000	O			KO	100	W	N
CPOPT	I	2018/06/13	2018/06/13	10257479	5207329	US22550BD679	C	2018/07/18				USD	1000	O			KO	100	W	N
CPOPT	I	2018/06/13	2018/06/13	10257457	5230678	US22550BF401	C	2018/02/09				USD	1000	O			KO	100	W	N
CPOPT	I	2018/06/13	2018/06/13	10257458	5230678	US22550BF401	C	2018/05/09				USD	1000	O			KO	100	W	N
CPOPT	I	2018/06/13	2018/06/13	10257459	5230678	US22550BF401	C	2018/08/09				USD	1000	O			KO	100	W	N
CPOPT	U	2017/11/23	2018/06/13	10164722	5305154	US059501AC06	C	2022/07/24	2022/10/23			USD	500000000	O	30	60	US	100	B	N
CPOPT	I	2018/06/13	2018/06/13	10257215	5414763	US48125LRL89	C	2020/02/01	2021/01/31			USD	250000	O			US	100		N
CPOPT	I	2018/06/13	2018/06/13	10257215	5414763	US48125LRL89	C	2020/02/01	2021/01/31			USD	250000	O			US	100		N
CPOPT	I	2018/06/13	2018/06/13	10257217	5425897	US48125LRM62	C	2019/02/13	2020/02/12			USD		O			US	100		N
CPOPT	U	2018/04/30	2018/06/13	10236035	5516703	US48126XH731	C	2018/03/31				USD		O			BM	100		N
CPOPT	I	2018/06/13	2018/06/13	10257218	5516703	US48126XH731	C	2018/06/30				USD		O			BM	100		N
CPOPT	I	2018/06/13	2018/06/13	10257219	5516703	US48126XH731	C	2018/09/30				USD		O			BM	100		N
CPOPT	I	2018/06/13	2018/06/13	10257220	5516703	US48126XH731	C	2018/12/31				USD		O			BM	100		N
CPOPT	I	2018/06/13	2018/06/13	10257221	5516703	US48126XH731	C	2019/03/31				USD		O			BM	100		N
CPOPT	I	2018/06/13	2018/06/13	10257222	5516703	US48126XH731	C	2019/06/30				USD		O			BM	100		N
CPOPT	I	2018/06/13	2018/06/13	10257223	5516703	US48126XH731	C	2019/09/30				USD		O			BM	100		N
CPOPT	I	2018/06/13	2018/06/13	10257224	5516703	US48126XH731	C	2019/12/31				USD		O			BM	100		N
CPOPT	I	2018/06/13	2018/06/13	10257225	5516703	US48126XH731	C	2020/03/31				USD		O			BM	100		N
CPOPT	I	2018/06/13	2018/06/13	10257226	5516703	US48126XH731	C	2020/06/30				USD		O			BM	100		N
CPOPT	I	2018/06/13	2018/06/13	10257227	5516703	US48126XH731	C	2020/09/30				USD		O			BM	100		N
CPOPT	I	2018/06/13	2018/06/13	10257228	5516703	US48126XH731	C	2020/12/31				USD		O			BM	100		N
CPOPT	U	2018/05/30	2018/06/13	10249315	5552135	US3130AEE894	C	2019/06/12	2028/06/11			USD	10000	O	5		US	100	B	N
CPOPT	U	2018/05/31	2018/06/13	10250138	5553719	US3130AEEK27	C	2019/06/12	2020/06/11			USD	10000	O	5		US	100	B	N
CPOPT	U	2018/06/05	2018/06/13	10253168	5559842	US14912HUL22	C	2019/06/15				USD	1000	O	30		BM	100	W	N
CPOPT	U	2018/06/05	2018/06/13	10253169	5559842	US14912HUL22	C	2019/12/15				USD	1000	O	30		BM	100	W	N
CPOPT	U	2018/06/05	2018/06/13	10253171	5559858	US14912HUM05	C	2019/06/15				USD	1000	O	30		BM	100	W	N
CPOPT	U	2018/06/05	2018/06/13	10253172	5559858	US14912HUM05	C	2019/12/15				USD	1000	O	30		BM	100	W	N
CPOPT	U	2018/06/05	2018/06/13	10253173	5559858	US14912HUM05	C	2020/06/15				USD	1000	O	30		BM	100	W	N
CPOPT	U	2018/06/05	2018/06/13	10253174	5559858	US14912HUM05	C	2020/12/15				USD	1000	O	30		BM	100	W	N
CPOPT	U	2018/06/05	2018/06/13	10253175	5559858	US14912HUM05	C	2021/06/15				USD	1000	O	30		BM	100	W	N
CPOPT	U	2018/06/05	2018/06/13	10253176	5559858	US14912HUM05	C	2021/12/15				USD	1000	O	30		BM	100	W	N
CPOPT	U	2018/06/05	2018/06/13	10253177	5559858	US14912HUM05	C	2022/06/15				USD	1000	O	30		BM	100	W	N
CPOPT	U	2018/06/05	2018/06/13	10253178	5559858	US14912HUM05	C	2022/12/15				USD	1000	O	30		BM	100	W	N
CPOPT	U	2018/06/06	2018/06/13	10253612	5560698	US3130AEFF23	C	2018/12/12	2023/06/11			USD	10000	O	5		US	100	B	N
CPOPT	I	2018/06/13	2018/06/13	10257268	5562797	US038923AD09	C	2018/05/02	2023/03/31			USD		O			MWC			Y
CPOPT	I	2018/06/13	2018/06/13	10257269	5562797	US038923AD09	C	2023/04/01	2023/04/30			USD		O			US	100		N
CPOPT	U	2018/06/08	2018/06/13	10255457	5564060	US3130AEFS44	C	2019/06/12	2028/06/11			USD	10000	O	5		US	100	B	N
CPOPT	U	2018/06/08	2018/06/13	10255455	5564054	US3130AEFR60	C	2020/06/12	2025/06/11			USD	10000	O	5		US	100	B	N
CPOPT	U	2018/06/05	2018/06/13	10253168	5559842	US14912HUL22	C	2019/06/15				USD	1000	O	30		BM	100	W	N
CPOPT	U	2018/06/05	2018/06/13	10253169	5559842	US14912HUL22	C	2019/12/15				USD	1000	O	30		BM	100	W	N
CPOPT	U	2018/06/05	2018/06/13	10253171	5559858	US14912HUM05	C	2019/06/15				USD	1000	O	30		BM	100	W	N
CPOPT	U	2018/06/05	2018/06/13	10253172	5559858	US14912HUM05	C	2019/12/15				USD	1000	O	30		BM	100	W	N
CPOPT	U	2018/06/05	2018/06/13	10253173	5559858	US14912HUM05	C	2020/06/15				USD	1000	O	30		BM	100	W	N
CPOPT	U	2018/06/05	2018/06/13	10253174	5559858	US14912HUM05	C	2020/12/15				USD	1000	O	30		BM	100	W	N
CPOPT	U	2018/06/05	2018/06/13	10253175	5559858	US14912HUM05	C	2021/06/15				USD	1000	O	30		BM	100	W	N
CPOPT	U	2018/06/05	2018/06/13	10253176	5559858	US14912HUM05	C	2021/12/15				USD	1000	O	30		BM	100	W	N
CPOPT	U	2018/06/05	2018/06/13	10253177	5559858	US14912HUM05	C	2022/06/15				USD	1000	O	30		BM	100	W	N
CPOPT	U	2018/06/05	2018/06/13	10253178	5559858	US14912HUM05	C	2022/12/15				USD	1000	O	30		BM	100	W	N
CPOPT	I	2018/06/13	2018/06/13	10257440	5567197	US38150A7J85	C	2018/12/12				USD	1000	O	5		BM	100	W	N
CPOPT	I	2018/06/13	2018/06/13	10257441	5567197	US38150A7J85	C	2019/03/12				USD	1000	O	5		BM	100	W	N
CPOPT	I	2018/06/13	2018/06/13	10257442	5567197	US38150A7J85	C	2019/06/12				USD	1000	O	5		BM	100	W	N
CPOPT	I	2018/06/13	2018/06/13	10257443	5567197	US38150A7J85	C	2019/09/12				USD	1000	O	5		BM	100	W	N
CPOPT	I	2018/06/13	2018/06/13	10257444	5567197	US38150A7J85	C	2019/12/12				USD	1000	O	5		BM	100	W	N
CPOPT	U	2018/06/12	2018/06/13	10256816	5568706	US75968N3098	C	2023/06/30				USD	25	O	30	60	US	100	B	N
CPOPT	U	2018/06/12	2018/06/13	10256816	5568706	US75968N3098	C	2023/06/30				USD	25	O	30	60	US	100	B	N
CPOPT	I	2018/06/13	2018/06/13	10257287	5568725	US3134GSQB44	C	2019/06/28				USD	1000	O	5	60	BM	100	B	N
CPOPT	I	2018/06/13	2018/06/13	10257288	5568725	US3134GSQB44	C	2019/09/28				USD	1000	O	5	60	BM	100	B	N
CPOPT	I	2018/06/13	2018/06/13	10257289	5568725	US3134GSQB44	C	2019/12/28				USD	1000	O	5	60	BM	100	B	N
CPOPT	I	2018/06/13	2018/06/13	10257290	5568725	US3134GSQB44	C	2020/03/28				USD	1000	O	5	60	BM	100	B	N
CPOPT	I	2018/06/13	2018/06/13	10257291	5568725	US3134GSQB44	C	2020/06/28				USD	1000	O	5	60	BM	100	B	N
CPOPT	I	2018/06/13	2018/06/13	10257292	5568725	US3134GSQB44	C	2020/09/28				USD	1000	O	5	60	BM	100	B	N
CPOPT	I	2018/06/13	2018/06/13	10257293	5568725	US3134GSQB44	C	2020/12/28				USD	1000	O	5	60	BM	100	B	N
CPOPT	I	2018/06/13	2018/06/13	10257294	5568725	US3134GSQB44	C	2021/03/28				USD	1000	O	5	60	BM	100	B	N
CPOPT	I	2018/06/13	2018/06/13	10257295	5568725	US3134GSQB44	C	2021/06/28				USD	1000	O	5	60	BM	100	B	N
CPOPT	I	2018/06/13	2018/06/13	10257296	5568725	US3134GSQB44	C	2021/09/28				USD	1000	O	5	60	BM	100	B	N
CPOPT	I	2018/06/13	2018/06/13	10257297	5568725	US3134GSQB44	C	2021/12/28				USD	1000	O	5	60	BM	100	B	N
CPOPT	I	2018/06/13	2018/06/13	10257298	5568725	US3134GSQB44	C	2022/03/28				USD	1000	O	5	60	BM	100	B	N
CPOPT	I	2018/06/13	2018/06/13	10257299	5568725	US3134GSQB44	C	2022/06/28				USD	1000	O	5	60	BM	100	B	N
CPOPT	I	2018/06/13	2018/06/13	10257300	5568725	US3134GSQB44	C	2022/09/28				USD	1000	O	5	60	BM	100	B	N
CPOPT	I	2018/06/13	2018/06/13	10257301	5568725	US3134GSQB44	C	2022/12/28				USD	1000	O	5	60	BM	100	B	N
CPOPT	I	2018/06/13	2018/06/13	10257302	5568725	US3134GSQB44	C	2023/03/28				USD	1000	O	5	60	BM	100	B	N
CPOPT	I	2018/06/13	2018/06/13	10257409	5568730	US3134GSQC27	C	2019/06/28				USD	1000	O	5	60	EU	100	B	N
CPOPT	I	2018/06/13	2018/06/13	10257246	5568733	US3134GSQE82	C	2018/09/28				USD	1000	O	5	60	BM	100	B	N
CPOPT	I	2018/06/13	2018/06/13	10257247	5568733	US3134GSQE82	C	2018/12/28				USD	1000	O	5	60	BM	100	B	N
CPOPT	I	2018/06/13	2018/06/13	10257248	5568733	US3134GSQE82	C	2019/03/28				USD	1000	O	5	60	BM	100	B	N
CPOPT	I	2018/06/13	2018/06/13	10257249	5568733	US3134GSQE82	C	2019/06/28				USD	1000	O	5	60	BM	100	B	N
CPOPT	I	2018/06/13	2018/06/13	10257250	5568733	US3134GSQE82	C	2019/09/28				USD	1000	O	5	60	BM	100	B	N
CPOPT	I	2018/06/13	2018/06/13	10257251	5568733	US3134GSQE82	C	2019/12/28				USD	1000	O	5	60	BM	100	B	N
CPOPT	I	2018/06/13	2018/06/13	10257252	5568733	US3134GSQE82	C	2020/03/28				USD	1000	O	5	60	BM	100	B	N
CPOPT	I	2018/06/13	2018/06/13	10257253	5568733	US3134GSQE82	C	2020/06/28				USD	1000	O	5	60	BM	100	B	N
CPOPT	I	2018/06/13	2018/06/13	10257254	5568733	US3134GSQE82	C	2020/09/28				USD	1000	O	5	60	BM	100	B	N
CPOPT	I	2018/06/13	2018/06/13	10257255	5568733	US3134GSQE82	C	2020/12/28				USD	1000	O	5	60	BM	100	B	N
CPOPT	I	2018/06/13	2018/06/13	10257256	5568733	US3134GSQE82	C	2021/03/28				USD	1000	O	5	60	BM	100	B	N
CPOPT	I	2018/06/13	2018/06/13	10257257	5568733	US3134GSQE82	C	2021/06/28				USD	1000	O	5	60	BM	100	B	N
CPOPT	I	2018/06/13	2018/06/13	10257258	5568733	US3134GSQE82	C	2021/09/28				USD	1000	O	5	60	BM	100	B	N
CPOPT	I	2018/06/13	2018/06/13	10257259	5568733	US3134GSQE82	C	2021/12/28				USD	1000	O	5	60	BM	100	B	N
CPOPT	I	2018/06/13	2018/06/13	10257260	5568733	US3134GSQE82	C	2022/03/28				USD	1000	O	5	60	BM	100	B	N
CPOPT	I	2018/06/13	2018/06/13	10257261	5568733	US3134GSQE82	C	2022/06/28				USD	1000	O	5	60	BM	100	B	N
CPOPT	I	2018/06/13	2018/06/13	10257262	5568733	US3134GSQE82	C	2022/09/28				USD	1000	O	5	60	BM	100	B	N
CPOPT	I	2018/06/13	2018/06/13	10257263	5568733	US3134GSQE82	C	2022/12/28				USD	1000	O	5	60	BM	100	B	N
CPOPT	I	2018/06/13	2018/06/13	10257264	5568733	US3134GSQE82	C	2023/03/28				USD	1000	O	5	60	BM	100	B	N
CPOPT	U	2018/06/12	2018/06/13	10256840	5568747	US69351UAV52	C	2018/06/15	2047/12/14			USD		O	10	60	MWC		B	Y
CPOPT	U	2018/06/12	2018/06/13	10256841	5568747	US69351UAV52	C	2047/12/15	2048/06/14			USD	1000	O	10	60	RM	100		N
CPOPT	I	2018/06/13	2018/06/13	10257405	5568763	US3134GSQF57	C	2019/06/28				USD	1000	O	5	60	BM	100	B	N
CPOPT	I	2018/06/13	2018/06/13	10257406	5568763	US3134GSQF57	C	2020/06/28				USD	1000	O	5	60	BM	100	B	N
CPOPT	I	2018/06/13	2018/06/13	10257407	5568763	US3134GSQF57	C	2021/06/28				USD	1000	O	5	60	BM	100	B	N
CPOPT	I	2018/06/13	2018/06/13	10257408	5568763	US3134GSQF57	C	2022/06/28				USD	1000	O	5	60	BM	100	B	N
CPOPT	U	2018/06/12	2018/06/13	10257064	5568859	US46647PAT30	C	2021/06/18				USD	2000	O	5	30	EU	100	W	N
CPOPT	I	2018/06/13	2018/06/13	10257450	5568859	US46647PAT30	C	2022/05/18	2022/06/17			USD	2000	O	5	30	US	100	B	N
CPOPT	U	2018/06/12	2018/06/13	10256918	5568870	US46647PAS56	C	2021/06/18				USD	2000	O	5	30	EU	100	W	N
CPOPT	I	2018/06/13	2018/06/13	10257449	5568870	US46647PAS56	C	2022/05/18	2022/06/17			USD	2000	O	5	30	RM	100	B	N
CPOPT	I	2018/06/13	2018/06/13	10257234	5570154	US3134GSQA60	C	2018/09/28				USD	1000	O	5	60	BM	100	B	N
CPOPT	I	2018/06/13	2018/06/13	10257235	5570154	US3134GSQA60	C	2018/12/28				USD	1000	O	5	60	BM	100	B	N
CPOPT	I	2018/06/13	2018/06/13	10257236	5570154	US3134GSQA60	C	2019/03/28				USD	1000	O	5	60	BM	100	B	N
CPOPT	I	2018/06/13	2018/06/13	10257237	5570154	US3134GSQA60	C	2019/06/28				USD	1000	O	5	60	BM	100	B	N
CPOPT	I	2018/06/13	2018/06/13	10257238	5570154	US3134GSQA60	C	2019/09/28				USD	1000	O	5	60	BM	100	B	N
CPOPT	I	2018/06/13	2018/06/13	10257239	5570154	US3134GSQA60	C	2019/12/28				USD	1000	O	5	60	BM	100	B	N
CPOPT	I	2018/06/13	2018/06/13	10257240	5570154	US3134GSQA60	C	2020/03/28				USD	1000	O	5	60	BM	100	B	N
CPOPT	I	2018/06/13	2018/06/13	10257241	5570154	US3134GSQA60	C	2020/06/28				USD	1000	O	5	60	BM	100	B	N
CPOPT	I	2018/06/13	2018/06/13	10257242	5570154	US3134GSQA60	C	2020/09/28				USD	1000	O	5	60	BM	100	B	N
CPOPT	I	2018/06/13	2018/06/13	10257243	5570154	US3134GSQA60	C	2020/12/28				USD	1000	O	5	60	BM	100	B	N
CPOPT	I	2018/06/13	2018/06/13	10257244	5570154	US3134GSQA60	C	2021/03/28				USD	1000	O	5	60	BM	100	B	N
CPOPT	I	2018/06/07	2018/06/07	10254123	5562744	US46647MRW54	C	2018/12/11				USD		O			BM	100		N
CPOPT	I	2018/06/07	2018/06/07	10254124	5562744	US46647MRW54	C	2019/01/11				USD		O			BM	100		N
CPOPT	I	2018/06/07	2018/06/07	10254125	5562744	US46647MRW54	C	2019/02/11				USD		O			BM	100		N
CPOPT	I	2018/06/07	2018/06/07	10254126	5562744	US46647MRW54	C	2019/03/11				USD		O			BM	100		N
CPOPT	I	2018/06/07	2018/06/07	10254127	5562744	US46647MRW54	C	2019/04/11				USD		O			BM	100		N
CPOPT	I	2018/06/07	2018/06/07	10254128	5562744	US46647MRW54	C	2019/05/11				USD		O			BM	100		N
CPOPT	I	2018/06/07	2018/06/07	10254129	5562744	US46647MRW54	C	2019/06/11				USD		O			BM	100		N
CPOPT	I	2018/06/07	2018/06/07	10254130	5562744	US46647MRW54	C	2019/07/11				USD		O			BM	100		N
CPOPT	I	2018/06/07	2018/06/07	10254131	5562744	US46647MRW54	C	2019/08/11				USD		O			BM	100		N
CPOPT	I	2018/06/07	2018/06/07	10254132	5562744	US46647MRW54	C	2019/09/11				USD		O			BM	100		N
CPOPT	I	2018/06/07	2018/06/07	10254133	5562744	US46647MRW54	C	2019/10/11				USD		O			BM	100		N
CPOPT	I	2018/06/07	2018/06/07	10254134	5562744	US46647MRW54	C	2019/11/11				USD		O			BM	100		N
CPOPT	I	2018/06/07	2018/06/07	10254135	5562744	US46647MRW54	C	2019/12/11				USD		O			BM	100		N
CPOPT	I	2018/06/07	2018/06/07	10254136	5562744	US46647MRW54	C	2020/01/11				USD		O			BM	100		N
CPOPT	I	2018/06/07	2018/06/07	10254137	5562744	US46647MRW54	C	2020/02/11				USD		O			BM	100		N
CPOPT	I	2018/06/07	2018/06/07	10254138	5562744	US46647MRW54	C	2020/03/11				USD		O			BM	100		N
CPOPT	I	2018/06/07	2018/06/07	10254139	5562744	US46647MRW54	C	2020/04/11				USD		O			BM	100		N
CPOPT	I	2018/06/07	2018/06/07	10254140	5562744	US46647MRW54	C	2020/05/11				USD		O			BM	100		N
CPOPT	I	2018/06/13	2018/06/13	10257274	5571112	US75874LAB45	C	2022/06/21	2027/06/30			USD		O			US	100		N
CPOPT	I	2018/06/13	2018/06/13	10257275	5571124	US74934YAA91	C	2017/09/29				USD		O			BM	100		N
CPOPT	I	2018/06/13	2018/06/13	10257276	5571124	US74934YAA91	C	2017/10/31				USD		O			BM	100		N
CPOPT	I	2018/06/13	2018/06/13	10257277	5571124	US74934YAA91	C	2017/11/30				USD		O			BM	100		N
CPOPT	I	2018/06/13	2018/06/13	10257278	5571124	US74934YAA91	C	2017/12/31				USD		O			BM	100		N
CPOPT	I	2018/06/13	2018/06/13	10257279	5571124	US74934YAA91	C	2018/01/31				USD		O			BM	100		N
CPOPT	I	2018/06/13	2018/06/13	10257280	5571124	US74934YAA91	C	2018/02/28				USD		O			BM	100		N
CPOPT	I	2018/06/13	2018/06/13	10257281	5571124	US74934YAA91	C	2018/03/31				USD		O			BM	100		N
CPOPT	I	2018/06/13	2018/06/13	10257282	5571124	US74934YAA91	C	2018/04/30				USD		O			BM	100		N
CPOPT	I	2018/06/13	2018/06/13	10257283	5571124	US74934YAA91	C	2018/05/31				USD		O			BM	100		N
CPOPT	I	2018/06/13	2018/06/13	10257284	5571124	US74934YAA91	C	2018/06/30				USD		O			BM	100		N
CPOPT	I	2018/06/13	2018/06/13	10257285	5571124	US74934YAA91	C	2018/07/31				USD		O			BM	100		N
CPOPT	I	2018/06/13	2018/06/13	10257286	5571124	US74934YAA91	C	2018/08/31				USD		O			BM	100		N
CPOPT	I	2018/06/13	2018/06/13	10257303	5571124	US74934YAA91	C	2018/09/29				USD		O			BM	100		N
CPOPT	I	2018/06/13	2018/06/13	10257304	5571124	US74934YAA91	C	2018/10/31				USD		O			BM	100		N
CPOPT	I	2018/06/13	2018/06/13	10257305	5571124	US74934YAA91	C	2018/11/30				USD		O			BM	100		N
CPOPT	I	2018/06/13	2018/06/13	10257306	5571124	US74934YAA91	C	2018/12/31				USD		O			BM	100		N
CPOPT	I	2018/06/13	2018/06/13	10257307	5571124	US74934YAA91	C	2019/01/31				USD		O			BM	100		N
CPOPT	I	2018/06/13	2018/06/13	10257308	5571124	US74934YAA91	C	2019/02/28				USD		O			BM	100		N
CPOPT	I	2018/06/13	2018/06/13	10257309	5571124	US74934YAA91	C	2019/03/31				USD		O			BM	100		N
CPOPT	I	2018/06/13	2018/06/13	10257310	5571124	US74934YAA91	C	2019/04/30				USD		O			BM	100		N
CPOPT	I	2018/06/13	2018/06/13	10257311	5571124	US74934YAA91	C	2019/05/31				USD		O			BM	100		N
CPOPT	I	2018/06/13	2018/06/13	10257312	5571124	US74934YAA91	C	2019/06/30				USD		O			BM	100		N
CPOPT	I	2018/06/13	2018/06/13	10257313	5571124	US74934YAA91	C	2019/07/31				USD		O			BM	100		N
CPOPT	I	2018/06/13	2018/06/13	10257314	5571124	US74934YAA91	C	2019/08/31				USD		O			BM	100		N
CPOPT	I	2018/06/13	2018/06/13	10257315	5571124	US74934YAA91	C	2019/09/29				USD		O			BM	100		N
CPOPT	I	2018/06/13	2018/06/13	10257316	5571124	US74934YAA91	C	2019/10/31				USD		O			BM	100		N
CPOPT	I	2018/06/13	2018/06/13	10257317	5571124	US74934YAA91	C	2019/11/30				USD		O			BM	100		N
CPOPT	I	2018/06/13	2018/06/13	10257318	5571124	US74934YAA91	C	2019/12/31				USD		O			BM	100		N
CPOPT	I	2018/06/13	2018/06/13	10257319	5571124	US74934YAA91	C	2020/01/31				USD		O			BM	100		N
CPOPT	I	2018/06/13	2018/06/13	10257320	5571124	US74934YAA91	C	2020/02/28				USD		O			BM	100		N
CPOPT	I	2018/06/13	2018/06/13	10257321	5571124	US74934YAA91	C	2020/03/31				USD		O			BM	100		N
CPOPT	I	2018/06/13	2018/06/13	10257322	5571124	US74934YAA91	C	2020/04/30				USD		O			BM	100		N
CPOPT	I	2018/06/13	2018/06/13	10257323	5571124	US74934YAA91	C	2020/05/31				USD		O			BM	100		N
CPOPT	I	2018/06/13	2018/06/13	10257324	5571124	US74934YAA91	C	2020/06/30				USD		O			BM	100		N
CPOPT	I	2018/06/13	2018/06/13	10257325	5571124	US74934YAA91	C	2020/07/31				USD		O			BM	100		N
CPOPT	I	2018/06/13	2018/06/13	10257326	5571124	US74934YAA91	C	2020/08/31				USD		O			BM	100		N
CPOPT	I	2018/06/13	2018/06/13	10257327	5571124	US74934YAA91	C	2020/09/29				USD		O			BM	100		N
CPOPT	I	2018/06/13	2018/06/13	10257328	5571124	US74934YAA91	C	2020/10/31				USD		O			BM	100		N
CPOPT	I	2018/06/13	2018/06/13	10257329	5571124	US74934YAA91	C	2020/11/30				USD		O			BM	100		N
CPOPT	I	2018/06/13	2018/06/13	10257330	5571124	US74934YAA91	C	2020/12/31				USD		O			BM	100		N
CPOPT	I	2018/06/13	2018/06/13	10257331	5571124	US74934YAA91	C	2021/01/31				USD		O			BM	100		N
CPOPT	I	2018/06/13	2018/06/13	10257332	5571124	US74934YAA91	C	2021/02/28				USD		O			BM	100		N
CPOPT	I	2018/06/13	2018/06/13	10257333	5571124	US74934YAA91	C	2021/03/31				USD		O			BM	100		N
CPOPT	I	2018/06/13	2018/06/13	10257334	5571124	US74934YAA91	C	2021/04/30				USD		O			BM	100		N
CPOPT	I	2018/06/13	2018/06/13	10257335	5571124	US74934YAA91	C	2021/05/31				USD		O			BM	100		N
CPOPT	I	2018/06/13	2018/06/13	10257336	5571124	US74934YAA91	C	2021/06/30				USD		O			BM	100		N
CPOPT	I	2018/06/13	2018/06/13	10257337	5571124	US74934YAA91	C	2021/07/31				USD		O			BM	100		N
CPOPT	I	2018/06/13	2018/06/13	10257338	5571124	US74934YAA91	C	2021/08/31				USD		O			BM	100		N
CPOPT	I	2018/06/13	2018/06/13	10257339	5571124	US74934YAA91	C	2021/09/29				USD		O			BM	100		N
CPOPT	I	2018/06/13	2018/06/13	10257340	5571124	US74934YAA91	C	2021/10/31				USD		O			BM	100		N
CPOPT	I	2018/06/13	2018/06/13	10257341	5571124	US74934YAA91	C	2021/11/30				USD		O			BM	100		N
CPOPT	I	2018/06/13	2018/06/13	10257342	5571124	US74934YAA91	C	2021/12/31				USD		O			BM	100		N
CPOPT	I	2018/06/13	2018/06/13	10257343	5571124	US74934YAA91	C	2022/01/31				USD		O			BM	100		N
CPOPT	I	2018/06/13	2018/06/13	10257344	5571124	US74934YAA91	C	2022/02/28				USD		O			BM	100		N
CPOPT	I	2018/06/13	2018/06/13	10257345	5571124	US74934YAA91	C	2022/03/31				USD		O			BM	100		N
CPOPT	I	2018/06/13	2018/06/13	10257346	5571124	US74934YAA91	C	2022/04/30				USD		O			BM	100		N
CPOPT	I	2018/06/13	2018/06/13	10257347	5571124	US74934YAA91	C	2022/05/31				USD		O			BM	100		N
CPOPT	I	2018/06/13	2018/06/13	10257348	5571124	US74934YAA91	C	2022/06/30				USD		O			BM	100		N
CPOPT	I	2018/06/13	2018/06/13	10257349	5571124	US74934YAA91	C	2022/07/31				USD		O			BM	100		N
CPOPT	I	2018/06/13	2018/06/13	10257350	5571124	US74934YAA91	C	2022/08/31				USD		O			BM	100		N
CPOPT	I	2018/06/13	2018/06/13	10257351	5571124	US74934YAA91	C	2022/09/29				USD		O			BM	100		N
CPOPT	I	2018/06/13	2018/06/13	10257352	5571124	US74934YAA91	C	2022/10/31				USD		O			BM	100		N
CPOPT	I	2018/06/13	2018/06/13	10257353	5571124	US74934YAA91	C	2022/11/30				USD		O			BM	100		N
CPOPT	I	2018/06/13	2018/06/13	10257354	5571124	US74934YAA91	C	2022/12/31				USD		O			BM	100		N
CPOPT	I	2018/06/13	2018/06/13	10257355	5571124	US74934YAA91	C	2023/01/31				USD		O			BM	100		N
CPOPT	I	2018/06/13	2018/06/13	10257356	5571124	US74934YAA91	C	2023/02/28				USD		O			BM	100		N
CPOPT	I	2018/06/13	2018/06/13	10257357	5571124	US74934YAA91	C	2023/03/31				USD		O			BM	100		N
CPOPT	I	2018/06/13	2018/06/13	10257358	5571124	US74934YAA91	C	2023/04/30				USD		O			BM	100		N
CPOPT	I	2018/06/13	2018/06/13	10257359	5571124	US74934YAA91	C	2023/05/31				USD		O			BM	100		N
CPOPT	I	2018/06/13	2018/06/13	10257360	5571124	US74934YAA91	C	2023/06/30				USD		O			BM	100		N
CPOPT	I	2018/06/13	2018/06/13	10257361	5571124	US74934YAA91	C	2023/07/31				USD		O			BM	100		N
CPOPT	I	2018/06/13	2018/06/13	10257362	5571124	US74934YAA91	C	2023/08/31				USD		O			BM	100		N
CPOPT	I	2018/06/13	2018/06/13	10257363	5571124	US74934YAA91	C	2023/09/29				USD		O			BM	100		N
CPOPT	I	2018/06/13	2018/06/13	10257364	5571124	US74934YAA91	C	2023/10/31				USD		O			BM	100		N
CPOPT	I	2018/06/13	2018/06/13	10257365	5571124	US74934YAA91	C	2023/11/30				USD		O			BM	100		N
CPOPT	I	2018/06/13	2018/06/13	10257366	5571124	US74934YAA91	C	2023/12/31				USD		O			BM	100		N
CPOPT	I	2018/06/13	2018/06/13	10257367	5571124	US74934YAA91	C	2024/01/31				USD		O			BM	100		N
CPOPT	I	2018/06/13	2018/06/13	10257368	5571124	US74934YAA91	C	2024/02/28				USD		O			BM	100		N
CPOPT	I	2018/06/13	2018/06/13	10257369	5571124	US74934YAA91	C	2024/03/31				USD		O			BM	100		N
CPOPT	I	2018/06/13	2018/06/13	10257370	5571124	US74934YAA91	C	2024/04/30				USD		O			BM	100		N
CPOPT	I	2018/06/13	2018/06/13	10257371	5571124	US74934YAA91	C	2024/05/31				USD		O			BM	100		N
CPOPT	I	2018/06/13	2018/06/13	10257372	5571124	US74934YAA91	C	2024/06/30				USD		O			BM	100		N
CPOPT	I	2018/06/13	2018/06/13	10257373	5571124	US74934YAA91	C	2024/07/31				USD		O			BM	100		N
CPOPT	I	2018/06/13	2018/06/13	10257374	5571124	US74934YAA91	C	2024/08/31				USD		O			BM	100		N
CPOPT	I	2018/06/13	2018/06/13	10257375	5571124	US74934YAA91	C	2024/09/29				USD		O			BM	100		N
CPOPT	I	2018/06/13	2018/06/13	10257376	5571124	US74934YAA91	C	2024/10/31				USD		O			BM	100		N
CPOPT	I	2018/06/13	2018/06/13	10257377	5571124	US74934YAA91	C	2024/11/30				USD		O			BM	100		N
CPOPT	I	2018/06/13	2018/06/13	10257378	5571124	US74934YAA91	C	2024/12/31				USD		O			BM	100		N
CPOPT	I	2018/06/13	2018/06/13	10257379	5571124	US74934YAA91	C	2025/01/31				USD		O			BM	100		N
CPOPT	I	2018/06/13	2018/06/13	10257380	5571124	US74934YAA91	C	2025/02/28				USD		O			BM	100		N
CPOPT	I	2018/06/13	2018/06/13	10257381	5571124	US74934YAA91	C	2025/03/31				USD		O			BM	100		N
CPOPT	I	2018/06/13	2018/06/13	10257382	5571124	US74934YAA91	C	2025/04/30				USD		O			BM	100		N
CPOPT	I	2018/06/13	2018/06/13	10257383	5571124	US74934YAA91	C	2025/05/31				USD		O			BM	100		N
CPOPT	I	2018/06/13	2018/06/13	10257384	5571124	US74934YAA91	C	2025/06/30				USD		O			BM	100		N
CPOPT	I	2018/06/13	2018/06/13	10257385	5571124	US74934YAA91	C	2025/07/31				USD		O			BM	100		N
CPOPT	I	2018/06/13	2018/06/13	10257386	5571124	US74934YAA91	C	2025/08/31				USD		O			BM	100		N
CPOPT	I	2018/06/13	2018/06/13	10257387	5571124	US74934YAA91	C	2025/09/29				USD		O			BM	100		N
CPOPT	I	2018/06/13	2018/06/13	10257388	5571124	US74934YAA91	C	2025/10/31				USD		O			BM	100		N
CPOPT	I	2018/06/13	2018/06/13	10257389	5571124	US74934YAA91	C	2025/11/30				USD		O			BM	100		N
CPOPT	I	2018/06/13	2018/06/13	10257390	5571124	US74934YAA91	C	2025/12/31				USD		O			BM	100		N
CPOPT	I	2018/06/13	2018/06/13	10257391	5571124	US74934YAA91	C	2026/01/31				USD		O			BM	100		N
CPOPT	I	2018/06/13	2018/06/13	10257392	5571124	US74934YAA91	C	2026/02/28				USD		O			BM	100		N
CPOPT	I	2018/06/13	2018/06/13	10257393	5571124	US74934YAA91	C	2026/03/31				USD		O			BM	100		N
CPOPT	I	2018/06/13	2018/06/13	10257394	5571124	US74934YAA91	C	2026/04/30				USD		O			BM	100		N
CPOPT	I	2018/06/13	2018/06/13	10257395	5571124	US74934YAA91	C	2026/05/31				USD		O			BM	100		N
CPOPT	I	2018/06/13	2018/06/13	10257396	5571124	US74934YAA91	C	2026/06/30				USD		O			BM	100		N
CPOPT	I	2018/06/13	2018/06/13	10257397	5571124	US74934YAA91	C	2026/07/31				USD		O			BM	100		N
CPOPT	I	2018/06/13	2018/06/13	10257398	5571124	US74934YAA91	C	2026/08/31				USD		O			BM	100		N
CPOPT	I	2018/06/13	2018/06/13	10257399	5571124	US74934YAA91	C	2026/09/29				USD		O			BM	100		N
CPOPT	I	2018/06/13	2018/06/13	10257400	5571124	US74934YAA91	C	2026/10/31				USD		O			BM	100		N
CPOPT	I	2018/06/13	2018/06/13	10257401	5571124	US74934YAA91	C	2026/11/30				USD		O			BM	100		N
CPOPT	I	2018/06/13	2018/06/13	10257402	5571124	US74934YAA91	C	2026/12/31				USD		O			BM	100		N
CPOPT	I	2018/06/13	2018/06/13	10257403	5571124	US74934YAA91	C	2027/01/31				USD		O			BM	100		N
CPOPT	I	2018/06/13	2018/06/13	10257404	5571124	US74934YAA91	C	2027/02/28				USD		O			BM	100		N
CPOPT	I	2018/06/12	2018/06/12	10256745	5568347	US3130AEG535	C	2019/06/18	2043/06/17			USD		O			US			
CPOPT	I	2018/06/13	2018/06/13	10257410	5571243	US3130AEGC82	C	2021/06/18	2030/06/17			USD		O			US			
CPOPT	I	2018/06/13	2018/06/13	10257569	5571390	US341081FS11	P	2019/06/15				USD	980	O	30	60	BM	98	B	N
CPOPT	I	2018/06/13	2018/06/13	10257570	5571390	US341081FS11	P	2019/12/15				USD	980	O	30	60	BM	98	B	N
CPOPT	I	2018/06/13	2018/06/13	10257571	5571390	US341081FS11	P	2020/06/15				USD	980	O	30	60	BM	98	B	N
CPOPT	I	2018/06/13	2018/06/13	10257572	5571390	US341081FS11	P	2020/12/15				USD	980	O	30	60	BM	98	B	N
CPOPT	I	2018/06/13	2018/06/13	10257573	5571390	US341081FS11	P	2021/06/15				USD	980	O	30	60	BM	98	B	N
CPOPT	I	2018/06/13	2018/06/13	10257574	5571390	US341081FS11	P	2021/12/15				USD	980	O	30	60	BM	98	B	N
CPOPT	I	2018/06/13	2018/06/13	10257575	5571390	US341081FS11	P	2022/06/15				USD	980	O	30	60	BM	98	B	N
CPOPT	I	2018/06/13	2018/06/13	10257576	5571390	US341081FS11	P	2022/12/15				USD	980	O	30	60	BM	98	B	N
CPOPT	I	2018/06/13	2018/06/13	10257577	5571390	US341081FS11	P	2023/06/15				USD	980	O	30	60	BM	98	B	N
CPOPT	I	2018/06/13	2018/06/13	10257578	5571390	US341081FS11	P	2023/12/15				USD	990	O	30	60	BM	99	B	N
CPOPT	I	2018/06/13	2018/06/13	10257579	5571390	US341081FS11	P	2024/06/15				USD	990	O	30	60	BM	99	B	N
CPOPT	I	2018/06/13	2018/06/13	10257580	5571390	US341081FS11	P	2024/12/15				USD	990	O	30	60	BM	99	B	N
CPOPT	I	2018/06/13	2018/06/13	10257581	5571390	US341081FS11	P	2025/06/15				USD	990	O	30	60	BM	99	B	N
CPOPT	I	2018/06/13	2018/06/13	10257582	5571390	US341081FS11	P	2025/12/15				USD	990	O	30	60	BM	99	B	N
CPOPT	I	2018/06/13	2018/06/13	10257583	5571390	US341081FS11	P	2026/06/15				USD	990	O	30	60	BM	99	B	N
CPOPT	I	2018/06/13	2018/06/13	10257584	5571390	US341081FS11	P	2026/12/15				USD	990	O	30	60	BM	99	B	N
CPOPT	I	2018/06/13	2018/06/13	10257585	5571390	US341081FS11	P	2027/06/15				USD	990	O	30	60	BM	99	B	N
CPOPT	I	2018/06/13	2018/06/13	10257586	5571390	US341081FS11	P	2027/12/15				USD	990	O	30	60	BM	99	B	N
CPOPT	I	2018/06/13	2018/06/13	10257587	5571390	US341081FS11	P	2028/06/15				USD	990	O	30	60	BM	99	B	N
CPOPT	I	2018/06/13	2018/06/13	10257588	5571390	US341081FS11	P	2028/12/15				USD	990	O	30	60	BM	99	B	N
CPOPT	I	2018/06/13	2018/06/13	10257589	5571390	US341081FS11	P	2029/06/15				USD	1000	O	30	60	BM	100	B	N
CPOPT	I	2018/06/13	2018/06/13	10257590	5571390	US341081FS11	P	2031/06/15				USD	1000	O	30	60	BM	100	B	N
CPOPT	I	2018/06/13	2018/06/13	10257591	5571390	US341081FS11	P	2033/06/15				USD	1000	O	30	60	BM	100	B	N
CPOPT	I	2018/06/13	2018/06/13	10257592	5571390	US341081FS11	P	2035/06/15				USD	1000	O	30	60	BM	100	B	N
CPOPT	I	2018/06/13	2018/06/13	10257593	5571390	US341081FS11	P	2037/06/15				USD	1000	O	30	60	BM	100	B	N
CPOPT	I	2018/06/13	2018/06/13	10257594	5571390	US341081FS11	P	2039/06/15				USD	1000	O	30	60	BM	100	B	N
CPOPT	I	2018/06/13	2018/06/13	10257595	5571390	US341081FS11	P	2041/06/15				USD	1000	O	30	60	BM	100	B	N
CPOPT	I	2018/06/13	2018/06/13	10257596	5571390	US341081FS11	P	2043/06/15				USD	1000	O	30	60	BM	100	B	N
CPOPT	I	2018/06/13	2018/06/13	10257597	5571390	US341081FS11	P	2045/06/15				USD	1000	O	30	60	BM	100	B	N
CPOPT	I	2018/06/13	2018/06/13	10257598	5571390	US341081FS11	P	2047/06/15				USD	1000	O	30	60	BM	100	B	N
CPOPT	I	2018/06/13	2018/06/13	10257599	5571390	US341081FS11	C	2048/06/15	2048/12/14			USD	1050	O			US	105	B	N
CPOPT	I	2018/06/13	2018/06/13	10257600	5571390	US341081FS11	C	2048/12/15	2049/06/14			USD	1050	O			US	105	B	N
CPOPT	I	2018/06/13	2018/06/13	10257601	5571390	US341081FS11	C	2049/06/15	2049/12/14			USD	1045	O			US	104.5	B	N
CPOPT	I	2018/06/13	2018/06/13	10257602	5571390	US341081FS11	P	2049/06/15				USD	1000	O	30	60	BM	100	B	N
CPOPT	I	2018/06/13	2018/06/13	10257603	5571390	US341081FS11	C	2049/12/15	2050/06/14			USD	1045	O			US	104.5	B	N
CPOPT	I	2018/06/13	2018/06/13	10257604	5571390	US341081FS11	C	2050/06/15	2050/12/14			USD	1040	O			US	104	B	N
CPOPT	I	2018/06/13	2018/06/13	10257605	5571390	US341081FS11	C	2050/12/15	2051/06/14			USD	1040	O			US	104	B	N
CPOPT	I	2018/06/13	2018/06/13	10257606	5571390	US341081FS11	C	2051/06/15	2051/12/14			USD	1035	O			US	103.5	B	N
CPOPT	I	2018/06/13	2018/06/13	10257607	5571390	US341081FS11	P	2051/06/15				USD	1000	O	30	60	BM	100	B	N
CPOPT	I	2018/06/13	2018/06/13	10257608	5571390	US341081FS11	C	2051/12/15	2052/06/14			USD	1035	O			US	103.5	B	N
CPOPT	I	2018/06/13	2018/06/13	10257609	5571390	US341081FS11	C	2052/06/15	2052/12/14			USD	1030	O			US	103	B	N
CPOPT	I	2018/06/13	2018/06/13	10257610	5571390	US341081FS11	C	2052/12/15	2053/06/14			USD	1030	O			US	103	B	N
CPOPT	I	2018/06/13	2018/06/13	10257611	5571390	US341081FS11	C	2053/06/15	2053/12/14			USD	1025	O			US	102.5	B	N
CPOPT	I	2018/06/13	2018/06/13	10257612	5571390	US341081FS11	P	2053/06/15				USD	1000	O	30	60	BM	100	B	N
CPOPT	I	2018/06/13	2018/06/13	10257613	5571390	US341081FS11	C	2053/12/15	2054/06/14			USD	1025	O			US	102.5	B	N
CPOPT	I	2018/06/13	2018/06/13	10257614	5571390	US341081FS11	C	2054/06/15	2054/12/14			USD	1020	O			US	102	B	N
CPOPT	I	2018/06/13	2018/06/13	10257615	5571390	US341081FS11	C	2054/12/15	2055/06/14			USD	1020	O			US	102	B	N
CPOPT	I	2018/06/13	2018/06/13	10257616	5571390	US341081FS11	C	2055/06/15	2055/12/14			USD	1015	O			US	101.5	B	N
CPOPT	I	2018/06/13	2018/06/13	10257617	5571390	US341081FS11	P	2055/06/15				USD	1000	O	30	60	BM	100	B	N
CPOPT	I	2018/06/13	2018/06/13	10257618	5571390	US341081FS11	C	2055/12/15	2056/06/14			USD	1015	O			US	101.5	B	N
CPOPT	I	2018/06/13	2018/06/13	10257619	5571390	US341081FS11	C	2056/06/15	2056/12/14			USD	1010	O			US	101	B	N
CPOPT	I	2018/06/13	2018/06/13	10257620	5571390	US341081FS11	C	2056/12/15	2057/06/14			USD	1010	O			US	101	B	N
CPOPT	I	2018/06/13	2018/06/13	10257621	5571390	US341081FS11	C	2057/06/15	2057/12/14			USD	1005	O			US	100.5	B	N
CPOPT	I	2018/06/13	2018/06/13	10257622	5571390	US341081FS11	P	2057/06/15				USD	1000	O	30	60	BM	100	B	N
CPOPT	I	2018/06/13	2018/06/13	10257623	5571390	US341081FS11	C	2057/12/15	2058/06/14			USD	1005	O			US	100.5	B	N
CPOPT	I	2018/06/13	2018/06/13	10257624	5571390	US341081FS11	C	2058/06/15	2068/06/14			USD	1000	O			US	100	B	N
CPOPT	I	2018/06/13	2018/06/13	10257625	5571390	US341081FS11	P	2059/06/15				USD	1000	O	30	60	BM	100	B	N
CPOPT	I	2018/06/13	2018/06/13	10257626	5571390	US341081FS11	P	2061/06/15				USD	1000	O	30	60	BM	100	B	N
CPOPT	I	2018/06/13	2018/06/13	10257627	5571390	US341081FS11	P	2063/06/15				USD	1000	O	30	60	BM	100	B	N
CPOPT	I	2018/06/13	2018/06/13	10257628	5571390	US341081FS11	P	2065/06/15				USD	1000	O	30	60	BM	100	B	N
CPOPT	I	2018/06/13	2018/06/13	10257451	5571400	US015271AM12	C	2018/06/22	2023/12/14			USD		O			MWC			Y
CPOPT	I	2018/06/13	2018/06/13	10257452	5571400	US015271AM12	C	2023/12/15	2024/01/14			USD	2000	O			RM	100		N
CPOPT	I	2018/06/13	2018/06/13	10257453	5571409	US015271AN94	C	2018/06/22	2030/03/31			USD		O			MWC			Y
CPOPT	I	2018/06/13	2018/06/13	10257454	5571409	US015271AN94	C	2030/04/01	2030/06/30			USD	2000	O			RM	100		N
CPOPT	I	2018/06/13	2018/06/13	10257265	5571058	US3133EJSF75	C	2023/06/20	2033/06/19			USD		O	5		US			
CPOPT	I	2018/06/13	2018/06/13	10257267	5571075	US3133EJSG58	C	2019/06/19	2024/06/18			USD		O	5		US			
CPOPT	I	2018/06/13	2018/06/13	10257266	5571059	US3133EJSJ97	C	2018/12/20	2022/06/19			USD		O	5		US			
CPOPT	I	2018/06/13	2018/06/13	10257428	5571417	US46513X6V73	C	2018/05/01	2020/03/31			USD		O			US	100		N
CPOPT	I	2018/06/13	2018/06/13	10257429	5571469	US87161C6003	C	2023/06/21				USD	25	O	30	60	BM	100	B	N
CPOPT	I	2018/06/13	2018/06/13	10257445	5571469	US87161C6003	C	2023/09/21				USD	25	O	30	60	BM	100	B	N
CPOPT	I	2018/06/13	2018/06/13	10257446	5571469	US87161C6003	C	2023/12/21				USD	25	O	30	60	BM	100	B	N
CPOPT	I	2018/06/13	2018/06/13	10257447	5571469	US87161C6003	C	2024/03/21				USD	25	O	30	60	BM	100	B	N
CPOPT	I	2018/06/13	2018/06/13	10257430	5571475	US801060AC87	C	2018/06/20	2023/05/18			USD		O			MWC			Y
CPOPT	U	2018/06/13	2018/06/13	10257431	5571475	US801060AC87	C	2023/05/19	2023/06/18			USD	2000	O			US	100		N
CPOPT	I	2018/06/13	2018/06/13	10257429	5571469	US87161C6003	C	2023/06/21				USD	25	O	30	60	BM	100	B	N
CPOPT	I	2018/06/13	2018/06/13	10257445	5571469	US87161C6003	C	2023/09/21				USD	25	O	30	60	BM	100	B	N
CPOPT	I	2018/06/13	2018/06/13	10257446	5571469	US87161C6003	C	2023/12/21				USD	25	O	30	60	BM	100	B	N
CPOPT	I	2018/06/13	2018/06/13	10257447	5571469	US87161C6003	C	2024/03/21				USD	25	O	30	60	BM	100	B	N
CPOPT	I	2018/06/13	2018/06/13	10257432	5571488	US801060AD60	C	2018/06/20	2028/03/18			USD		O			MWC			Y
CPOPT	U	2018/06/13	2018/06/13	10257433	5571488	US801060AD60	C	2028/03/19	2028/06/18			USD	2000	O			US	100		N
CPOPT	I	2018/06/13	2018/06/13	10257448	5571515	US404280BT50	C	2028/06/19				USD	200000	O			EU	100	W	N
CPOPT	I	2018/06/13	2018/06/13	10257438	5571526	USU40462AD21	C	2018/06/07	2018/11/30			USD		O			US	105		N
CPOPT	I	2018/06/13	2018/06/13	10257439	5571526	USU40462AD21	C	2018/12/01	2019/11/30			USD		O			US	100		N
CPOPT	I	2018/06/13	2018/06/13	10257448	5571515	US404280BT50	C	2028/06/19				USD	200000	O			EU	100	W	N
CPOPT	U	2009/07/15	2018/05/31	2565256	170738	US35177PAL13	C	2002/02/12	2031/02/28			USD		O			MWC			Y
CPOPT	I	2018/06/13	2018/06/13	10257495	5571852	US22845UAA43	C	2018/04/15				USD		O			EU	100		N
EDI_ENDOFFILE
