EDI_BKRP_20180613
TableName	Actflag	Created	Changed	BkrpID	SecID	ISIN	IssID	NotificationDate	FilingDate
BKRP	U	2009/03/18	2009/07/02	992	5571526	USU40462AD21	37928	2009/07/01	
BKRP	U	2018/03/13	2018/06/13	2223	4154165	US686164AA22	109262	2018/03/12	2018/03/12
BKRP	U	2018/03/13	2018/06/13	2223	4415643	US686164AB05	109262	2018/03/12	2018/03/12
BKRP	U	2018/03/13	2018/06/13	2223	4738624		109262	2018/03/12	2018/03/12
BKRP	U	2018/03/13	2018/06/13	2223	5054761	US686164AC87	109262	2018/03/12	2018/03/12
BKRP	U	2018/03/13	2018/06/13	2223	5464317	US686164AD60	109262	2018/03/12	2018/03/12
EDI_ENDOFFILE
