EDI_SCCHG_20180613
TableName	Actflag	Created	Changed	ScChgID	SecID	ISIN	DateofChange	SecOldName	SecNewName	EventType	OldSectyCD	NewSectyCD	OldRegS144A	NewRegS144A	Notes
SCCHG	I	2013/04/22	2013/04/22	347957	170738	US35177PAL13	2002/02/12	9.50% BD REDEEM 01/03/2031 USD 1000	8.50% BD REDEEM 01/03/2031 USD 1000						
SCCHG	I	2016/02/01	2016/02/01	512125	170738	US35177PAL13	2013/09/01	8.50% BD REDEEM 01/03/2031 USD 1000	8.75% BD REDEEM 01/03/2031 USD 1000						
SCCHG	I	2016/02/01	2016/02/01	512126	170738	US35177PAL13	2014/03/01	8.75% BD REDEEM 01/03/2031 USD 1000	9% BD REDEEM 01/03/2031 USD 1000						
EDI_ENDOFFILE
