EDI_SCEXH_20180613
TableName	Actflag	Created	Changed	ScExhID	SecID	ISIN	ExchgCD	ListStatus	Lot	MinTrdgQty	ListDate	DelistDate	LocalCode	JunkLocalcode	PriceTick	TickSize	ListCategory	Notes
SCEXH	U	2010/08/14	2018/06/13	2859941	757805	US870738AF81	USNYSE	D				2016/04/21	SFY17					
SCEXH	U	2009/07/28	2018/06/13	2027234	757805	US870738AF81	USTRCE	D				2016/04/21	SFY.GD					
SCEXH	U	2010/08/13	2018/06/13	2855507	985901	US74432RAH66	USTRCE	D				2018/05/24	PRU.GNP					
SCEXH	U	2009/12/02	2018/06/13	2261687	1662471	US870738AG64	USTRCE	D				2016/04/25	SFY.GE					
SCEXH	U	2010/11/24	2018/06/13	3121284	2228949	US3136FPXQ57	USTRCE	D				2018/05/24	FNMA.GLR					
SCEXH	U	2010/12/27	2018/06/13	3218890	2290712	US45660LU805	USBND		100									
SCEXH	U	2013/06/24	2018/06/13	5815466	3753277	US870738AK76	USTRCE	D				2016/04/25	SFY3845878					
SCEXH	U	2013/04/30	2018/06/13	5765716	4028730	US313382Y233	USTRCE	D				2018/05/24	FHLN4000708					
SCEXH	U	2013/05/13	2018/06/13	5774461	4035943	US25152RVB67	USTRCE	D				2018/05/24	DB4003129					
SCEXH	U	2013/05/20	2018/06/13	5780452	4038535	US50048MBK53	USTRCE	D				2018/05/24	KMLB4007859					
SCEXH	U	2013/05/20	2018/06/13	5780620	4040868	US85235XAD75	USTRCE	D				2018/05/24	SHBA4007845					
SCEXH	U	2013/05/21	2018/06/13	5781621	4041136	US85235YAD58	USTRCE	D				2018/05/24	SHBA4007847					
SCEXH	U	2014/04/22	2018/06/13	6048167	4252086	US48125LPB26	USOTC	D				2018/05/24						
SCEXH	U	2014/04/29	2018/06/13	6052918	4256240	US42237MAA62	USTRCE	D				2018/05/24	HRTR4120491					
SCEXH	U	2014/04/30	2018/06/13	6053613	4256844	USU42275AA27	USTRCE	D				2018/05/24	HRTR4121888					
SCEXH	U	2014/08/26	2018/06/13	6143063	4333721	US22547QSH01	USTRCE	D				2018/03/01	CS4158535					
SCEXH	U	2014/09/26	2018/06/13	6170569	4354147	US22547QT711	USTRCE	D				2018/01/31	CS4169534					
SCEXH	U	2014/12/01	2018/06/13	6226094	4191511	US25152EAK82	USOTC	D				2018/05/24						
SCEXH	U	2015/01/13	2018/06/13	6259752	4256240	US42237MAA62	USOTC	D				2018/05/24						
SCEXH	U	2015/04/16	2018/06/13	6343641	4191511	US25152EAK82	USTRCE	D				2018/05/24	DB3673548					
SCEXH	U	2015/04/20	2018/06/13	6348357	4256844	USU42275AA27	USOTC	D				2018/05/24						
SCEXH	U	2015/05/08	2018/06/13	6364822	4505812	US542799AC51	USTRCE	D				2018/05/24	LPTR4243566					
SCEXH	U	2015/08/24	2018/06/13	6490266	757805	US870738AF81	USOTC	D				2016/04/25						
SCEXH	U	2015/08/24	2018/06/13	6490310	1662471	US870738AG64	USOTC	D				2016/04/25						
SCEXH	U	2015/08/24	2018/06/13	6490320	3753277	US870738AK76	USOTC	D				2016/04/25						
SCEXH	U	2015/09/28	2018/06/13	6525670	4035943	US25152RVB67	USOTC	D				2018/05/24						
SCEXH	U	2015/10/16	2018/06/13	6545610	4041136	US85235YAD58	USOTC	D				2018/05/24						
SCEXH	U	2015/10/14	2018/06/13	6542867	4038535	US50048MBK53	USOTC	D				2018/05/24						
SCEXH	U	2015/10/16	2018/06/13	6545607	4040868	US85235XAD75	USOTC	D				2018/05/24						
SCEXH	U	2015/10/20	2018/06/13	6550607	985901	US74432RAH66	USOTC	D				2018/05/24						
SCEXH	U	2015/10/26	2018/06/13	6554287	4631887	US3134G74Z15	USTRCE	D				2018/05/24	FMCC4304181					
SCEXH	U	2015/11/16	2018/06/13	6568887	4644087	US3133EFQD24	USTRCE	D				2018/05/24	FFCD4311173					
SCEXH	U	2016/03/18	2018/06/13	6677749	4730926	US22546VYS95	USTRCE	D				2018/03/26	CS4345620					
SCEXH	U	2016/05/09	2018/06/13	6723040	4769375	US3134G9JL29	USTRCE	D				2018/05/24	FMCC4361999					
SCEXH	U	2016/05/17	2018/06/13	6731435	4777895	US2027A0HU60	USTRCE	D				2018/05/24	CBAU4364244					
SCEXH	U	2016/05/19	2018/06/13	6733998	4780072	US3130A86F56	USTRCE	D				2018/05/24	FHLN4365147					
SCEXH	U	2016/07/20	2018/06/13	6799021	4838217	US22548QCK94	USTRCE	D				2018/05/24	CS4384846					
SCEXH	U	2016/07/22	2018/06/13	6801696	4840400	US3130A8UU58	USTRCE	D				2018/05/24	FHLN4385807					
SCEXH	U	2016/07/26	2018/06/13	6805062	4843439	US3130A8VK67	USTRCE	D				2018/05/24	FHLN4386914					
SCEXH	U	2016/11/01	2018/06/13	6921385	4950461	US960386AJ99	USTRCE	D				2017/08/28	WAB4421856					
SCEXH	U	2016/11/14	2018/06/13	6933464	4961168	US46646E7K24	USTRCE	D				2018/05/24	JPM4426055					
SCEXH	U	2016/11/17	2018/06/13	6937096	4964555	US83368JFB17	USTRCE	D				2018/05/24	SCGL4426614					
SCEXH	U	2016/11/21	2018/06/13	6940369	4967505	US40054KPX80	USTRCE	D				2018/05/24	GS4428248					
SCEXH	U	2016/12/02	2018/06/13	6953263	4979120	US22548QPQ28	USTRCE	D				2018/01/04	CS4432807					
SCEXH	U	2017/01/18	2018/06/13	7001110	5022550	US22548QRY34	USTRCE	D				2018/05/24	CS4445857					
SCEXH	U	2017/01/24	2018/06/13	7007315	5028169	US22549JEA43	USTRCE	D				2018/01/29	CS4447640					
SCEXH	U	2017/02/14	2018/06/13	7030202	5048788	US22549JEP12	USTRCE	D				2018/01/18	CS4455941					
SCEXH	U	2017/02/15	2018/06/13	7031556	5050029	US06741VKU51	USTRCE	D				2018/05/24	BCS4456231					
SCEXH	U	2017/02/20	2018/06/13	7036884	5054946	US40054KWX08	USTRCE	D				2018/05/24	GS4457969					
SCEXH	U	2017/03/17	2018/06/13	7068680	5083617	US22548QWW13	USTRCE	D				2018/03/23	CS4467828					
SCEXH	U	2017/05/09	2018/06/13	7128211	5135349	US83369EWJ53	USTRCE	D				2018/05/24	SCGL4491554					
SCEXH	U	2017/05/08	2018/06/13	7126603	5134166	US83369EWQ96	USTRCE	D				2018/05/24	SCGL4493612					
SCEXH	U	2017/05/08	2018/06/13	7126936	5134390	US46647MBT99	USTRCE	D				2018/05/24	JPM4493601					
SCEXH	U	2017/05/08	2018/06/13	7127091	5134492	US22550B4C41	USTRCE	D				2018/05/24	CS4492961					
SCEXH	U	2017/05/09	2018/06/13	7128341	5135474	US83369EWK27	USTRCE	D				2018/05/24	SCGL4492795					
SCEXH	U	2017/05/12	2018/06/13	7132303	4979120	US22548QPQ28	USNYSE	D				2018/01/04	CS20F					
SCEXH	U	2017/05/15	2018/06/13	7134698	5141057	US05579TXK77	USTRCE	D				2018/05/24	BNPQF4494990					
SCEXH	U	2017/05/15	2018/06/13	7134705	5141061	US05579TXL50	USTRCE	D				2018/05/24	BNPQF4494991					
SCEXH	U	2017/05/15	2018/06/13	7134716	5141069	US05579TXM34	USTRCE	D				2018/05/24	BNPQF4494992					
SCEXH	U	2017/06/08	2018/06/13	7163439	5166135	XS1629865897	USNYSE	D				2018/05/24	T23D					
SCEXH	U	2017/06/08	2018/06/13	7163440	5166136	XS1629866192	USNYSE	D				2018/05/24	T26A					
SCEXH	U	2017/06/08	2018/06/13	7163442	5166138	XS1629866275	USNYSE	D				2018/05/24	T29C					
SCEXH	U	2017/06/08	2018/06/13	7163444	5166143	XS1629866606	USNYSE	D				2018/05/24	T23E					
SCEXH	U	2017/06/15	2018/06/13	7171334	5173179	XS1634248865	USNYSE	D				2018/05/24	T37B					
SCEXH	U	2017/07/10	2018/06/13	7202047	5198578	US22550BCP67	USTRCE	D				2018/01/12	CS4516049					
SCEXH	U	2017/07/10	2018/06/13	7202073	5198613	US22550BCQ41	USTRCE	D				2018/01/16	CS4516083					
SCEXH	U	2017/07/18	2018/06/13	7211698	5207329	US22550BD679	USTRCE	D				2018/01/19	CS4518290					
SCEXH	U	2017/07/31	2018/06/13	7228143	5221048	US00206REL24	USTRCE	D				2018/05/24	T4525197					
SCEXH	U	2017/07/31	2018/06/13	7228144	5221038	US00206REM07	USTRCE	D				2018/05/24	T4525198					
SCEXH	U	2017/07/31	2018/06/13	7228146	5221061	US00206REN89	USTRCE	D				2018/05/24	T4525199					
SCEXH	U	2017/07/31	2018/06/13	7228147	5220905	US00206REP38	USTRCE	D				2018/05/24	T4525200					
SCEXH	U	2017/07/31	2018/06/13	7228149	5220980	US00206REQ11	USTRCE	D				2018/05/24	T4525201					
SCEXH	U	2017/07/31	2018/06/13	7228150	5221074	US00206REJ77	USTRCE	D				2018/05/24	T4525202					
SCEXH	U	2017/08/01	2018/06/13	7229329	5221048	US00206REL24	USNYSE	D				2018/05/24	T24D					
SCEXH	U	2017/08/01	2018/06/13	7229330	5221038	US00206REM07	USNYSE	D				2018/05/24	T27A					
SCEXH	U	2017/08/01	2018/06/13	7229331	5221061	US00206REN89	USNYSE	D				2018/05/24	T37C					
SCEXH	U	2017/08/01	2018/06/13	7229333	5220905	US00206REP38	USNYSE	D				2018/05/24	T50					
SCEXH	U	2017/08/01	2018/06/13	7229335	5220980	US00206REQ11	USNYSE	D				2018/05/24	T58					
SCEXH	U	2017/08/07	2018/06/13	7237016	5230678	US22550BF401	USTRCE	D				2018/02/12	CS4527538					
SCEXH	U	2017/10/02	2018/06/13	7300371	5283046	US00115AAG40	USTRCE	D				2018/05/09	AEP4546286					
SCEXH	U	2017/10/02	2018/06/13	7300379	5286345	USU0081EAC22	USTRCE	D				2018/05/09	AEPT4546288					
SCEXH	U	2017/11/27	2018/06/13	7364179	4986502	US485170AX24	USTRCE	D				2016/07/27	KSU4570015					
SCEXH	I	2018/06/13	2018/06/13	7619000	5571134	US784063AB59	USBND											
SCEXH	I	2018/06/13	2018/06/13	7619739	5571782	US17308FAC32	USTRCE	N					C3295572					
SCEXH	I	2018/06/13	2018/06/13	7618895	1760688	US368288AE65	USBND											
SCEXH	D	2018/05/09	2018/06/13	7568152	5526905		USBND											Duplicate security. Refer secid 5528061.
SCEXH	U	2018/06/06	2018/06/13	7607923	5560917	US3361588037	USOTC	D	100	100	2018/06/05	2018/06/13	FFPPP				P	
SCEXH	D	2018/06/12	2018/06/13	7618486	5570649	US45790VAA89	USBND											
SCEXH	I	2018/06/13	2018/06/13	7619398	5571462	US36186VAA98	USBND											
SCEXH	D	2018/06/12	2018/06/13	7618427	5570597	US103304BN07	USBND											
SCEXH	I	2018/06/13	2018/06/13	7618859	5564064	US3130AEFT27	USBND											
SCEXH	I	2018/06/13	2018/06/13	7618860	5562744	US46647MRW54	USTRCE	N					JPM4641484					
SCEXH	I	2018/06/13	2018/06/13	7618868	5568342	US3130AEG469	USBND											
SCEXH	I	2018/06/13	2018/06/13	7618872	5571002	US313397F305	USBND											
SCEXH	I	2018/06/13	2018/06/13	7618877	5571006	US74253KAA25	USBND											
SCEXH	I	2018/06/13	2018/06/13	7618889	5570245	US36228CWN90	USBND											
SCEXH	I	2018/06/13	2018/06/13	7618913	5571022	US63254AAZ12	USOTC	N										
SCEXH	I	2018/06/13	2018/06/13	7618914	5571040	US75215RAG83	USBND											
SCEXH	I	2018/06/13	2018/06/13	7618918	5571046	US761512AX09	USBND											
SCEXH	I	2018/06/13	2018/06/13	7618935	5571071	US75215RAJ23	USBND											
SCEXH	I	2018/06/13	2018/06/13	7618936	5571070	US76122VAV62	USBND											
SCEXH	I	2018/06/13	2018/06/13	7618947	5571073	US75215RAK95	USBND											
SCEXH	I	2018/06/13	2018/06/13	7618952	5571077	US75215RAL78	USBND											
SCEXH	I	2018/06/13	2018/06/13	7618954	5571082	US75215RAM51	USBND											
SCEXH	I	2018/06/13	2018/06/13	7618956	5571086	US75215RAN35	USBND											
SCEXH	I	2018/06/13	2018/06/13	7618959	5571080	US90349DBA90	USBND											
SCEXH	I	2018/06/13	2018/06/13	7618960	5571085	US90349DAY85	USBND											
SCEXH	I	2018/06/13	2018/06/13	7618962	5571074	US90269GAU58	USBND											
SCEXH	I	2018/06/13	2018/06/13	7618963	5571056	US897896BF24	USBND											
SCEXH	I	2018/06/13	2018/06/13	7618964	5571052	US89640QAA94	USBND											
SCEXH	I	2018/06/13	2018/06/13	7618971	5571098	US75215RAP82	USBND											
SCEXH	I	2018/06/13	2018/06/13	7618974	5571104	US75215RAQ65	USBND											
SCEXH	I	2018/06/13	2018/06/13	7618982	5571109	CA13605RTF96	USBND											
SCEXH	I	2018/06/13	2018/06/13	7618986	5571112	US75874LAB45	USBND											
SCEXH	I	2018/06/13	2018/06/13	7619016	5571152	US760985TC52	USBND											
SCEXH	I	2018/06/13	2018/06/13	7619036	5571173	US75524MCS70	USBND											
SCEXH	I	2018/06/13	2018/06/13	7619069	5571205	US89172HAF47	USBND											
SCEXH	I	2018/06/13	2018/06/13	7619070	5571198	US89171YBK64	USBND											
SCEXH	I	2018/06/13	2018/06/13	7619071	5571206	US75524MCH16	USBND											
SCEXH	I	2018/06/13	2018/06/13	7619072	5571172	US881561LS17	USBND											
SCEXH	I	2018/06/13	2018/06/13	7619073	5571163	US881561JY13	USBND											
SCEXH	I	2018/06/13	2018/06/13	7619074	5571142	US881561JM74	USBND											
SCEXH	I	2018/06/13	2018/06/13	7619075	5571132	US881561FE94	USBND											
SCEXH	I	2018/06/13	2018/06/13	7619077	5571124	US74934YAA91	USBND											
SCEXH	I	2018/06/13	2018/06/13	7619078	5571107	US74928XDB47	USBND											
SCEXH	I	2018/06/13	2018/06/13	7619131	5570597	US103304BN07	USTRCE	N					BYD4644050					
SCEXH	I	2018/06/13	2018/06/13	7619161	5571288	US313385F508	USBND											
SCEXH	I	2018/06/13	2018/06/13	7619195	5561173	US126009AA77	USNYSE	N										
SCEXH	I	2018/06/13	2018/06/13	7619227	5571344	US13161GMF62	USBND											
SCEXH	I	2018/06/13	2018/06/13	7619230	5571351	US3132X02C44	USTRCE	N					AGM4644423					
SCEXH	I	2018/06/13	2018/06/13	7619239	5571359	US13161GNJ75	USBND											
SCEXH	I	2018/06/13	2018/06/13	7619241	5568347	US3130AEG535	USTRCE	N					FHLN4644239					
SCEXH	I	2018/06/13	2018/06/13	7619244	5571039	US3130AEG873	USTRCE	N					FHLN4644439					
SCEXH	I	2018/06/13	2018/06/13	7619246	5571361	US3132X02D27	USTRCE	N					AGM4644451					
SCEXH	I	2018/06/13	2018/06/13	7619247	5571053	US3130AEGA27	USTRCE	N					FHLN4644446					
SCEXH	I	2018/06/13	2018/06/13	7619248	5571243	US3130AEGC82	USTRCE	N					FHLN4644449					
SCEXH	I	2018/06/13	2018/06/13	7619251	5571273	US3130AEGH79	USTRCE	N					FHLN4644474					
SCEXH	I	2018/06/13	2018/06/13	7619252	5571280	US3130AEGJ36	USTRCE	N					FHLN4644475					
SCEXH	I	2018/06/13	2018/06/13	7619253	5571237	US3130AEGM64	USTRCE	N					FHLN4644559					
SCEXH	I	2018/06/13	2018/06/13	7619261	5571372	US3136G4ST12	USTRCE	N					FNMA4644425					
SCEXH	I	2018/06/13	2018/06/13	7619263	5566869	US3130AEG386	USTRCE	N										
SCEXH	I	2018/06/13	2018/06/13	7619264	5571374	US3136G4SU84	USTRCE	N					FNMA4644443					
SCEXH	I	2018/06/13	2018/06/13	7619271	5571382	US46513X5R70	USBND											
SCEXH	I	2018/06/13	2018/06/13	7619277	5571385	US3132X02E00	USTRCE	N					AGM4644692					
SCEXH	I	2018/06/13	2018/06/13	7619281	5571390	US341081FS11	USTRCE	N					NEE4644693					
SCEXH	I	2018/06/13	2018/06/13	7619282	5499724	XS1807408486	USTRCE	N					ALHT4644410					
SCEXH	I	2018/06/13	2018/06/13	7619288	5571397	USG7681LSW83	USTRCE	N					RY4644424					
SCEXH	I	2018/06/13	2018/06/13	7619291	5571401	US46513X5V82	USBND											
SCEXH	I	2018/06/13	2018/06/13	7619292	5571400	US015271AM12	USTRCE	N					ARE4644601					
SCEXH	I	2018/06/13	2018/06/13	7619295	5571406	US83369FAF45	USTRCE	N					SCGL4644411					
SCEXH	I	2018/06/13	2018/06/13	7619297	5571409	US015271AN94	USTRCE	N					ARE4644602					
SCEXH	I	2018/06/13	2018/06/13	7619299	5571410	US982CON9V36	USBND											
SCEXH	I	2018/06/13	2018/06/13	7619300	5571394	US982CON9U52	USBND											
SCEXH	I	2018/06/13	2018/06/13	7619303	5571402	US982CON9Q41	USBND											
SCEXH	I	2018/06/13	2018/06/13	7619305	5571414	US83369E4F43	USTRCE	N					SCGL4644438					
SCEXH	I	2018/06/13	2018/06/13	7619308	5571058	US3133EJSF75	USTRCE	N					FFCD4644484					
SCEXH	I	2018/06/13	2018/06/13	7619310	5571075	US3133EJSG58	USTRCE	N					FFCD4644485					
SCEXH	I	2018/06/13	2018/06/13	7619312	5571416	US83369E4G26	USTRCE	N					SCGL4644596					
SCEXH	I	2018/06/13	2018/06/13	7619314	5571059	US3133EJSJ97	USTRCE	N					FFCD4644487					
SCEXH	I	2018/06/13	2018/06/13	7619316	5571417	US46513X6V73	USBND											
SCEXH	I	2018/06/13	2018/06/13	7619317	5571037	US3133EJSA88	USTRCE	N					FFCD4644558					
SCEXH	I	2018/06/13	2018/06/13	7619318	5571043	US3133EJSB61	USTRCE	N					FFCD4644560					
SCEXH	I	2018/06/13	2018/06/13	7619322	5571424	US83369E4H09	USTRCE	N					SCGL4644600					
SCEXH	I	2018/06/13	2018/06/13	7619325	5571426	US83369E4J64	USTRCE	N					SCGL4644642					
SCEXH	I	2018/06/13	2018/06/13	7619332	5571061	US3133EJSC45	USTRCE	N					FFCD4644561					
SCEXH	I	2018/06/13	2018/06/13	7619336	5571062	US3133EJSD28	USTRCE	N					FFCD4644562					
SCEXH	I	2018/06/13	2018/06/13	7619337	5571068	US3133EJSE01	USTRCE	N					FFCD4644563					
SCEXH	I	2018/06/13	2018/06/13	7619343	5571441	US46513X7V64	USBND											
SCEXH	I	2018/06/13	2018/06/13	7619345	5571438	US22549JUC25	USTRCE	N					CS4644436					
SCEXH	I	2018/06/13	2018/06/13	7619348	5571446	US3134GSQJ79	USTRCE	N					FMCC4644422					
SCEXH	I	2018/06/13	2018/06/13	7619354	5571453	US3134GSQL26	USTRCE	N					FMCC4644432					
SCEXH	I	2018/06/13	2018/06/13	7619359	5571460	US22549JUE80	USTRCE	N					CS4644440					
SCEXH	I	2018/06/13	2018/06/13	7619368	5571466	USU13905AD31	USBND											
SCEXH	I	2018/06/13	2018/06/13	7619369	5571470	US22549M7157	USTRCE	N					CS4644441					
SCEXH	I	2018/06/13	2018/06/13	7619372	5571450	US06746XFE85	USTRCE	N					BCS4644712					
SCEXH	I	2018/06/13	2018/06/13	7619373	5571459	US05583RKK94	USTRCE	N					BNPQF4644585					
SCEXH	I	2018/06/13	2018/06/13	7619374	5571469	US87161C6003	USOTC	N	100	100	2018/06/12		SYNVP				P	
SCEXH	I	2018/06/13	2018/06/13	7619375	5571468	US05583RK458	USTRCE	N					BNPQF4644586					
SCEXH	I	2018/06/13	2018/06/13	7619376	5571471	US05583RKY98	USTRCE	N					BNPQF4644588					
SCEXH	I	2018/06/13	2018/06/13	7619378	5571475	US801060AC87	USTRCE	N					SNY4644649					
SCEXH	I	2018/06/13	2018/06/13	7619370	5571469	US87161C6003	USNYSE	N					SNVPRD				L	
SCEXH	I	2018/06/13	2018/06/13	7619387	5571482	US22549JTX80	USTRCE	N					CS4644444					
SCEXH	I	2018/06/13	2018/06/13	7619392	5571488	US801060AD60	USTRCE	N					SNY4644650					
SCEXH	I	2018/06/13	2018/06/13	7619404	5571483	US63857QAB05	USBND											
SCEXH	I	2018/06/13	2018/06/13	7619402	5571490	US63857QAA22	USBND											
SCEXH	I	2018/06/13	2018/06/13	7619406	5571497	US97652QBL23	USBND											
SCEXH	I	2018/06/13	2018/06/13	7619408	5571506	US22549JTV25	USTRCE	N					CS4644445					
SCEXH	I	2018/06/13	2018/06/13	7619418	5571515	US404280BT50	USTRCE	N					HBC4644644					
SCEXH	I	2018/06/13	2018/06/13	7619431	5571524	US06746XE584	USTRCE	N					BCS4644437					
SCEXH	I	2018/06/13	2018/06/13	7619432	5571517	US06746XF995	USTRCE	N					BCS4644598					
SCEXH	I	2018/06/13	2018/06/13	7619436	5571526	USU40462AD21	USBND											
SCEXH	I	2018/06/13	2018/06/13	7619437	5570649	US45790VAA89	USTRCE	N					I4644409					
SCEXH	I	2018/06/13	2018/06/13	7619439	5571530	US496902AQ09	USTRCE	N					KGC4514093					
SCEXH	I	2018/06/13	2018/06/13	7619441	5571532	US35922QAA13	USTRCE	N					FOEI4644429					
SCEXH	I	2018/06/13	2018/06/13	7619442	5571535	US35922QAB95	USTRCE	N					FOEI4644430					
SCEXH	I	2018/06/13	2018/06/13	7619443	5571537	US13063DGA00	USTRCE	N										
SCEXH	I	2018/06/13	2018/06/13	7619457	5571022	US63254AAZ12	USTRCE	N					NABZ4644031					
SCEXH	I	2018/06/13	2018/06/13	7619471	5571563	US313313B236	USBND											
SCEXH	I	2018/06/13	2018/06/13	7619472	5571565	US63254ABA51	USTRCE	N					NABZ4644032					
SCEXH	I	2018/06/13	2018/06/13	7619478	5571570	US48129MZS87	USTRCE	N					JPM4644413					
SCEXH	I	2018/06/13	2018/06/13	7619511	5571594	US17290QAD79	USBND											
SCEXH	I	2018/06/13	2018/06/13	7619515	5571596	US61768C5B98	USTRCE	N					61768C5B9					
SCEXH	I	2018/06/13	2018/06/13	7619602	5571515	US404280BT50	USNYSE	N										
SCEXH	I	2018/06/13	2018/06/13	7619642	5571049	US3130AEG956	USBND											
SCEXH	I	2018/06/13	2018/06/13	7619644	5571064	US3130AEGB00	USBND											
SCEXH	I	2018/06/13	2018/06/13	7619645	5571072	US3130AEGD65	USBND											
SCEXH	I	2018/06/13	2018/06/13	7619647	5571089	US3130AEGE49	USBND											
SCEXH	I	2018/06/13	2018/06/13	7619649	5571114	US3130AEGF14	USBND											
SCEXH	I	2018/06/13	2018/06/13	7619650	5571126	US3130AEGG96	USBND											
SCEXH	I	2018/06/13	2018/06/13	7619652	5571212	US3130AEGK09	USBND											
SCEXH	I	2018/06/13	2018/06/13	7619654	5571222	US3130AEGL81	USBND											
SCEXH	I	2018/06/13	2018/06/13	7619694	5453785	XS1778929478	USTRCE	N					JSCG4607533					
SCEXH	I	2018/06/13	2018/06/13	7619721	5571779	US69342WAB72	USBND											
SCEXH	I	2018/06/13	2018/06/13	7619725	5571789	US45660LVZ92	USBND											
SCEXH	I	2018/06/13	2018/06/13	7619727	5571793	US75524MCG33	USBND											
SCEXH	I	2018/06/13	2018/06/13	7619735	5560917	US3361588037	USNYSE	N	100	100	2018/06/13		FRCPRI				L	
SCEXH	I	2018/06/13	2018/06/13	7619768	5571832	US203658AH22	USBND											
SCEXH	I	2018/06/13	2018/06/13	7619769	5571833	US75116CBD74	USBND											
SCEXH	I	2018/06/13	2018/06/13	7619770	170738	US35177PAL13	USNASD	N										
SCEXH	I	2018/06/13	2018/06/13	7619785	5571847	US74958EAV83	USBND											
SCEXH	I	2018/06/13	2018/06/13	7619791	5571852	US22845UAA43	USBND											
SCEXH	I	2018/06/13	2018/06/13	7620316	5572354		USBND											
SCEXH	I	2018/06/13	2018/06/13	7620431	5572456		USBND											
SCEXH	I	2018/06/13	2018/06/13	7620487	5572504	US33736XAN93	USBND											
EDI_ENDOFFILE
