EDI_PVRD_20180613
TableName	Actflag	Created	Changed	PvRdID	SecID	ISIN	EffectiveDate	CurenCD	OldParValue	NewParValue	EventType	Notes
PVRD	D	2010/07/09	2018/06/13	66672	751086	USG72263AB59	2007/08/07	USD	150000		CORR	
PVRD	I	2018/06/13	2018/06/13	320970	5560990	US3132X0Z616	2018/06/12	USD		1000	CORR	
PVRD	I	2018/06/13	2018/06/13	320975	5570154	US3134GSQA60	2018/06/13	USD		1000	CORR	
PVRD	I	2018/06/13	2018/06/13	320981	5568733	US3134GSQE82	2018/06/13	USD		1000	CORR	
PVRD	I	2018/06/13	2018/06/13	320999	5568725	US3134GSQB44	2018/06/13	USD		1000	CORR	
PVRD	I	2018/06/13	2018/06/13	321009	5568763	US3134GSQF57	2018/06/13	USD		1000	CORR	
PVRD	I	2018/06/13	2018/06/13	321017	5568730	US3134GSQC27	2018/06/13	USD		1000	CORR	
PVRD	I	2018/06/13	2018/06/13	321019	5552135	US3130AEE894	2018/06/12	USD		10000	CORR	
PVRD	I	2018/06/13	2018/06/13	321022	5553719	US3130AEEK27	2018/06/12	USD		10000	CORR	
PVRD	I	2018/06/13	2018/06/13	321026	5560698	US3130AEFF23	2018/06/12	USD		10000	CORR	
PVRD	I	2018/06/13	2018/06/13	321033	5562127	US3130AEFL90	2018/06/12	USD		1000	CORR	
PVRD	I	2018/06/13	2018/06/13	321039	5564054	US3130AEFR60	2018/06/12	USD		10000	CORR	
PVRD	I	2018/06/13	2018/06/13	321045	5564060	US3130AEFS44	2018/06/12	USD		10000	CORR	
PVRD	I	2018/06/13	2018/06/13	321050	5562113	US3130AEFJ45	2018/06/12	USD		10000	CORR	
PVRD	I	2018/06/13	2018/06/13	321066	5566869	US3130AEG386	2018/06/12	USD		10000	CORR	
PVRD	I	2018/06/13	2018/06/13	321091	5230678	US22550BF401	2017/08/09	USD		1000	CORR	
PVRD	I	2018/06/13	2018/06/13	321092	5567197	US38150A7J85	2018/06/12	USD		1000	CORR	
PVRD	I	2018/06/13	2018/06/13	321093	5568747	US69351UAV52	2018/06/13	USD		1000	CORR	
PVRD	I	2018/06/13	2018/06/13	321094	5571515	US404280BT50	2018/06/12	USD		200000	CORR	
PVRD	I	2018/06/13	2018/06/13	321094	5571515	US404280BT50	2018/06/12	USD		200000	CORR	
PVRD	I	2018/06/13	2018/06/13	321095	5571400	US015271AM12	2018/06/12	USD		2000	CORR	
PVRD	I	2018/06/13	2018/06/13	321098	5568859	US46647PAT30	2018/06/13	USD		2000	CORR	
PVRD	I	2018/06/13	2018/06/13	321099	5568870	US46647PAS56	2018/06/12	USD		2000	CORR	
PVRD	I	2018/06/13	2018/06/13	321102	5559842	US14912HUL22	2018/06/13	USD		1000	CORR	
PVRD	I	2018/06/13	2018/06/13	321102	5559842	US14912HUL22	2018/06/13	USD		1000	CORR	
PVRD	I	2018/06/13	2018/06/13	321104	5559858	US14912HUM05	2018/06/13	USD		1000	CORR	
PVRD	I	2018/06/13	2018/06/13	321104	5559858	US14912HUM05	2018/06/13	USD		1000	CORR	
PVRD	I	2018/06/13	2018/06/13	321114	5571409	US015271AN94	2018/06/13	USD		2000	CORR	
PVRD	I	2018/06/13	2018/06/13	321118	5083617	US22548QWW13	2017/03/22	USD		1000	CORR	
PVRD	I	2018/06/13	2018/06/13	321129	5048788	US22549JEP12	2017/02/17	USD		1000	CORR	
PVRD	I	2018/06/13	2018/06/13	321141	5198578	US22550BCP67	2017/07/11	USD		1000	CORR	
PVRD	I	2018/06/13	2018/06/13	321143	5207329	US22550BD679	2017/07/18	USD		1000	CORR	
PVRD	I	2018/06/13	2018/06/13	321144	5198613	US22550BCQ41	2017/07/12	USD		1000	CORR	
PVRD	I	2018/06/13	2018/06/13	321213	5346734	US91481CAB63	2017/12/13	USD		1000	CORR	
PVRD	I	2018/06/13	2018/06/13	321253	5571390	US341081FS11	2018/06/13	USD		1000	CORR	
PVRD	I	2018/06/13	2018/06/13	321256	5571475	US801060AC87	2018/06/13	USD		2000	CORR	
PVRD	I	2018/06/13	2018/06/13	321259	5571488	US801060AD60	2018/06/13	USD		2000	CORR	
PVRD	I	2018/06/13	2018/06/13	321263	5442031	US6325C0DV06	2018/03/01	USD		250000	CORR	
EDI_ENDOFFILE
