EDI_BNDLQ_20160902
TableName	Actflag	Created	Changed	ISIN	SecID	RdID	BndlqID	CurenCD	LiquidationPrice	LiqSeq	Notes
BNDLQ	I	2016/08/10	2016/08/10	US52517P5K34	4287125	4039836	2	USD	6.79759	9	As on 10/08/2016<BR>-------------------------<BR><BR>NOTICE TO HOLDERS OF SENIOR NOTES OF LEHMAN BROTHERS HOLDINGS INC. (SEE ATTACHED EXHIBIT A   DISTRIBUTION SCHEDULE LISTING CUSIP NOS.) RE: MARCH 31, 2016 PLAN DISTRIBUTION TO SENIOR NOTEHOLDER<BR><BR>CUSIP               Replacement  CUSIP           Unrounded Cash / USD1,000 of DTC Original Principal/Unit<BR>52517P5K3          525ESC6K0                       6.797599<BR>
BNDLQ	I	2016/08/10	2016/08/10	US52517P5K34	4287125	4039890	3	USD	31.82632	7	As on 10/08/2016<BR>-------------------------<BR><BR>NOTICE TO HOLDERS OF SENIOR NOTES OF LEHMAN BROTHERS HOLDINGS INC. (SEE ATTACHED EXHIBIT A   DISTRIBUTION SCHEDULE LISTING CUSIP NOS.) RE: APRIL 2, 2015 PLAN DISTRIBUTION TO SENIOR NOTEHOLDER<BR><BR>CUSIP               Replacement  CUSIP           Unrounded Cash / USD1,000 of DTC Original Principal/Unit<BR>52517P5K3          525ESC6K0                      31.826329
BNDLQ	I	2016/08/10	2016/08/10	US52517PQ202	4115639	4039973	4	USD	32.01017	7	As on 10/08/2016<BR>-------------------------<BR><BR>NOTICE TO HOLDERS OF SENIOR NOTES OF LEHMAN BROTHERS HOLDINGS INC. (SEE ATTACHED EXHIBIT A   DISTRIBUTION SCHEDULE LISTING CUSIP NOS.) RE: APRIL 2, 2015 PLAN DISTRIBUTION TO SENIOR NOTEHOLDER<BR><BR>CUSIP               Replacement  CUSIP           Unrounded Cash / USD1,000 of DTC Original Principal/Unit<BR>52517PQ20        525ESC2N8                      32.010174
BNDLQ	I	2016/08/10	2016/08/10	US52517PQ202	4115639	4039977	5	USD	6.83686	9	As on 10/08/2016<BR>-------------------------<BR><BR>NOTICE TO HOLDERS OF SENIOR NOTES OF LEHMAN BROTHERS HOLDINGS INC. (SEE ATTACHED EXHIBIT A   DISTRIBUTION SCHEDULE LISTING CUSIP NOS.) RE: MARCH 31, 2016 PLAN DISTRIBUTION TO SENIOR NOTEHOLDER<BR><BR>CUSIP               Replacement  CUSIP           Unrounded Cash / USD1,000 of DTC Original Principal/Unit<BR>52517PQ20      525ESC2N8                            6.836866
BNDLQ	I	2016/08/10	2016/08/10	US52517PC251	988077	4039981	6	USD	6.82588	9	As on 10/08/2016<BR>-------------------------<BR><BR>NOTICE TO HOLDERS OF SENIOR NOTES OF LEHMAN BROTHERS HOLDINGS INC. (SEE ATTACHED EXHIBIT A   DISTRIBUTION SCHEDULE LISTING CUSIP NOS.) RE: MARCH 31, 2016 PLAN DISTRIBUTION TO SENIOR NOTEHOLDER<BR><BR>CUSIP               Replacement  CUSIP           Unrounded Cash / USD1,000 of DTC Original Principal/Unit<BR>52517PC25                525ESC125                    6.825880<BR>
BNDLQ	I	2016/08/10	2016/08/10	US52517PC251	988077	4039981	6	USD	6.82588	9	As on 10/08/2016<BR>-------------------------<BR><BR>NOTICE TO HOLDERS OF SENIOR NOTES OF LEHMAN BROTHERS HOLDINGS INC. (SEE ATTACHED EXHIBIT A   DISTRIBUTION SCHEDULE LISTING CUSIP NOS.) RE: MARCH 31, 2016 PLAN DISTRIBUTION TO SENIOR NOTEHOLDER<BR><BR>CUSIP               Replacement  CUSIP           Unrounded Cash / USD1,000 of DTC Original Principal/Unit<BR>52517PC25                525ESC125                    6.825880<BR>
BNDLQ	I	2016/08/10	2016/08/10	US52517PC251	988077	4039982	7	USD	31.95873	7	As on 10/08/2016<BR>-------------------------<BR><BR>NOTICE TO HOLDERS OF SENIOR NOTES OF LEHMAN BROTHERS HOLDINGS INC. (SEE ATTACHED EXHIBIT A   DISTRIBUTION SCHEDULE LISTING CUSIP NOS.) RE: MARCH 31, 2016 PLAN DISTRIBUTION TO SENIOR NOTEHOLDER<BR><BR>CUSIP               Replacement  CUSIP           Unrounded Cash / USD1,000 of DTC Original Principal/Unit<BR>52517PC25         525ESC125                        31.958737<BR>
BNDLQ	I	2016/08/10	2016/08/10	US52517PC251	988077	4039982	7	USD	31.95873	7	As on 10/08/2016<BR>-------------------------<BR><BR>NOTICE TO HOLDERS OF SENIOR NOTES OF LEHMAN BROTHERS HOLDINGS INC. (SEE ATTACHED EXHIBIT A   DISTRIBUTION SCHEDULE LISTING CUSIP NOS.) RE: MARCH 31, 2016 PLAN DISTRIBUTION TO SENIOR NOTEHOLDER<BR><BR>CUSIP               Replacement  CUSIP           Unrounded Cash / USD1,000 of DTC Original Principal/Unit<BR>52517PC25         525ESC125                        31.958737<BR>
BNDLQ	I	2016/08/10	2016/08/10	US5252M0CF29	1100573	4039985	8	USD	31.83359	7	As on 10/08/2016<BR>-------------------------<BR><BR>NOTICE TO HOLDERS OF SENIOR NOTES OF LEHMAN BROTHERS HOLDINGS INC. (SEE ATTACHED EXHIBIT A   DISTRIBUTION SCHEDULE LISTING CUSIP NOS.) RE: APRIL 2, 2015 PLAN DISTRIBUTION TO SENIOR NOTEHOLDER<BR><BR>CUSIP               Replacement  CUSIP           Unrounded Cash / USD1,000 of DTC Original Principal/Unit<BR>5252M0CF2           525ESCIG6                      31.833590
BNDLQ	I	2016/08/10	2016/08/10	US5252M0CF29	1100573	4039992	9	USD	6.79915	9	As on 10/08/2016<BR>-------------------------<BR><BR>NOTICE TO HOLDERS OF SENIOR NOTES OF LEHMAN BROTHERS HOLDINGS INC. (SEE ATTACHED EXHIBIT A   DISTRIBUTION SCHEDULE LISTING CUSIP NOS.) RE: MARCH 31, 2016 PLAN DISTRIBUTION TO SENIOR NOTEHOLDER<BR><BR>CUSIP               Replacement  CUSIP           Unrounded Cash / USD1,000 of DTC Original Principal/Unit<BR>5252M0CF2              525ESCIG6                      6.799150<BR>
BNDLQ	I	2016/08/23	2016/08/23	US5252M0BZ91	962548	4054496	10	USD	32.07994	7	As on 10/08/2016<BR>-------------------------<BR><BR>NOTICE TO HOLDERS OF SENIOR NOTES OF LEHMAN BROTHERS HOLDINGS INC. (SEE ATTACHED EXHIBIT A   DISTRIBUTION SCHEDULE LISTING CUSIP NOS.) RE: APRIL 2, 2015 PLAN DISTRIBUTION TO SENIOR NOTEHOLDER<BR><BR>SEVENTH PLAN DISTRIBUTION TO SENIOR NOTEHOLDERS<BR><BR>As indicated in the Debtors  Notice dated March 26, 2015 (the  Seventh Distribution Notice ),5 on April 2, 2015, the Debtors will commence the seventh distribution under the Plan to the Trustee on behalf of the Senior Noteholders. The Seventh Distribution Notice states that the amount distributed will constitute 3.182633% of the total allowed amount of the Senior Noteholder Claim. The calculation of the distribution to Senior Noteholders under the Plan results in an aggregate cash amount of USD1,555,119,895.63 (the  Seventh Plan Distribution ). After<BR>giving effect to the Seventh Plan Distribution, the cumulative distributions made by the Debtors to the Trustee on behalf of the Senior Noteholders will constitute 34.738339% of the total allowed amount of the Senior Noteholder Claim<BR><BR>CUSIP               Replacement  CUSIP           Unrounded Cash / USD1,000 of DTC Original Principal/Unit<BR>5252M0BZ9  525ESCIB7                    32.079945
BNDLQ	U	2016/08/23	2016/08/23	US52517P2K60	951412	4054499	11	USD	31.87850	7	As on 10/08/2016<BR>-------------------------<BR><BR>NOTICE TO HOLDERS OF SENIOR NOTES OF LEHMAN BROTHERS HOLDINGS INC. (SEE ATTACHED EXHIBIT A   DISTRIBUTION SCHEDULE LISTING CUSIP NOS.) RE: APRIL 2, 2015 PLAN DISTRIBUTION TO SENIOR NOTEHOLDER<BR><BR>SEVENTH PLAN DISTRIBUTION TO SENIOR NOTEHOLDERS<BR><BR>As indicated in the Debtors  Notice dated March 26, 2015 (the  Seventh Distribution Notice ),5 on April 2, 2015, the Debtors will commence the seventh distribution under the Plan to the Trustee on behalf of the Senior Noteholders. The Seventh Distribution Notice states that the amount distributed will constitute 3.182633% of the total allowed amount of the Senior Noteholder Claim. The calculation of the distribution to Senior Noteholders under the Plan results in an aggregate cash amount of USD1,555,119,895.63 (the  Seventh Plan Distribution ). After<BR>giving effect to the Seventh Plan Distribution, the cumulative distributions made by the Debtors to the Trustee on behalf of the Senior Noteholders will constitute 34.738339% of the total allowed amount of the Senior Noteholder Claim<BR><BR>CUSIP               Replacement  CUSIP           Unrounded Cash / USD1,000 of DTC Original Principal/Unit<BR>52517P2K6  525ESC0B6                   32.079945
BNDLQ	I	2016/08/23	2016/08/23	US52517P5X54	969138	4054506	12	USD	32.75265	7	As on 10/08/2016<BR>-------------------------<BR><BR>NOTICE TO HOLDERS OF SENIOR NOTES OF LEHMAN BROTHERS HOLDINGS INC. (SEE ATTACHED EXHIBIT A   DISTRIBUTION SCHEDULE LISTING CUSIP NOS.) RE: APRIL 2, 2015 PLAN DISTRIBUTION TO SENIOR NOTEHOLDER<BR><BR>SEVENTH PLAN DISTRIBUTION TO SENIOR NOTEHOLDERS<BR><BR>As indicated in the Debtors  Notice dated March 26, 2015 (the  Seventh Distribution Notice ),5 on April 2, 2015, the Debtors will commence the seventh distribution under the Plan to the Trustee on behalf of the Senior Noteholders. The Seventh Distribution Notice states that the amount distributed will constitute 3.182633% of the total allowed amount of the Senior Noteholder Claim. The calculation of the distribution to Senior Noteholders under the Plan results in an aggregate cash amount of USD1,555,119,895.63 (the  Seventh Plan Distribution ). After<BR>giving effect to the Seventh Plan Distribution, the cumulative distributions made by the Debtors to the Trustee on behalf of the Senior Noteholders will constitute 34.738339% of the total allowed amount of the Senior Noteholder Claim<BR><BR>CUSIP               Replacement  CUSIP           Unrounded Cash / USD1,000 of DTC Original Principal/Unit<BR>52517P5X5  525ESC6X2                    32.752652
BNDLQ	I	2016/08/23	2016/08/23	US5252M0FD44	982934	4054549	13	USD	32.68332	7	As on 10/08/2016<BR>-------------------------<BR><BR>NOTICE TO HOLDERS OF SENIOR NOTES OF LEHMAN BROTHERS HOLDINGS INC. (SEE ATTACHED EXHIBIT A   DISTRIBUTION SCHEDULE LISTING CUSIP NOS.) RE: APRIL 2, 2015 PLAN DISTRIBUTION TO SENIOR NOTEHOLDER<BR><BR>SEVENTH PLAN DISTRIBUTION TO SENIOR NOTEHOLDERS<BR><BR>As indicated in the Debtors  Notice dated March 26, 2015 (the  Seventh Distribution Notice ),5 on April 2, 2015, the Debtors will commence the seventh distribution under the Plan to the Trustee on behalf of the Senior Noteholders. The Seventh Distribution Notice states that the amount distributed will constitute 3.182633% of the total allowed amount of the Senior Noteholder Claim. The calculation of the distribution to Senior Noteholders under the Plan results in an aggregate cash amount of USD1,555,119,895.63 (the  Seventh Plan Distribution ). After<BR>giving effect to the Seventh Plan Distribution, the cumulative distributions made by the Debtors to the Trustee on behalf of the Senior Noteholders will constitute 34.738339% of the total allowed amount of the Senior Noteholder Claim<BR><BR>CUSIP               Replacement  CUSIP           Unrounded Cash / USD1,000 of DTC Original Principal/Unit<BR>5252M0FD4  525ESCKW8                    32.683320
BNDLQ	I	2016/08/23	2016/08/23	US5252M0FD44	982934	4054549	13	USD	32.68332	7	As on 10/08/2016<BR>-------------------------<BR><BR>NOTICE TO HOLDERS OF SENIOR NOTES OF LEHMAN BROTHERS HOLDINGS INC. (SEE ATTACHED EXHIBIT A   DISTRIBUTION SCHEDULE LISTING CUSIP NOS.) RE: APRIL 2, 2015 PLAN DISTRIBUTION TO SENIOR NOTEHOLDER<BR><BR>SEVENTH PLAN DISTRIBUTION TO SENIOR NOTEHOLDERS<BR><BR>As indicated in the Debtors  Notice dated March 26, 2015 (the  Seventh Distribution Notice ),5 on April 2, 2015, the Debtors will commence the seventh distribution under the Plan to the Trustee on behalf of the Senior Noteholders. The Seventh Distribution Notice states that the amount distributed will constitute 3.182633% of the total allowed amount of the Senior Noteholder Claim. The calculation of the distribution to Senior Noteholders under the Plan results in an aggregate cash amount of USD1,555,119,895.63 (the  Seventh Plan Distribution ). After<BR>giving effect to the Seventh Plan Distribution, the cumulative distributions made by the Debtors to the Trustee on behalf of the Senior Noteholders will constitute 34.738339% of the total allowed amount of the Senior Noteholder Claim<BR><BR>CUSIP               Replacement  CUSIP           Unrounded Cash / USD1,000 of DTC Original Principal/Unit<BR>5252M0FD4  525ESCKW8                    32.683320
BNDLQ	I	2016/08/23	2016/08/23	US52517PW317	956608	4054553	14	USD	32.03955	7	As on 10/08/2016<BR>-------------------------<BR><BR>NOTICE TO HOLDERS OF SENIOR NOTES OF LEHMAN BROTHERS HOLDINGS INC. (SEE ATTACHED EXHIBIT A   DISTRIBUTION SCHEDULE LISTING CUSIP NOS.) RE: APRIL 2, 2015 PLAN DISTRIBUTION TO SENIOR NOTEHOLDER<BR><BR>SEVENTH PLAN DISTRIBUTION TO SENIOR NOTEHOLDERS<BR><BR>As indicated in the Debtors  Notice dated March 26, 2015 (the  Seventh Distribution Notice ),5 on April 2, 2015, the Debtors will commence the seventh distribution under the Plan to the Trustee on behalf of the Senior Noteholders. The Seventh Distribution Notice states that the amount distributed will constitute 3.182633% of the total allowed amount of the Senior Noteholder Claim. The calculation of the distribution to Senior Noteholders under the Plan results in an aggregate cash amount of USD1,555,119,895.63 (the  Seventh Plan Distribution ). After<BR>giving effect to the Seventh Plan Distribution, the cumulative distributions made by the Debtors to the Trustee on behalf of the Senior Noteholders will constitute 34.738339% of the total allowed amount of the Senior Noteholder Claim<BR><BR>CUSIP               Replacement  CUSIP           Unrounded Cash / USD1,000 of DTC Original Principal/Unit<BR>52517PW31  525ESC4L0                   32.039553
BNDLQ	I	2016/08/23	2016/08/23	US52517PR788	959901	4054558	15	USD	31.99442	7	As on 10/08/2016<BR>-------------------------<BR><BR>NOTICE TO HOLDERS OF SENIOR NOTES OF LEHMAN BROTHERS HOLDINGS INC. (SEE ATTACHED EXHIBIT A   DISTRIBUTION SCHEDULE LISTING CUSIP NOS.) RE: APRIL 2, 2015 PLAN DISTRIBUTION TO SENIOR NOTEHOLDER<BR><BR>SEVENTH PLAN DISTRIBUTION TO SENIOR NOTEHOLDERS<BR><BR>As indicated in the Debtors  Notice dated March 26, 2015 (the  Seventh Distribution Notice ),5 on April 2, 2015, the Debtors will commence the seventh distribution under the Plan to the Trustee on behalf of the Senior Noteholders. The Seventh Distribution Notice states that the amount distributed will constitute 3.182633% of the total allowed amount of the Senior Noteholder Claim. The calculation of the distribution to Senior Noteholders under the Plan results in an aggregate cash amount of USD1,555,119,895.63 (the  Seventh Plan Distribution ). After<BR>giving effect to the Seventh Plan Distribution, the cumulative distributions made by the Debtors to the Trustee on behalf of the Senior Noteholders will constitute 34.738339% of the total allowed amount of the Senior Noteholder Claim<BR><BR>CUSIP               Replacement  CUSIP           Unrounded Cash / USD1,000 of DTC Original Principal/Unit<BR>52517PR78          525ESC2X6                   31.994427
BNDLQ	I	2016/08/23	2016/08/23	US52517PR788	959901	4054558	15	USD	31.99442	7	As on 10/08/2016<BR>-------------------------<BR><BR>NOTICE TO HOLDERS OF SENIOR NOTES OF LEHMAN BROTHERS HOLDINGS INC. (SEE ATTACHED EXHIBIT A   DISTRIBUTION SCHEDULE LISTING CUSIP NOS.) RE: APRIL 2, 2015 PLAN DISTRIBUTION TO SENIOR NOTEHOLDER<BR><BR>SEVENTH PLAN DISTRIBUTION TO SENIOR NOTEHOLDERS<BR><BR>As indicated in the Debtors  Notice dated March 26, 2015 (the  Seventh Distribution Notice ),5 on April 2, 2015, the Debtors will commence the seventh distribution under the Plan to the Trustee on behalf of the Senior Noteholders. The Seventh Distribution Notice states that the amount distributed will constitute 3.182633% of the total allowed amount of the Senior Noteholder Claim. The calculation of the distribution to Senior Noteholders under the Plan results in an aggregate cash amount of USD1,555,119,895.63 (the  Seventh Plan Distribution ). After<BR>giving effect to the Seventh Plan Distribution, the cumulative distributions made by the Debtors to the Trustee on behalf of the Senior Noteholders will constitute 34.738339% of the total allowed amount of the Senior Noteholder Claim<BR><BR>CUSIP               Replacement  CUSIP           Unrounded Cash / USD1,000 of DTC Original Principal/Unit<BR>52517PR78          525ESC2X6                   31.994427
BNDLQ	I	2016/08/23	2016/08/23	US52517PSC67	257025	4054562	16	USD	32.16017	7	As on 10/08/2016<BR>-------------------------<BR><BR>NOTICE TO HOLDERS OF SENIOR NOTES OF LEHMAN BROTHERS HOLDINGS INC. (SEE ATTACHED EXHIBIT A   DISTRIBUTION SCHEDULE LISTING CUSIP NOS.) RE: APRIL 2, 2015 PLAN DISTRIBUTION TO SENIOR NOTEHOLDER<BR><BR>SEVENTH PLAN DISTRIBUTION TO SENIOR NOTEHOLDERS<BR><BR>As indicated in the Debtors  Notice dated March 26, 2015 (the  Seventh Distribution Notice ),5 on April 2, 2015, the Debtors will commence the seventh distribution under the Plan to the Trustee on behalf of the Senior Noteholders. The Seventh Distribution Notice states that the amount distributed will constitute 3.182633% of the total allowed amount of the Senior Noteholder Claim. The calculation of the distribution to Senior Noteholders under the Plan results in an aggregate cash amount of USD1,555,119,895.63 (the  Seventh Plan Distribution ). After<BR>giving effect to the Seventh Plan Distribution, the cumulative distributions made by the Debtors to the Trustee on behalf of the Senior Noteholders will constitute 34.738339% of the total allowed amount of the Senior Noteholder Claim<BR><BR>CUSIP               Replacement  CUSIP           Unrounded Cash / USD1,000 of DTC Original Principal/Unit<BR>52517PSC6               525ESC3F4                 32.160174
BNDLQ	I	2016/08/23	2016/08/23	US52517PSC67	257025	4054562	16	USD	32.16017	7	As on 10/08/2016<BR>-------------------------<BR><BR>NOTICE TO HOLDERS OF SENIOR NOTES OF LEHMAN BROTHERS HOLDINGS INC. (SEE ATTACHED EXHIBIT A   DISTRIBUTION SCHEDULE LISTING CUSIP NOS.) RE: APRIL 2, 2015 PLAN DISTRIBUTION TO SENIOR NOTEHOLDER<BR><BR>SEVENTH PLAN DISTRIBUTION TO SENIOR NOTEHOLDERS<BR><BR>As indicated in the Debtors  Notice dated March 26, 2015 (the  Seventh Distribution Notice ),5 on April 2, 2015, the Debtors will commence the seventh distribution under the Plan to the Trustee on behalf of the Senior Noteholders. The Seventh Distribution Notice states that the amount distributed will constitute 3.182633% of the total allowed amount of the Senior Noteholder Claim. The calculation of the distribution to Senior Noteholders under the Plan results in an aggregate cash amount of USD1,555,119,895.63 (the  Seventh Plan Distribution ). After<BR>giving effect to the Seventh Plan Distribution, the cumulative distributions made by the Debtors to the Trustee on behalf of the Senior Noteholders will constitute 34.738339% of the total allowed amount of the Senior Noteholder Claim<BR><BR>CUSIP               Replacement  CUSIP           Unrounded Cash / USD1,000 of DTC Original Principal/Unit<BR>52517PSC6               525ESC3F4                 32.160174
BNDLQ	I	2016/08/23	2016/08/23	US52517PR606	612142	4054563	17	USD	32.00734	7	As on 10/08/2016<BR>-------------------------<BR><BR>NOTICE TO HOLDERS OF SENIOR NOTES OF LEHMAN BROTHERS HOLDINGS INC. (SEE ATTACHED EXHIBIT A   DISTRIBUTION SCHEDULE LISTING CUSIP NOS.) RE: APRIL 2, 2015 PLAN DISTRIBUTION TO SENIOR NOTEHOLDER<BR><BR>SEVENTH PLAN DISTRIBUTION TO SENIOR NOTEHOLDERS<BR><BR>As indicated in the Debtors  Notice dated March 26, 2015 (the  Seventh Distribution Notice ),5 on April 2, 2015, the Debtors will commence the seventh distribution under the Plan to the Trustee on behalf of the Senior Noteholders. The Seventh Distribution Notice states that the amount distributed will constitute 3.182633% of the total allowed amount of the Senior Noteholder Claim. The calculation of the distribution to Senior Noteholders under the Plan results in an aggregate cash amount of USD1,555,119,895.63 (the  Seventh Plan Distribution ). After<BR>giving effect to the Seventh Plan Distribution, the cumulative distributions made by the Debtors to the Trustee on behalf of the Senior Noteholders will constitute 34.738339% of the total allowed amount of the Senior Noteholder Claim<BR><BR>CUSIP               Replacement  CUSIP           Unrounded Cash / USD1,000 of DTC Original Principal/Unit<BR>52517PR60           525ESC2W8                   32.007342
BNDLQ	I	2016/08/23	2016/08/23	US52517PR606	612142	4054563	17	USD	32.00734	7	As on 10/08/2016<BR>-------------------------<BR><BR>NOTICE TO HOLDERS OF SENIOR NOTES OF LEHMAN BROTHERS HOLDINGS INC. (SEE ATTACHED EXHIBIT A   DISTRIBUTION SCHEDULE LISTING CUSIP NOS.) RE: APRIL 2, 2015 PLAN DISTRIBUTION TO SENIOR NOTEHOLDER<BR><BR>SEVENTH PLAN DISTRIBUTION TO SENIOR NOTEHOLDERS<BR><BR>As indicated in the Debtors  Notice dated March 26, 2015 (the  Seventh Distribution Notice ),5 on April 2, 2015, the Debtors will commence the seventh distribution under the Plan to the Trustee on behalf of the Senior Noteholders. The Seventh Distribution Notice states that the amount distributed will constitute 3.182633% of the total allowed amount of the Senior Noteholder Claim. The calculation of the distribution to Senior Noteholders under the Plan results in an aggregate cash amount of USD1,555,119,895.63 (the  Seventh Plan Distribution ). After<BR>giving effect to the Seventh Plan Distribution, the cumulative distributions made by the Debtors to the Trustee on behalf of the Senior Noteholders will constitute 34.738339% of the total allowed amount of the Senior Noteholder Claim<BR><BR>CUSIP               Replacement  CUSIP           Unrounded Cash / USD1,000 of DTC Original Principal/Unit<BR>52517PR60           525ESC2W8                   32.007342
BNDLQ	I	2016/08/23	2016/08/23	US52517P4C27	963576	4054568	18	USD	32.12337	7	As on 10/08/2016<BR>-------------------------<BR><BR>NOTICE TO HOLDERS OF SENIOR NOTES OF LEHMAN BROTHERS HOLDINGS INC. (SEE ATTACHED EXHIBIT A   DISTRIBUTION SCHEDULE LISTING CUSIP NOS.) RE: APRIL 2, 2015 PLAN DISTRIBUTION TO SENIOR NOTEHOLDER<BR><BR>SEVENTH PLAN DISTRIBUTION TO SENIOR NOTEHOLDERS<BR><BR>As indicated in the Debtors  Notice dated March 26, 2015 (the  Seventh Distribution Notice ),5 on April 2, 2015, the Debtors will commence the seventh distribution under the Plan to the Trustee on behalf of the Senior Noteholders. The Seventh Distribution Notice states that the amount distributed will constitute 3.182633% of the total allowed amount of the Senior Noteholder Claim. The calculation of the distribution to Senior Noteholders under the Plan results in an aggregate cash amount of USD1,555,119,895.63 (the  Seventh Plan Distribution ). After<BR>giving effect to the Seventh Plan Distribution, the cumulative distributions made by the Debtors to the Trustee on behalf of the Senior Noteholders will constitute 34.738339% of the total allowed amount of the Senior Noteholder Claim<BR><BR>CUSIP               Replacement  CUSIP           Unrounded Cash / USD1,000 of DTC Original Principal/Unit<BR>52517P4C2  525ESC8C6                    32.123375
BNDLQ	I	2016/08/26	2016/08/26	US52517PVV02	1595391	4058866	19	USD	32.59864	7	As on 10/08/2016<BR>-------------------------<BR><BR>NOTICE TO HOLDERS OF SENIOR NOTES OF LEHMAN BROTHERS HOLDINGS INC. (SEE ATTACHED EXHIBIT A   DISTRIBUTION SCHEDULE LISTING CUSIP NOS.) RE: APRIL 2, 2015 PLAN DISTRIBUTION TO SENIOR NOTEHOLDER<BR><BR>SEVENTH PLAN DISTRIBUTION TO SENIOR NOTEHOLDERS<BR><BR>As indicated in the Debtors  Notice dated March 26, 2015 (the  Seventh Distribution Notice ),5 on April 2, 2015, the Debtors will commence the seventh distribution under the Plan to the Trustee on behalf of the Senior Noteholders. The Seventh Distribution Notice states that the amount distributed will constitute 3.182633% of the total allowed amount of the Senior Noteholder Claim. The calculation of the distribution to Senior Noteholders under the Plan results in an aggregate cash amount of USD1,555,119,895.63 (the  Seventh Plan Distribution ). After<BR>giving effect to the Seventh Plan Distribution, the cumulative distributions made by the Debtors to the Trustee on behalf of the Senior Noteholders will constitute 34.738339% of the total allowed amount of the Senior Noteholder Claim<BR><BR>CUSIP               Replacement  CUSIP           Unrounded Cash / USD1,000 of DTC Original Principal/Unit<BR>52517PVV0  525ESC4J5                   32.598648
BNDLQ	I	2016/08/26	2016/08/26	US52517PYN58	1299853	4058869	20	USD	32.00667	7	As on 10/08/2016<BR>-------------------------<BR><BR>NOTICE TO HOLDERS OF SENIOR NOTES OF LEHMAN BROTHERS HOLDINGS INC. (SEE ATTACHED EXHIBIT A   DISTRIBUTION SCHEDULE LISTING CUSIP NOS.) RE: APRIL 2, 2015 PLAN DISTRIBUTION TO SENIOR NOTEHOLDER<BR><BR>SEVENTH PLAN DISTRIBUTION TO SENIOR NOTEHOLDERS<BR><BR>As indicated in the Debtors  Notice dated March 26, 2015 (the  Seventh Distribution Notice ),5 on April 2, 2015, the Debtors will commence the seventh distribution under the Plan to the Trustee on behalf of the Senior Noteholders. The Seventh Distribution Notice states that the amount distributed will constitute 3.182633% of the total allowed amount of the Senior Noteholder Claim. The calculation of the distribution to Senior Noteholders under the Plan results in an aggregate cash amount of USD1,555,119,895.63 (the  Seventh Plan Distribution ). After<BR>giving effect to the Seventh Plan Distribution, the cumulative distributions made by the Debtors to the Trustee on behalf of the Senior Noteholders will constitute 34.738339% of the total allowed amount of the Senior Noteholder Claim<BR><BR>CUSIP               Replacement  CUSIP           Unrounded Cash / USD1,000 of DTC Original Principal/Unit<BR>52517PYN5  525ESCAJ8                   32.006679
BNDLQ	I	2016/08/26	2016/08/26	US52517PF635	441586	4058871	21	USD	32.60916	7	As on 10/08/2016<BR>-------------------------<BR><BR>NOTICE TO HOLDERS OF SENIOR NOTES OF LEHMAN BROTHERS HOLDINGS INC. (SEE ATTACHED EXHIBIT A   DISTRIBUTION SCHEDULE LISTING CUSIP NOS.) RE: APRIL 2, 2015 PLAN DISTRIBUTION TO SENIOR NOTEHOLDER<BR><BR>SEVENTH PLAN DISTRIBUTION TO SENIOR NOTEHOLDERS<BR><BR>As indicated in the Debtors  Notice dated March 26, 2015 (the  Seventh Distribution Notice ),5 on April 2, 2015, the Debtors will commence the seventh distribution under the Plan to the Trustee on behalf of the Senior Noteholders. The Seventh Distribution Notice states that the amount distributed will constitute 3.182633% of the total allowed amount of the Senior Noteholder Claim. The calculation of the distribution to Senior Noteholders under the Plan results in an aggregate cash amount of USD1,555,119,895.63 (the  Seventh Plan Distribution ). After<BR>giving effect to the Seventh Plan Distribution, the cumulative distributions made by the Debtors to the Trustee on behalf of the Senior Noteholders will constitute 34.738339% of the total allowed amount of the Senior Noteholder Claim<BR><BR>CUSIP               Replacement  CUSIP           Unrounded Cash / USD1,000 of DTC Original Principal/Unit<BR>52517PF63  525ESC1H2                 32.609169
BNDLQ	I	2016/08/26	2016/08/26	US52517PF635	441586	4058871	21	USD	32.60916	7	As on 10/08/2016<BR>-------------------------<BR><BR>NOTICE TO HOLDERS OF SENIOR NOTES OF LEHMAN BROTHERS HOLDINGS INC. (SEE ATTACHED EXHIBIT A   DISTRIBUTION SCHEDULE LISTING CUSIP NOS.) RE: APRIL 2, 2015 PLAN DISTRIBUTION TO SENIOR NOTEHOLDER<BR><BR>SEVENTH PLAN DISTRIBUTION TO SENIOR NOTEHOLDERS<BR><BR>As indicated in the Debtors  Notice dated March 26, 2015 (the  Seventh Distribution Notice ),5 on April 2, 2015, the Debtors will commence the seventh distribution under the Plan to the Trustee on behalf of the Senior Noteholders. The Seventh Distribution Notice states that the amount distributed will constitute 3.182633% of the total allowed amount of the Senior Noteholder Claim. The calculation of the distribution to Senior Noteholders under the Plan results in an aggregate cash amount of USD1,555,119,895.63 (the  Seventh Plan Distribution ). After<BR>giving effect to the Seventh Plan Distribution, the cumulative distributions made by the Debtors to the Trustee on behalf of the Senior Noteholders will constitute 34.738339% of the total allowed amount of the Senior Noteholder Claim<BR><BR>CUSIP               Replacement  CUSIP           Unrounded Cash / USD1,000 of DTC Original Principal/Unit<BR>52517PF63  525ESC1H2                 32.609169
BNDLQ	I	2016/08/26	2016/08/26	US52517P5Y38	1104039	4058874	22	USD	32.86599	7	As on 10/08/2016<BR>-------------------------<BR><BR>NOTICE TO HOLDERS OF SENIOR NOTES OF LEHMAN BROTHERS HOLDINGS INC. (SEE ATTACHED EXHIBIT A   DISTRIBUTION SCHEDULE LISTING CUSIP NOS.) RE: APRIL 2, 2015 PLAN DISTRIBUTION TO SENIOR NOTEHOLDER<BR><BR>SEVENTH PLAN DISTRIBUTION TO SENIOR NOTEHOLDERS<BR><BR>As indicated in the Debtors  Notice dated March 26, 2015 (the  Seventh Distribution Notice ),5 on April 2, 2015, the Debtors will commence the seventh distribution under the Plan to the Trustee on behalf of the Senior Noteholders. The Seventh Distribution Notice states that the amount distributed will constitute 3.182633% of the total allowed amount of the Senior Noteholder Claim. The calculation of the distribution to Senior Noteholders under the Plan results in an aggregate cash amount of USD1,555,119,895.63 (the  Seventh Plan Distribution ). After<BR>giving effect to the Seventh Plan Distribution, the cumulative distributions made by the Debtors to the Trustee on behalf of the Senior Noteholders will constitute 34.738339% of the total allowed amount of the Senior Noteholder Claim<BR><BR>CUSIP               Replacement  CUSIP           Unrounded Cash / USD1,000 of DTC Original Principal/Unit<BR>52517P5Y3  525ESC6Y0                    32.86599
BNDLQ	I	2016/08/26	2016/08/26	US52517P5Y38	1104039	4058874	22	USD	32.86599	7	As on 10/08/2016<BR>-------------------------<BR><BR>NOTICE TO HOLDERS OF SENIOR NOTES OF LEHMAN BROTHERS HOLDINGS INC. (SEE ATTACHED EXHIBIT A   DISTRIBUTION SCHEDULE LISTING CUSIP NOS.) RE: APRIL 2, 2015 PLAN DISTRIBUTION TO SENIOR NOTEHOLDER<BR><BR>SEVENTH PLAN DISTRIBUTION TO SENIOR NOTEHOLDERS<BR><BR>As indicated in the Debtors  Notice dated March 26, 2015 (the  Seventh Distribution Notice ),5 on April 2, 2015, the Debtors will commence the seventh distribution under the Plan to the Trustee on behalf of the Senior Noteholders. The Seventh Distribution Notice states that the amount distributed will constitute 3.182633% of the total allowed amount of the Senior Noteholder Claim. The calculation of the distribution to Senior Noteholders under the Plan results in an aggregate cash amount of USD1,555,119,895.63 (the  Seventh Plan Distribution ). After<BR>giving effect to the Seventh Plan Distribution, the cumulative distributions made by the Debtors to the Trustee on behalf of the Senior Noteholders will constitute 34.738339% of the total allowed amount of the Senior Noteholder Claim<BR><BR>CUSIP               Replacement  CUSIP           Unrounded Cash / USD1,000 of DTC Original Principal/Unit<BR>52517P5Y3  525ESC6Y0                    32.86599
BNDLQ	I	2016/08/26	2016/08/26	US52517PQ467	4480941	4058878	23	USD	32.03806	7	As on 10/08/2016<BR>-------------------------<BR><BR>NOTICE TO HOLDERS OF SENIOR NOTES OF LEHMAN BROTHERS HOLDINGS INC. (SEE ATTACHED EXHIBIT A   DISTRIBUTION SCHEDULE LISTING CUSIP NOS.) RE: APRIL 2, 2015 PLAN DISTRIBUTION TO SENIOR NOTEHOLDER<BR><BR>SEVENTH PLAN DISTRIBUTION TO SENIOR NOTEHOLDERS<BR><BR>As indicated in the Debtors  Notice dated March 26, 2015 (the  Seventh Distribution Notice ),5 on April 2, 2015, the Debtors will commence the seventh distribution under the Plan to the Trustee on behalf of the Senior Noteholders. The Seventh Distribution Notice states that the amount distributed will constitute 3.182633% of the total allowed amount of the Senior Noteholder Claim. The calculation of the distribution to Senior Noteholders under the Plan results in an aggregate cash amount of USD1,555,119,895.63 (the  Seventh Plan Distribution ). After<BR>giving effect to the Seventh Plan Distribution, the cumulative distributions made by the Debtors to the Trustee on behalf of the Senior Noteholders will constitute 34.738339% of the total allowed amount of the Senior Noteholder Claim<BR><BR>CUSIP               Replacement  CUSIP           Unrounded Cash / USD1,000 of DTC Original Principal/Unit<BR>52517PQ46  525ESC2P3                    32.038067<BR>
BNDLQ	I	2016/09/01	2016/09/01	US52517PL336	4480976	4064589	24	USD	31.86643	7	As on 10/08/2016<BR>-------------------------<BR><BR>NOTICE TO HOLDERS OF SENIOR NOTES OF LEHMAN BROTHERS HOLDINGS INC. (SEE ATTACHED EXHIBIT A   DISTRIBUTION SCHEDULE LISTING CUSIP NOS.) RE: APRIL 2, 2015 PLAN DISTRIBUTION TO SENIOR NOTEHOLDER<BR><BR>SEVENTH PLAN DISTRIBUTION TO SENIOR NOTEHOLDERS<BR><BR>As indicated in the Debtors  Notice dated March 26, 2015 (the  Seventh Distribution Notice ),5 on April 2, 2015, the Debtors will commence the seventh distribution under the Plan to the Trustee on behalf of the Senior Noteholders. The Seventh Distribution Notice states that the amount distributed will constitute 3.182633% of the total allowed amount of the Senior Noteholder Claim. The calculation of the distribution to Senior Noteholders under the Plan results in an aggregate cash amount of USD1,555,119,895.63 (the  Seventh Plan Distribution ). After<BR>giving effect to the Seventh Plan Distribution, the cumulative distributions made by the Debtors to the Trustee on behalf of the Senior Noteholders will constitute 34.738339% of the total allowed amount of the Senior Noteholder Claim<BR><BR>CUSIP               Replacement  CUSIP           Unrounded Cash / USD1,000 of DTC Original Principal/Unit<BR>52517PL33  525ESC1Y5                    31.866431
BNDLQ	I	2016/09/01	2016/09/01	US52517PG211	954553	4064591	25	USD	32.01457	7	As on 10/08/2016<BR>-------------------------<BR><BR>NOTICE TO HOLDERS OF SENIOR NOTES OF LEHMAN BROTHERS HOLDINGS INC. (SEE ATTACHED EXHIBIT A   DISTRIBUTION SCHEDULE LISTING CUSIP NOS.) RE: APRIL 2, 2015 PLAN DISTRIBUTION TO SENIOR NOTEHOLDER<BR><BR>SEVENTH PLAN DISTRIBUTION TO SENIOR NOTEHOLDERS<BR><BR>As indicated in the Debtors  Notice dated March 26, 2015 (the  Seventh Distribution Notice ),5 on April 2, 2015, the Debtors will commence the seventh distribution under the Plan to the Trustee on behalf of the Senior Noteholders. The Seventh Distribution Notice states that the amount distributed will constitute 3.182633% of the total allowed amount of the Senior Noteholder Claim. The calculation of the distribution to Senior Noteholders under the Plan results in an aggregate cash amount of USD1,555,119,895.63 (the  Seventh Plan Distribution ). After<BR>giving effect to the Seventh Plan Distribution, the cumulative distributions made by the Debtors to the Trustee on behalf of the Senior Noteholders will constitute 34.738339% of the total allowed amount of the Senior Noteholder Claim<BR><BR>CUSIP               Replacement  CUSIP           Unrounded Cash / USD1,000 of DTC Original Principal/Unit<BR>52517PG21  525ESC1J8                  32.014578
BNDLQ	I	2016/09/01	2016/09/01	US52517PK833	947832	4064592	26	USD	31.89067	7	As on 10/08/2016<BR>-------------------------<BR><BR>NOTICE TO HOLDERS OF SENIOR NOTES OF LEHMAN BROTHERS HOLDINGS INC. (SEE ATTACHED EXHIBIT A   DISTRIBUTION SCHEDULE LISTING CUSIP NOS.) RE: APRIL 2, 2015 PLAN DISTRIBUTION TO SENIOR NOTEHOLDER<BR><BR>SEVENTH PLAN DISTRIBUTION TO SENIOR NOTEHOLDERS<BR><BR>As indicated in the Debtors  Notice dated March 26, 2015 (the  Seventh Distribution Notice ),5 on April 2, 2015, the Debtors will commence the seventh distribution under the Plan to the Trustee on behalf of the Senior Noteholders. The Seventh Distribution Notice states that the amount distributed will constitute 3.182633% of the total allowed amount of the Senior Noteholder Claim. The calculation of the distribution to Senior Noteholders under the Plan results in an aggregate cash amount of USD1,555,119,895.63 (the  Seventh Plan Distribution ). After<BR>giving effect to the Seventh Plan Distribution, the cumulative distributions made by the Debtors to the Trustee on behalf of the Senior Noteholders will constitute 34.738339% of the total allowed amount of the Senior Noteholder Claim<BR><BR>CUSIP               Replacement  CUSIP           Unrounded Cash / USD1,000 of DTC Original Principal/Unit<BR>52517PK83  525ESC1V1                    31.890673
BNDLQ	I	2016/09/01	2016/09/01	US52517PA354	609459	4064594	27	USD	32.02126	7	As on 10/08/2016<BR>-------------------------<BR><BR>NOTICE TO HOLDERS OF SENIOR NOTES OF LEHMAN BROTHERS HOLDINGS INC. (SEE ATTACHED EXHIBIT A   DISTRIBUTION SCHEDULE LISTING CUSIP NOS.) RE: APRIL 2, 2015 PLAN DISTRIBUTION TO SENIOR NOTEHOLDER<BR><BR>SEVENTH PLAN DISTRIBUTION TO SENIOR NOTEHOLDERS<BR><BR>As indicated in the Debtors  Notice dated March 26, 2015 (the  Seventh Distribution Notice ),5 on April 2, 2015, the Debtors will commence the seventh distribution under the Plan to the Trustee on behalf of the Senior Noteholders. The Seventh Distribution Notice states that the amount distributed will constitute 3.182633% of the total allowed amount of the Senior Noteholder Claim. The calculation of the distribution to Senior Noteholders under the Plan results in an aggregate cash amount of USD1,555,119,895.63 (the  Seventh Plan Distribution ). After<BR>giving effect to the Seventh Plan Distribution, the cumulative distributions made by the Debtors to the Trustee on behalf of the Senior Noteholders will constitute 34.738339% of the total allowed amount of the Senior Noteholder Claim<BR><BR>CUSIP               Replacement  CUSIP           Unrounded Cash / USD1,000 of DTC Original Principal/Unit<BR>52517PA35  525ESC133                    32.021266<BR>
BNDLQ	I	2016/09/01	2016/09/01	US52517PD655	839756	4064595	28	USD	32.04994	7	As on 10/08/2016<BR>-------------------------<BR><BR>NOTICE TO HOLDERS OF SENIOR NOTES OF LEHMAN BROTHERS HOLDINGS INC. (SEE ATTACHED EXHIBIT A   DISTRIBUTION SCHEDULE LISTING CUSIP NOS.) RE: APRIL 2, 2015 PLAN DISTRIBUTION TO SENIOR NOTEHOLDER<BR><BR>SEVENTH PLAN DISTRIBUTION TO SENIOR NOTEHOLDERS<BR><BR>As indicated in the Debtors  Notice dated March 26, 2015 (the  Seventh Distribution Notice ),5 on April 2, 2015, the Debtors will commence the seventh distribution under the Plan to the Trustee on behalf of the Senior Noteholders. The Seventh Distribution Notice states that the amount distributed will constitute 3.182633% of the total allowed amount of the Senior Noteholder Claim. The calculation of the distribution to Senior Noteholders under the Plan results in an aggregate cash amount of USD1,555,119,895.63 (the  Seventh Plan Distribution ). After<BR>giving effect to the Seventh Plan Distribution, the cumulative distributions made by the Debtors to the Trustee on behalf of the Senior Noteholders will constitute 34.738339% of the total allowed amount of the Senior Noteholder Claim<BR><BR>CUSIP               Replacement  CUSIP           Unrounded Cash / USD1,000 of DTC Original Principal/Unit<BR>52517PD65  525ESC1C3                     32.049949<BR>
BNDLQ	I	2016/09/01	2016/09/01	US52517PK593	957588	4064599	29	USD	32.11608	7	As on 10/08/2016<BR>-------------------------<BR><BR>NOTICE TO HOLDERS OF SENIOR NOTES OF LEHMAN BROTHERS HOLDINGS INC. (SEE ATTACHED EXHIBIT A   DISTRIBUTION SCHEDULE LISTING CUSIP NOS.) RE: APRIL 2, 2015 PLAN DISTRIBUTION TO SENIOR NOTEHOLDER<BR><BR>SEVENTH PLAN DISTRIBUTION TO SENIOR NOTEHOLDERS<BR><BR>As indicated in the Debtors  Notice dated March 26, 2015 (the  Seventh Distribution Notice ),5 on April 2, 2015, the Debtors will commence the seventh distribution under the Plan to the Trustee on behalf of the Senior Noteholders. The Seventh Distribution Notice states that the amount distributed will constitute 3.182633% of the total allowed amount of the Senior Noteholder Claim. The calculation of the distribution to Senior Noteholders under the Plan results in an aggregate cash amount of USD1,555,119,895.63 (the  Seventh Plan Distribution ). After<BR>giving effect to the Seventh Plan Distribution, the cumulative distributions made by the Debtors to the Trustee on behalf of the Senior Noteholders will constitute 34.738339% of the total allowed amount of the Senior Noteholder Claim<BR><BR>CUSIP               Replacement  CUSIP           Unrounded Cash / USD1,000 of DTC Original Principal/Unit<BR>52517PK59  525ESC1T6                      32.116082<BR>
BNDLQ	I	2016/09/01	2016/09/01	US52517PH615	405362	4064602	30	USD	32.42616	7	As on 10/08/2016<BR>-------------------------<BR><BR>NOTICE TO HOLDERS OF SENIOR NOTES OF LEHMAN BROTHERS HOLDINGS INC. (SEE ATTACHED EXHIBIT A   DISTRIBUTION SCHEDULE LISTING CUSIP NOS.) RE: APRIL 2, 2015 PLAN DISTRIBUTION TO SENIOR NOTEHOLDER<BR><BR>SEVENTH PLAN DISTRIBUTION TO SENIOR NOTEHOLDERS<BR><BR>As indicated in the Debtors  Notice dated March 26, 2015 (the  Seventh Distribution Notice ),5 on April 2, 2015, the Debtors will commence the seventh distribution under the Plan to the Trustee on behalf of the Senior Noteholders. The Seventh Distribution Notice states that the amount distributed will constitute 3.182633% of the total allowed amount of the Senior Noteholder Claim. The calculation of the distribution to Senior Noteholders under the Plan results in an aggregate cash amount of USD1,555,119,895.63 (the  Seventh Plan Distribution ). After<BR>giving effect to the Seventh Plan Distribution, the cumulative distributions made by the Debtors to the Trustee on behalf of the Senior Noteholders will constitute 34.738339% of the total allowed amount of the Senior Noteholder Claim<BR><BR>CUSIP               Replacement  CUSIP           Unrounded Cash / USD1,000 of DTC Original Principal/Unit<BR>52517PH61  525ESC1O7                    32.426167<BR>
BNDLQ	I	2016/09/01	2016/09/01	US52517PD572	951517	4064606	31	USD	32.09596	7	As on 10/08/2016<BR>-------------------------<BR><BR>NOTICE TO HOLDERS OF SENIOR NOTES OF LEHMAN BROTHERS HOLDINGS INC. (SEE ATTACHED EXHIBIT A   DISTRIBUTION SCHEDULE LISTING CUSIP NOS.) RE: APRIL 2, 2015 PLAN DISTRIBUTION TO SENIOR NOTEHOLDER<BR><BR>SEVENTH PLAN DISTRIBUTION TO SENIOR NOTEHOLDERS<BR><BR>As indicated in the Debtors  Notice dated March 26, 2015 (the  Seventh Distribution Notice ),5 on April 2, 2015, the Debtors will commence the seventh distribution under the Plan to the Trustee on behalf of the Senior Noteholders. The Seventh Distribution Notice states that the amount distributed will constitute 3.182633% of the total allowed amount of the Senior Noteholder Claim. The calculation of the distribution to Senior Noteholders under the Plan results in an aggregate cash amount of USD1,555,119,895.63 (the  Seventh Plan Distribution ). After<BR>giving effect to the Seventh Plan Distribution, the cumulative distributions made by the Debtors to the Trustee on behalf of the Senior Noteholders will constitute 34.738339% of the total allowed amount of the Senior Noteholder Claim<BR><BR>CUSIP               Replacement  CUSIP           Unrounded Cash / USD1,000 of DTC Original Principal/Unit<BR>52517PD57  525ESC1B5                   32.095969<BR>
BNDLQ	I	2016/09/01	2016/09/01	US524908CM04	256979	4064607	32	USD	32.03519	7	As on 10/08/2016<BR>-------------------------<BR><BR>NOTICE TO HOLDERS OF SENIOR NOTES OF LEHMAN BROTHERS HOLDINGS INC. (SEE ATTACHED EXHIBIT A   DISTRIBUTION SCHEDULE LISTING CUSIP NOS.) RE: APRIL 2, 2015 PLAN DISTRIBUTION TO SENIOR NOTEHOLDER<BR><BR>SEVENTH PLAN DISTRIBUTION TO SENIOR NOTEHOLDERS<BR><BR>As indicated in the Debtors  Notice dated March 26, 2015 (the  Seventh Distribution Notice ),5 on April 2, 2015, the Debtors will commence the seventh distribution under the Plan to the Trustee on behalf of the Senior Noteholders. The Seventh Distribution Notice states that the amount distributed will constitute 3.182633% of the total allowed amount of the Senior Noteholder Claim. The calculation of the distribution to Senior Noteholders under the Plan results in an aggregate cash amount of USD1,555,119,895.63 (the  Seventh Plan Distribution ). After<BR>giving effect to the Seventh Plan Distribution, the cumulative distributions made by the Debtors to the Trustee on behalf of the Senior Noteholders will constitute 34.738339% of the total allowed amount of the Senior Noteholder Claim<BR><BR>CUSIP               Replacement  CUSIP           Unrounded Cash / USD1,000 of DTC Original Principal/Unit<BR>524908CM0  524ESCC81                    32.03519<BR>
BNDLQ	I	2016/09/01	2016/09/01	US52517PW564	956635	4064613	33	USD	31.86875	7	As on 10/08/2016<BR>-------------------------<BR><BR>NOTICE TO HOLDERS OF SENIOR NOTES OF LEHMAN BROTHERS HOLDINGS INC. (SEE ATTACHED EXHIBIT A   DISTRIBUTION SCHEDULE LISTING CUSIP NOS.) RE: APRIL 2, 2015 PLAN DISTRIBUTION TO SENIOR NOTEHOLDER<BR><BR>SEVENTH PLAN DISTRIBUTION TO SENIOR NOTEHOLDERS<BR><BR>As indicated in the Debtors  Notice dated March 26, 2015 (the  Seventh Distribution Notice ),5 on April 2, 2015, the Debtors will commence the seventh distribution under the Plan to the Trustee on behalf of the Senior Noteholders. The Seventh Distribution Notice states that the amount distributed will constitute 3.182633% of the total allowed amount of the Senior Noteholder Claim. The calculation of the distribution to Senior Noteholders under the Plan results in an aggregate cash amount of USD1,555,119,895.63 (the  Seventh Plan Distribution ). After<BR>giving effect to the Seventh Plan Distribution, the cumulative distributions made by the Debtors to the Trustee on behalf of the Senior Noteholders will constitute 34.738339% of the total allowed amount of the Senior Noteholder Claim<BR><BR>CUSIP               Replacement  CUSIP           Unrounded Cash / USD1,000 of DTC Original Principal/Unit<BR>52517PW56  525ESC4O4                     31.868751<BR>
EDI_ENDOFFILE
