EDI_CURRD_20160902
TableName	Actflag	Created	Changed	CurrdID	SecID	ISIN	EffectiveDate	OldCurenCD	NewCurenCD	OldParValue	NewParValue	EventType	Notes
CURRD	I	2003/03/08	2003/03/08	2519	60752	DE0006048432		DEM	EUR				
CURRD	I	2003/04/09	2003/04/09	2636	60869	DE0005245534		DEM	EUR				
CURRD	I	2003/05/02	2003/05/02	2800	60825	DE0007274136		DEM	EUR				
CURRD	I	2003/05/10	2003/05/10	2861	60756	DE0007165631		DEM	EUR				
CURRD	I	2003/05/15	2003/05/15	2872	60772	DE0005550636		DEM	EUR				
CURRD	I	2004/12/03	2004/12/03	4326	60960	DE0007664039	2004/06/30	DEM	EUR			CORR	
EDI_ENDOFFILE
